2022-07-21 12:35:18,786-37662-INFO:Mode=train
2022-07-21 12:35:20,606-39482-INFO:Using gpu 0
2022-07-21 12:35:20,889-39766-INFO:Loading corpora...
2022-07-21 12:35:41,427-60303-INFO:Vocabulary extraction...
2022-07-21 12:35:42,221-61097-INFO:Model initialization...
2022-07-21 12:35:42,605-61481-DEBUG:Starting new HTTPS connection (1): huggingface.co:443
2022-07-21 12:35:43,151-62027-DEBUG:https://huggingface.co:443 "HEAD /bert-base-cased/resolve/main/tokenizer_config.json HTTP/1.1" 200 0
2022-07-21 12:35:43,383-62259-DEBUG:Starting new HTTPS connection (1): huggingface.co:443
2022-07-21 12:35:43,980-62857-DEBUG:https://huggingface.co:443 "HEAD /bert-base-cased/resolve/main/config.json HTTP/1.1" 200 0
2022-07-21 12:35:44,113-62990-DEBUG:Starting new HTTPS connection (1): huggingface.co:443
2022-07-21 12:35:45,008-63884-DEBUG:https://huggingface.co:443 "GET /api/models/bert-base-cased HTTP/1.1" 200 1143
2022-07-21 12:35:45,165-64041-DEBUG:Starting new HTTPS connection (1): huggingface.co:443
2022-07-21 12:35:45,667-64543-DEBUG:https://huggingface.co:443 "HEAD /bert-base-cased/resolve/main/vocab.txt HTTP/1.1" 200 0
2022-07-21 12:35:45,847-64723-DEBUG:Starting new HTTPS connection (1): huggingface.co:443
2022-07-21 12:35:46,274-65151-DEBUG:https://huggingface.co:443 "HEAD /bert-base-cased/resolve/main/tokenizer.json HTTP/1.1" 200 0
2022-07-21 12:35:46,758-65634-DEBUG:Starting new HTTPS connection (1): huggingface.co:443
2022-07-21 12:35:47,456-66332-DEBUG:https://huggingface.co:443 "HEAD /bert-base-cased/resolve/main/added_tokens.json HTTP/1.1" 404 0
2022-07-21 12:35:48,116-66992-DEBUG:Starting new HTTPS connection (1): huggingface.co:443
2022-07-21 12:35:48,609-67485-DEBUG:https://huggingface.co:443 "HEAD /bert-base-cased/resolve/main/special_tokens_map.json HTTP/1.1" 404 0
2022-07-21 12:35:48,789-67665-DEBUG:Starting new HTTPS connection (1): huggingface.co:443
2022-07-21 12:35:49,362-68238-DEBUG:https://huggingface.co:443 "HEAD /bert-base-cased/resolve/main/tokenizer_config.json HTTP/1.1" 200 0
2022-07-21 12:35:49,576-68452-DEBUG:Starting new HTTPS connection (1): huggingface.co:443
2022-07-21 12:35:50,136-69012-DEBUG:https://huggingface.co:443 "HEAD /bert-base-cased/resolve/main/config.json HTTP/1.1" 200 0
2022-07-21 12:35:50,351-69227-DEBUG:Starting new HTTPS connection (1): huggingface.co:443
2022-07-21 12:35:50,853-69729-DEBUG:https://huggingface.co:443 "HEAD /bert-base-cased/resolve/main/config.json HTTP/1.1" 200 0
2022-07-21 12:35:51,136-70012-DEBUG:Starting new HTTPS connection (1): huggingface.co:443
2022-07-21 12:35:51,695-70572-DEBUG:https://huggingface.co:443 "HEAD /bert-base-cased/resolve/main/pytorch_model.bin HTTP/1.1" 302 0
Some weights of the model checkpoint at bert-base-cased were not used when initializing BertModel: ['cls.predictions.transform.dense.bias', 'cls.seq_relationship.bias', 'cls.predictions.bias', 'cls.seq_relationship.weight', 'cls.predictions.transform.dense.weight', 'cls.predictions.transform.LayerNorm.weight', 'cls.predictions.transform.LayerNorm.bias', 'cls.predictions.decoder.weight']
- This IS expected if you are initializing BertModel from the checkpoint of a model trained on another task or with another architecture (e.g. initializing a BertForSequenceClassification model from a BertForPreTraining model).
- This IS NOT expected if you are initializing BertModel from the checkpoint of a model that you expect to be exactly identical (initializing a BertForSequenceClassification model from a BertForSequenceClassification model).
2022-07-21 12:36:25,379-104255-INFO:Constructing training examples...
2022-07-21 12:36:30,751-109627-INFO:Starting training
2022-07-21 12:36:31,635-110511-INFO:Epoch 1 Training batch 0/62 sent 0 to 32 lr:9.6774e-07
2022-07-21 12:36:45,239-124115-INFO:Epoch 1 Training batch 20/62 sent 640 to 672 lr:1.9355e-05
2022-07-21 12:36:58,273-137149-INFO:Epoch 1 Training batch 40/62 sent 1280 to 1312 lr:3.8710e-05
2022-07-21 12:37:11,240-150116-INFO:Epoch 1 Training batch 60/62 sent 1920 to 1952 lr:5.8065e-05
2022-07-21 12:40:40,503-359379-INFO:Epoch 2 Training batch 0/62 sent 0 to 32 lr:6.0000e-05
2022-07-21 12:40:53,557-372433-INFO:Epoch 2 Training batch 20/62 sent 640 to 672 lr:6.0000e-05
2022-07-21 12:41:07,208-386085-INFO:Epoch 2 Training batch 40/62 sent 1280 to 1312 lr:6.0000e-05
2022-07-21 12:41:20,215-399091-INFO:Epoch 2 Training batch 60/62 sent 1920 to 1952 lr:6.0000e-05
2022-07-21 12:44:26,890-585766-INFO:Epoch 3 Training batch 0/62 sent 0 to 32 lr:6.0000e-05
2022-07-21 12:44:40,073-598949-INFO:Epoch 3 Training batch 20/62 sent 640 to 672 lr:6.0000e-05
2022-07-21 12:44:53,023-611899-INFO:Epoch 3 Training batch 40/62 sent 1280 to 1312 lr:6.0000e-05
2022-07-21 12:45:05,963-624839-INFO:Epoch 3 Training batch 60/62 sent 1920 to 1952 lr:6.0000e-05
2022-07-21 12:50:28,538-947414-INFO:Epoch 4 Training batch 0/62 sent 0 to 32 lr:6.0000e-05
2022-07-21 12:50:41,601-960477-INFO:Epoch 4 Training batch 20/62 sent 640 to 672 lr:6.0000e-05
2022-07-21 12:50:54,841-973717-INFO:Epoch 4 Training batch 40/62 sent 1280 to 1312 lr:6.0000e-05
2022-07-21 12:51:07,635-986511-INFO:Epoch 4 Training batch 60/62 sent 1920 to 1952 lr:6.0000e-05
2022-07-21 12:54:32,287-1191163-INFO:Epoch 5 Training batch 0/62 sent 0 to 32 lr:6.0000e-05
2022-07-21 12:54:45,684-1204561-INFO:Epoch 5 Training batch 20/62 sent 640 to 672 lr:6.0000e-05
2022-07-21 12:54:58,830-1217706-INFO:Epoch 5 Training batch 40/62 sent 1280 to 1312 lr:6.0000e-05
2022-07-21 12:55:11,878-1230754-INFO:Epoch 5 Training batch 60/62 sent 1920 to 1952 lr:6.0000e-05
2022-07-21 12:58:34,496-1433373-INFO:Epoch 6 Training batch 0/62 sent 0 to 32 lr:6.0000e-05
2022-07-21 12:58:47,807-1446683-INFO:Epoch 6 Training batch 20/62 sent 640 to 672 lr:6.0000e-05
2022-07-21 12:59:00,866-1459743-INFO:Epoch 6 Training batch 40/62 sent 1280 to 1312 lr:6.0000e-05
2022-07-21 12:59:13,828-1472704-INFO:Epoch 6 Training batch 60/62 sent 1920 to 1952 lr:6.0000e-05
2022-07-21 13:03:47,758-1746635-INFO:Epoch 7 Training batch 0/62 sent 0 to 32 lr:6.0000e-05
2022-07-21 13:04:01,495-1760371-INFO:Epoch 7 Training batch 20/62 sent 640 to 672 lr:6.0000e-05
2022-07-21 13:04:14,810-1773687-INFO:Epoch 7 Training batch 40/62 sent 1280 to 1312 lr:6.0000e-05
2022-07-21 13:04:28,213-1787090-INFO:Epoch 7 Training batch 60/62 sent 1920 to 1952 lr:6.0000e-05
2022-07-21 13:09:07,873-2066749-INFO:Epoch 8 Training batch 0/62 sent 0 to 32 lr:6.0000e-05
2022-07-21 13:09:21,222-2080098-INFO:Epoch 8 Training batch 20/62 sent 640 to 672 lr:6.0000e-05
2022-07-21 13:09:34,519-2093395-INFO:Epoch 8 Training batch 40/62 sent 1280 to 1312 lr:6.0000e-05
2022-07-21 13:09:47,690-2106566-INFO:Epoch 8 Training batch 60/62 sent 1920 to 1952 lr:6.0000e-05
2022-07-21 13:13:09,578-2308454-INFO:Epoch 9 Training batch 0/62 sent 0 to 32 lr:6.0000e-05
2022-07-21 13:13:23,333-2322209-INFO:Epoch 9 Training batch 20/62 sent 640 to 672 lr:6.0000e-05
2022-07-21 13:13:36,728-2335604-INFO:Epoch 9 Training batch 40/62 sent 1280 to 1312 lr:6.0000e-05
2022-07-21 13:13:50,679-2349556-INFO:Epoch 9 Training batch 60/62 sent 1920 to 1952 lr:6.0000e-05
2022-07-21 13:16:57,271-2536147-INFO:Epoch 10 Training batch 0/62 sent 0 to 32 lr:6.0000e-05
2022-07-21 13:17:10,311-2549187-INFO:Epoch 10 Training batch 20/62 sent 640 to 672 lr:6.0000e-05
2022-07-21 13:17:23,039-2561915-INFO:Epoch 10 Training batch 40/62 sent 1280 to 1312 lr:6.0000e-05
2022-07-21 13:17:36,193-2575070-INFO:Epoch 10 Training batch 60/62 sent 1920 to 1952 lr:6.0000e-05
2022-07-21 13:20:51,912-2770788-INFO:Epoch 11 Training batch 0/62 sent 0 to 32 lr:6.0000e-05
2022-07-21 13:21:05,146-2784023-INFO:Epoch 11 Training batch 20/62 sent 640 to 672 lr:6.0000e-05
2022-07-21 13:21:18,356-2797232-INFO:Epoch 11 Training batch 40/62 sent 1280 to 1312 lr:6.0000e-05
2022-07-21 13:21:31,304-2810180-INFO:Epoch 11 Training batch 60/62 sent 1920 to 1952 lr:6.0000e-05
2022-07-21 13:26:18,020-3096896-INFO:Epoch 12 Training batch 0/62 sent 0 to 32 lr:6.0000e-05
2022-07-21 13:26:31,007-3109883-INFO:Epoch 12 Training batch 20/62 sent 640 to 672 lr:6.0000e-05
2022-07-21 13:26:44,114-3122990-INFO:Epoch 12 Training batch 40/62 sent 1280 to 1312 lr:6.0000e-05
2022-07-21 13:26:56,982-3135859-INFO:Epoch 12 Training batch 60/62 sent 1920 to 1952 lr:6.0000e-05
2022-07-21 13:31:04,326-3383202-INFO:Epoch 13 Training batch 0/62 sent 0 to 32 lr:6.0000e-05
2022-07-21 13:31:17,483-3396359-INFO:Epoch 13 Training batch 20/62 sent 640 to 672 lr:6.0000e-05
2022-07-21 13:31:30,967-3409843-INFO:Epoch 13 Training batch 40/62 sent 1280 to 1312 lr:6.0000e-05
2022-07-21 13:31:43,752-3422628-INFO:Epoch 13 Training batch 60/62 sent 1920 to 1952 lr:6.0000e-05
2022-07-21 13:35:49,302-3668179-INFO:Epoch 14 Training batch 0/62 sent 0 to 32 lr:6.0000e-05
2022-07-21 13:36:02,503-3681380-INFO:Epoch 14 Training batch 20/62 sent 640 to 672 lr:6.0000e-05
2022-07-21 13:36:15,673-3694550-INFO:Epoch 14 Training batch 40/62 sent 1280 to 1312 lr:6.0000e-05
2022-07-21 13:36:28,393-3707270-INFO:Epoch 14 Training batch 60/62 sent 1920 to 1952 lr:6.0000e-05
2022-07-21 13:38:50,082-3848958-INFO:Epoch 15 Training batch 0/62 sent 0 to 32 lr:6.0000e-05
2022-07-21 13:39:02,866-3861742-INFO:Epoch 15 Training batch 20/62 sent 640 to 672 lr:6.0000e-05
2022-07-21 13:39:15,911-3874787-INFO:Epoch 15 Training batch 40/62 sent 1280 to 1312 lr:6.0000e-05
2022-07-21 13:39:28,994-3887870-INFO:Epoch 15 Training batch 60/62 sent 1920 to 1952 lr:6.0000e-05
2022-07-21 13:42:36,504-4075381-INFO:Epoch 16 Training batch 0/62 sent 0 to 32 lr:6.0000e-05
2022-07-21 13:42:49,514-4088390-INFO:Epoch 16 Training batch 20/62 sent 640 to 672 lr:6.0000e-05
2022-07-21 13:43:02,875-4101751-INFO:Epoch 16 Training batch 40/62 sent 1280 to 1312 lr:6.0000e-05
2022-07-21 13:43:15,168-4114044-INFO:Epoch 16 Training batch 60/62 sent 1920 to 1952 lr:6.0000e-05
2022-07-21 13:46:34,939-4313815-INFO:Epoch 17 Training batch 0/62 sent 0 to 32 lr:6.0000e-05
2022-07-21 13:46:47,783-4326659-INFO:Epoch 17 Training batch 20/62 sent 640 to 672 lr:6.0000e-05
2022-07-21 13:47:01,096-4339972-INFO:Epoch 17 Training batch 40/62 sent 1280 to 1312 lr:6.0000e-05
2022-07-21 13:47:13,817-4352693-INFO:Epoch 17 Training batch 60/62 sent 1920 to 1952 lr:6.0000e-05
2022-07-21 13:49:32,983-4491860-INFO:Epoch 18 Training batch 0/62 sent 0 to 32 lr:6.0000e-05
2022-07-21 13:49:45,720-4504596-INFO:Epoch 18 Training batch 20/62 sent 640 to 672 lr:6.0000e-05
2022-07-21 13:49:58,738-4517614-INFO:Epoch 18 Training batch 40/62 sent 1280 to 1312 lr:6.0000e-05
2022-07-21 13:50:11,552-4530428-INFO:Epoch 18 Training batch 60/62 sent 1920 to 1952 lr:6.0000e-05
2022-07-21 13:53:57,012-4755888-INFO:Epoch 19 Training batch 0/62 sent 0 to 32 lr:6.0000e-05
2022-07-21 13:54:09,884-4768761-INFO:Epoch 19 Training batch 20/62 sent 640 to 672 lr:6.0000e-05
2022-07-21 13:54:22,828-4781704-INFO:Epoch 19 Training batch 40/62 sent 1280 to 1312 lr:6.0000e-05
2022-07-21 13:54:36,104-4794980-INFO:Epoch 19 Training batch 60/62 sent 1920 to 1952 lr:6.0000e-05
2022-07-21 13:56:57,665-4936541-INFO:Epoch 20 Training batch 0/62 sent 0 to 32 lr:6.0000e-05
2022-07-21 13:57:10,712-4949588-INFO:Epoch 20 Training batch 20/62 sent 640 to 672 lr:6.0000e-05
2022-07-21 13:57:24,459-4963335-INFO:Epoch 20 Training batch 40/62 sent 1280 to 1312 lr:6.0000e-05
2022-07-21 13:57:37,360-4976236-INFO:Epoch 20 Training batch 60/62 sent 1920 to 1952 lr:6.0000e-05
2022-07-21 13:59:58,504-5117380-INFO:Epoch 21 Training batch 0/62 sent 0 to 32 lr:6.0000e-05
2022-07-21 14:00:11,601-5130477-INFO:Epoch 21 Training batch 20/62 sent 640 to 672 lr:6.0000e-05
2022-07-21 14:00:24,675-5143551-INFO:Epoch 21 Training batch 40/62 sent 1280 to 1312 lr:6.0000e-05
2022-07-21 14:00:37,498-5156375-INFO:Epoch 21 Training batch 60/62 sent 1920 to 1952 lr:6.0000e-05
2022-07-21 14:02:58,825-5297701-INFO:Epoch 22 Training batch 0/62 sent 0 to 32 lr:6.0000e-05
2022-07-21 14:03:12,012-5310888-INFO:Epoch 22 Training batch 20/62 sent 640 to 672 lr:6.0000e-05
2022-07-21 14:03:24,602-5323478-INFO:Epoch 22 Training batch 40/62 sent 1280 to 1312 lr:6.0000e-05
2022-07-21 14:03:37,954-5336831-INFO:Epoch 22 Training batch 60/62 sent 1920 to 1952 lr:6.0000e-05
2022-07-21 14:07:06,760-5545636-INFO:Epoch 23 Training batch 0/62 sent 0 to 32 lr:6.0000e-05
2022-07-21 14:07:19,775-5558651-INFO:Epoch 23 Training batch 20/62 sent 640 to 672 lr:6.0000e-05
2022-07-21 14:07:32,611-5571487-INFO:Epoch 23 Training batch 40/62 sent 1280 to 1312 lr:6.0000e-05
2022-07-21 14:07:45,723-5584599-INFO:Epoch 23 Training batch 60/62 sent 1920 to 1952 lr:6.0000e-05
2022-07-21 14:11:03,597-5782473-INFO:Epoch 24 Training batch 0/62 sent 0 to 32 lr:6.0000e-05
2022-07-21 14:11:16,593-5795470-INFO:Epoch 24 Training batch 20/62 sent 640 to 672 lr:6.0000e-05
2022-07-21 14:11:29,730-5808607-INFO:Epoch 24 Training batch 40/62 sent 1280 to 1312 lr:6.0000e-05
2022-07-21 14:11:42,443-5821319-INFO:Epoch 24 Training batch 60/62 sent 1920 to 1952 lr:6.0000e-05
2022-07-21 14:14:03,985-5962861-INFO:Epoch 25 Training batch 0/62 sent 0 to 32 lr:6.0000e-05
2022-07-21 14:14:17,085-5975962-INFO:Epoch 25 Training batch 20/62 sent 640 to 672 lr:6.0000e-05
2022-07-21 14:14:29,848-5988724-INFO:Epoch 25 Training batch 40/62 sent 1280 to 1312 lr:6.0000e-05
2022-07-21 14:14:42,923-6001800-INFO:Epoch 25 Training batch 60/62 sent 1920 to 1952 lr:6.0000e-05
2022-07-21 14:17:02,447-6141324-INFO:Epoch 26 Training batch 0/62 sent 0 to 32 lr:6.0000e-05
2022-07-21 14:17:15,572-6154448-INFO:Epoch 26 Training batch 20/62 sent 640 to 672 lr:6.0000e-05
2022-07-21 14:17:28,739-6167616-INFO:Epoch 26 Training batch 40/62 sent 1280 to 1312 lr:6.0000e-05
2022-07-21 14:17:41,398-6180274-INFO:Epoch 26 Training batch 60/62 sent 1920 to 1952 lr:6.0000e-05
2022-07-21 14:20:00,990-6319866-INFO:Epoch 27 Training batch 0/62 sent 0 to 32 lr:6.0000e-05
2022-07-21 14:20:14,259-6333135-INFO:Epoch 27 Training batch 20/62 sent 640 to 672 lr:6.0000e-05
2022-07-21 14:20:26,961-6345837-INFO:Epoch 27 Training batch 40/62 sent 1280 to 1312 lr:6.0000e-05
2022-07-21 14:20:39,904-6358780-INFO:Epoch 27 Training batch 60/62 sent 1920 to 1952 lr:6.0000e-05
2022-07-21 14:22:59,197-6498073-INFO:Epoch 28 Training batch 0/62 sent 0 to 32 lr:3.0000e-05
2022-07-21 14:23:12,331-6511208-INFO:Epoch 28 Training batch 20/62 sent 640 to 672 lr:3.0000e-05
2022-07-21 14:23:25,257-6524133-INFO:Epoch 28 Training batch 40/62 sent 1280 to 1312 lr:3.0000e-05
2022-07-21 14:23:38,246-6537122-INFO:Epoch 28 Training batch 60/62 sent 1920 to 1952 lr:3.0000e-05
2022-07-21 14:27:14,369-6753246-INFO:Epoch 29 Training batch 0/62 sent 0 to 32 lr:3.0000e-05
2022-07-21 14:27:27,219-6766095-INFO:Epoch 29 Training batch 20/62 sent 640 to 672 lr:3.0000e-05
2022-07-21 14:27:40,070-6778946-INFO:Epoch 29 Training batch 40/62 sent 1280 to 1312 lr:3.0000e-05
2022-07-21 14:27:53,306-6792182-INFO:Epoch 29 Training batch 60/62 sent 1920 to 1952 lr:3.0000e-05
2022-07-21 14:31:30,316-7009192-INFO:Epoch 30 Training batch 0/62 sent 0 to 32 lr:3.0000e-05
2022-07-21 14:34:00,854-7159730-INFO:Epoch 30 Training batch 20/62 sent 640 to 672 lr:3.0000e-05
2022-07-21 14:35:23,987-7242863-INFO:Epoch 30 Training batch 40/62 sent 1280 to 1312 lr:3.0000e-05
2022-07-21 14:36:47,376-7326253-INFO:Epoch 30 Training batch 60/62 sent 1920 to 1952 lr:3.0000e-05
2022-07-21 14:39:11,492-7470368-INFO:Epoch 31 Training batch 0/62 sent 0 to 32 lr:3.0000e-05
2022-07-21 14:40:35,149-7554025-INFO:Epoch 31 Training batch 20/62 sent 640 to 672 lr:3.0000e-05
2022-07-21 14:41:58,309-7637185-INFO:Epoch 31 Training batch 40/62 sent 1280 to 1312 lr:3.0000e-05
2022-07-21 14:43:20,951-7719827-INFO:Epoch 31 Training batch 60/62 sent 1920 to 1952 lr:3.0000e-05
2022-07-21 14:45:43,332-7862208-INFO:Epoch 32 Training batch 0/62 sent 0 to 32 lr:3.0000e-05
2022-07-21 14:47:05,268-7944145-INFO:Epoch 32 Training batch 20/62 sent 640 to 672 lr:3.0000e-05
2022-07-21 14:48:27,103-8025980-INFO:Epoch 32 Training batch 40/62 sent 1280 to 1312 lr:3.0000e-05
2022-07-21 14:49:48,840-8107717-INFO:Epoch 32 Training batch 60/62 sent 1920 to 1952 lr:3.0000e-05
2022-07-21 14:52:08,546-8247422-INFO:Epoch 33 Training batch 0/62 sent 0 to 32 lr:3.0000e-05
2022-07-21 14:53:29,778-8328654-INFO:Epoch 33 Training batch 20/62 sent 640 to 672 lr:3.0000e-05
2022-07-21 14:54:51,170-8410046-INFO:Epoch 33 Training batch 40/62 sent 1280 to 1312 lr:3.0000e-05
2022-07-21 14:56:13,409-8492285-INFO:Epoch 33 Training batch 60/62 sent 1920 to 1952 lr:3.0000e-05
2022-07-21 14:58:32,165-8631042-INFO:Epoch 34 Training batch 0/62 sent 0 to 32 lr:3.0000e-05
2022-07-21 15:00:49,624-8768500-INFO:Epoch 34 Training batch 20/62 sent 640 to 672 lr:3.0000e-05
2022-07-21 15:02:11,313-8850190-INFO:Epoch 34 Training batch 40/62 sent 1280 to 1312 lr:3.0000e-05
2022-07-21 15:03:32,775-8931651-INFO:Epoch 34 Training batch 60/62 sent 1920 to 1952 lr:3.0000e-05
2022-07-21 15:05:51,496-9070372-INFO:Epoch 35 Training batch 0/62 sent 0 to 32 lr:3.0000e-05
2022-07-21 15:07:12,235-9151111-INFO:Epoch 35 Training batch 20/62 sent 640 to 672 lr:3.0000e-05
2022-07-21 15:08:35,087-9233964-INFO:Epoch 35 Training batch 40/62 sent 1280 to 1312 lr:3.0000e-05
2022-07-21 15:09:57,063-9315939-INFO:Epoch 35 Training batch 60/62 sent 1920 to 1952 lr:3.0000e-05
2022-07-21 15:12:15,856-9454733-INFO:Epoch 36 Training batch 0/62 sent 0 to 32 lr:3.0000e-05
2022-07-21 15:14:20,494-9579370-INFO:Epoch 36 Training batch 20/62 sent 640 to 672 lr:3.0000e-05
2022-07-21 15:15:41,983-9660859-INFO:Epoch 36 Training batch 40/62 sent 1280 to 1312 lr:3.0000e-05
2022-07-21 15:17:03,055-9741932-INFO:Epoch 36 Training batch 60/62 sent 1920 to 1952 lr:3.0000e-05
2022-07-21 15:19:25,289-9884165-INFO:Epoch 37 Training batch 0/62 sent 0 to 32 lr:3.0000e-05
2022-07-21 15:20:52,515-9971391-INFO:Epoch 37 Training batch 20/62 sent 640 to 672 lr:3.0000e-05
2022-07-21 15:22:21,036-10059912-INFO:Epoch 37 Training batch 40/62 sent 1280 to 1312 lr:3.0000e-05
2022-07-21 15:24:30,725-10189601-INFO:Epoch 37 Training batch 60/62 sent 1920 to 1952 lr:3.0000e-05
2022-07-21 15:26:51,990-10330867-INFO:Epoch 38 Training batch 0/62 sent 0 to 32 lr:3.0000e-05
2022-07-21 15:28:13,074-10411951-INFO:Epoch 38 Training batch 20/62 sent 640 to 672 lr:3.0000e-05
2022-07-21 15:29:34,969-10493846-INFO:Epoch 38 Training batch 40/62 sent 1280 to 1312 lr:3.0000e-05
2022-07-21 15:30:57,437-10576313-INFO:Epoch 38 Training batch 60/62 sent 1920 to 1952 lr:3.0000e-05
2022-07-21 15:33:16,721-10715597-INFO:Epoch 39 Training batch 0/62 sent 0 to 32 lr:3.0000e-05
2022-07-21 15:34:38,603-10797479-INFO:Epoch 39 Training batch 20/62 sent 640 to 672 lr:3.0000e-05
2022-07-21 15:36:01,121-10879997-INFO:Epoch 39 Training batch 40/62 sent 1280 to 1312 lr:3.0000e-05
2022-07-21 15:37:22,263-10961140-INFO:Epoch 39 Training batch 60/62 sent 1920 to 1952 lr:3.0000e-05
2022-07-21 15:39:41,122-11099998-INFO:Epoch 40 Training batch 0/62 sent 0 to 32 lr:3.0000e-05
2022-07-21 15:41:04,410-11183287-INFO:Epoch 40 Training batch 20/62 sent 640 to 672 lr:3.0000e-05
2022-07-21 15:42:27,931-11266807-INFO:Epoch 40 Training batch 40/62 sent 1280 to 1312 lr:3.0000e-05
2022-07-21 15:43:49,986-11348862-INFO:Epoch 40 Training batch 60/62 sent 1920 to 1952 lr:3.0000e-05
2022-07-21 15:46:08,857-11487733-INFO:Epoch 41 Training batch 0/62 sent 0 to 32 lr:3.0000e-05
2022-07-21 15:47:29,708-11568584-INFO:Epoch 41 Training batch 20/62 sent 640 to 672 lr:3.0000e-05
2022-07-21 15:48:51,450-11650326-INFO:Epoch 41 Training batch 40/62 sent 1280 to 1312 lr:3.0000e-05
2022-07-21 15:50:12,439-11731316-INFO:Epoch 41 Training batch 60/62 sent 1920 to 1952 lr:3.0000e-05
2022-07-21 15:52:31,038-11869915-INFO:Epoch 42 Training batch 0/62 sent 0 to 32 lr:1.5000e-05
2022-07-21 15:53:51,450-11950326-INFO:Epoch 42 Training batch 20/62 sent 640 to 672 lr:1.5000e-05
2022-07-21 15:55:13,027-12031904-INFO:Epoch 42 Training batch 40/62 sent 1280 to 1312 lr:1.5000e-05
2022-07-21 15:56:34,175-12113051-INFO:Epoch 42 Training batch 60/62 sent 1920 to 1952 lr:1.5000e-05
2022-07-21 15:58:52,012-12250888-INFO:Epoch 43 Training batch 0/62 sent 0 to 32 lr:1.5000e-05
2022-07-21 16:00:14,809-12333686-INFO:Epoch 43 Training batch 20/62 sent 640 to 672 lr:1.5000e-05
2022-07-21 16:01:37,049-12415925-INFO:Epoch 43 Training batch 40/62 sent 1280 to 1312 lr:1.5000e-05
2022-07-21 16:02:57,893-12496769-INFO:Epoch 43 Training batch 60/62 sent 1920 to 1952 lr:1.5000e-05
2022-07-21 16:05:16,018-12634894-INFO:Epoch 44 Training batch 0/62 sent 0 to 32 lr:1.5000e-05
2022-07-21 16:06:37,620-12716496-INFO:Epoch 44 Training batch 20/62 sent 640 to 672 lr:1.5000e-05
2022-07-21 16:07:59,733-12798609-INFO:Epoch 44 Training batch 40/62 sent 1280 to 1312 lr:1.5000e-05
2022-07-21 16:09:21,407-12880283-INFO:Epoch 44 Training batch 60/62 sent 1920 to 1952 lr:1.5000e-05
2022-07-21 16:11:40,840-13019716-INFO:Epoch 45 Training batch 0/62 sent 0 to 32 lr:1.5000e-05
2022-07-21 16:13:03,036-13101912-INFO:Epoch 45 Training batch 20/62 sent 640 to 672 lr:1.5000e-05
2022-07-21 16:14:25,564-13184440-INFO:Epoch 45 Training batch 40/62 sent 1280 to 1312 lr:1.5000e-05
2022-07-21 16:15:48,418-13267295-INFO:Epoch 45 Training batch 60/62 sent 1920 to 1952 lr:1.5000e-05
2022-07-21 16:18:09,186-13408062-INFO:Epoch 46 Training batch 0/62 sent 0 to 32 lr:7.5000e-06
2022-07-21 16:19:30,173-13489049-INFO:Epoch 46 Training batch 20/62 sent 640 to 672 lr:7.5000e-06
2022-07-21 16:20:50,575-13569452-INFO:Epoch 46 Training batch 40/62 sent 1280 to 1312 lr:7.5000e-06
2022-07-21 16:22:12,341-13651218-INFO:Epoch 46 Training batch 60/62 sent 1920 to 1952 lr:7.5000e-06
2022-07-21 16:24:34,830-13793706-INFO:Epoch 47 Training batch 0/62 sent 0 to 32 lr:7.5000e-06
2022-07-21 16:25:58,213-13877089-INFO:Epoch 47 Training batch 20/62 sent 640 to 672 lr:7.5000e-06
2022-07-21 16:27:20,479-13959355-INFO:Epoch 47 Training batch 40/62 sent 1280 to 1312 lr:7.5000e-06
2022-07-21 16:28:43,717-14042593-INFO:Epoch 47 Training batch 60/62 sent 1920 to 1952 lr:7.5000e-06
2022-07-21 16:31:05,902-14184778-INFO:Epoch 48 Training batch 0/62 sent 0 to 32 lr:7.5000e-06
2022-07-21 16:32:31,948-14270825-INFO:Epoch 48 Training batch 20/62 sent 640 to 672 lr:7.5000e-06
2022-07-21 16:35:32,164-14451040-INFO:Epoch 48 Training batch 40/62 sent 1280 to 1312 lr:7.5000e-06
2022-07-21 16:38:32,897-14631773-INFO:Epoch 48 Training batch 60/62 sent 1920 to 1952 lr:7.5000e-06
2022-07-21 16:40:56,659-14775536-INFO:Epoch 49 Training batch 0/62 sent 0 to 32 lr:7.5000e-06
2022-07-21 16:42:20,788-14859664-INFO:Epoch 49 Training batch 20/62 sent 640 to 672 lr:7.5000e-06
2022-07-21 16:43:44,519-14943395-INFO:Epoch 49 Training batch 40/62 sent 1280 to 1312 lr:7.5000e-06
2022-07-21 16:45:08,574-15027451-INFO:Epoch 49 Training batch 60/62 sent 1920 to 1952 lr:7.5000e-06
2022-07-21 16:47:32,011-15170887-INFO:Epoch 50 Training batch 0/62 sent 0 to 32 lr:7.5000e-06
2022-07-21 16:48:58,469-15257345-INFO:Epoch 50 Training batch 20/62 sent 640 to 672 lr:7.5000e-06
2022-07-21 16:50:23,394-15342270-INFO:Epoch 50 Training batch 40/62 sent 1280 to 1312 lr:7.5000e-06
2022-07-21 16:51:47,318-15426194-INFO:Epoch 50 Training batch 60/62 sent 1920 to 1952 lr:7.5000e-06
2022-07-21 16:54:10,076-15568953-INFO:Epoch 51 Training batch 0/62 sent 0 to 32 lr:7.5000e-06
2022-07-21 16:55:34,355-15653231-INFO:Epoch 51 Training batch 20/62 sent 640 to 672 lr:7.5000e-06
2022-07-21 16:56:58,363-15737239-INFO:Epoch 51 Training batch 40/62 sent 1280 to 1312 lr:7.5000e-06
2022-07-21 16:58:23,859-15822735-INFO:Epoch 51 Training batch 60/62 sent 1920 to 1952 lr:7.5000e-06
2022-07-21 17:00:48,759-15967635-INFO:Epoch 52 Training batch 0/62 sent 0 to 32 lr:7.5000e-06
2022-07-21 17:02:14,383-16053259-INFO:Epoch 52 Training batch 20/62 sent 640 to 672 lr:7.5000e-06
2022-07-21 17:03:39,593-16138469-INFO:Epoch 52 Training batch 40/62 sent 1280 to 1312 lr:7.5000e-06
2022-07-21 17:05:02,766-16221642-INFO:Epoch 52 Training batch 60/62 sent 1920 to 1952 lr:7.5000e-06
2022-07-21 17:07:26,380-16365256-INFO:Epoch 53 Training batch 0/62 sent 0 to 32 lr:3.7500e-06
2022-07-21 17:08:51,481-16450357-INFO:Epoch 53 Training batch 20/62 sent 640 to 672 lr:3.7500e-06
2022-07-21 17:10:17,847-16536723-INFO:Epoch 53 Training batch 40/62 sent 1280 to 1312 lr:3.7500e-06
2022-07-21 17:11:42,423-16621299-INFO:Epoch 53 Training batch 60/62 sent 1920 to 1952 lr:3.7500e-06
2022-07-21 17:14:10,720-16769597-INFO:Epoch 54 Training batch 0/62 sent 0 to 32 lr:3.7500e-06
2022-07-21 17:15:35,154-16854030-INFO:Epoch 54 Training batch 20/62 sent 640 to 672 lr:3.7500e-06
2022-07-21 17:16:58,640-16937516-INFO:Epoch 54 Training batch 40/62 sent 1280 to 1312 lr:3.7500e-06
2022-07-21 17:18:22,328-17021204-INFO:Epoch 54 Training batch 60/62 sent 1920 to 1952 lr:3.7500e-06
2022-07-21 17:20:44,936-17163812-INFO:Epoch 55 Training batch 0/62 sent 0 to 32 lr:3.7500e-06
2022-07-21 17:22:07,326-17246202-INFO:Epoch 55 Training batch 20/62 sent 640 to 672 lr:3.7500e-06
2022-07-21 17:23:30,176-17329052-INFO:Epoch 55 Training batch 40/62 sent 1280 to 1312 lr:3.7500e-06
2022-07-21 17:24:54,239-17413115-INFO:Epoch 55 Training batch 60/62 sent 1920 to 1952 lr:3.7500e-06
2022-07-21 17:27:17,600-17556477-INFO:Epoch 56 Training batch 0/62 sent 0 to 32 lr:3.7500e-06
2022-07-21 17:28:40,552-17639429-INFO:Epoch 56 Training batch 20/62 sent 640 to 672 lr:3.7500e-06
2022-07-21 17:30:03,785-17722661-INFO:Epoch 56 Training batch 40/62 sent 1280 to 1312 lr:3.7500e-06
2022-07-21 17:31:26,920-17805796-INFO:Epoch 56 Training batch 60/62 sent 1920 to 1952 lr:3.7500e-06
2022-07-21 17:33:48,268-17947144-INFO:Epoch 57 Training batch 0/62 sent 0 to 32 lr:1.8750e-06
2022-07-21 17:35:10,702-18029578-INFO:Epoch 57 Training batch 20/62 sent 640 to 672 lr:1.8750e-06
2022-07-21 17:36:33,846-18112723-INFO:Epoch 57 Training batch 40/62 sent 1280 to 1312 lr:1.8750e-06
2022-07-21 17:37:56,258-18195134-INFO:Epoch 57 Training batch 60/62 sent 1920 to 1952 lr:1.8750e-06
2022-07-21 17:40:19,064-18337940-INFO:Epoch 58 Training batch 0/62 sent 0 to 32 lr:1.8750e-06
2022-07-21 17:41:42,734-18421610-INFO:Epoch 58 Training batch 20/62 sent 640 to 672 lr:1.8750e-06
2022-07-21 17:43:06,567-18505443-INFO:Epoch 58 Training batch 40/62 sent 1280 to 1312 lr:1.8750e-06
2022-07-21 17:44:29,700-18588576-INFO:Epoch 58 Training batch 60/62 sent 1920 to 1952 lr:1.8750e-06
2022-07-21 17:46:53,289-18732165-INFO:Epoch 59 Training batch 0/62 sent 0 to 32 lr:1.8750e-06
2022-07-21 17:48:15,544-18814420-INFO:Epoch 59 Training batch 20/62 sent 640 to 672 lr:1.8750e-06
2022-07-21 17:49:40,219-18899096-INFO:Epoch 59 Training batch 40/62 sent 1280 to 1312 lr:1.8750e-06
2022-07-21 17:51:04,128-18983005-INFO:Epoch 59 Training batch 60/62 sent 1920 to 1952 lr:1.8750e-06
2022-07-21 17:53:29,229-19128106-INFO:Epoch 60 Training batch 0/62 sent 0 to 32 lr:1.8750e-06
2022-07-21 17:54:52,746-19211622-INFO:Epoch 60 Training batch 20/62 sent 640 to 672 lr:1.8750e-06
2022-07-21 17:56:17,909-19296786-INFO:Epoch 60 Training batch 40/62 sent 1280 to 1312 lr:1.8750e-06
2022-07-21 17:57:41,229-19380105-INFO:Epoch 60 Training batch 60/62 sent 1920 to 1952 lr:1.8750e-06
2022-07-21 18:00:04,334-19523210-INFO:Epoch 61 Training batch 0/62 sent 0 to 32 lr:9.3750e-07
2022-07-21 18:01:29,614-19608490-INFO:Epoch 61 Training batch 20/62 sent 640 to 672 lr:9.3750e-07
2022-07-21 18:02:51,739-19690615-INFO:Epoch 61 Training batch 40/62 sent 1280 to 1312 lr:9.3750e-07
2022-07-21 18:04:16,656-19775533-INFO:Epoch 61 Training batch 60/62 sent 1920 to 1952 lr:9.3750e-07
