2022-07-21 12:35:18,784-37083-INFO:Mode=train
2022-07-21 12:35:21,787-40086-INFO:Using gpu 0
2022-07-21 12:35:21,910-40209-INFO:Loading corpora...
2022-07-21 12:35:40,418-58717-INFO:Vocabulary extraction...
2022-07-21 12:35:40,601-58900-INFO:Model initialization...
2022-07-21 12:35:40,775-59074-DEBUG:Starting new HTTPS connection (1): huggingface.co:443
2022-07-21 12:35:41,341-59640-DEBUG:https://huggingface.co:443 "HEAD /bert-base-cased/resolve/main/tokenizer_config.json HTTP/1.1" 200 0
2022-07-21 12:35:41,976-60275-DEBUG:Starting new HTTPS connection (1): huggingface.co:443
2022-07-21 12:35:42,618-60917-DEBUG:https://huggingface.co:443 "HEAD /bert-base-cased/resolve/main/config.json HTTP/1.1" 200 0
2022-07-21 12:35:42,766-61065-DEBUG:Starting new HTTPS connection (1): huggingface.co:443
2022-07-21 12:35:43,233-61532-DEBUG:https://huggingface.co:443 "GET /api/models/bert-base-cased HTTP/1.1" 200 1143
2022-07-21 12:35:43,437-61736-DEBUG:Starting new HTTPS connection (1): huggingface.co:443
2022-07-21 12:35:43,986-62285-DEBUG:https://huggingface.co:443 "HEAD /bert-base-cased/resolve/main/vocab.txt HTTP/1.1" 200 0
2022-07-21 12:35:44,177-62476-DEBUG:Starting new HTTPS connection (1): huggingface.co:443
2022-07-21 12:35:44,674-62973-DEBUG:https://huggingface.co:443 "HEAD /bert-base-cased/resolve/main/tokenizer.json HTTP/1.1" 200 0
2022-07-21 12:35:44,856-63155-DEBUG:Starting new HTTPS connection (1): huggingface.co:443
2022-07-21 12:35:45,381-63680-DEBUG:https://huggingface.co:443 "HEAD /bert-base-cased/resolve/main/added_tokens.json HTTP/1.1" 404 0
2022-07-21 12:35:45,637-63936-DEBUG:Starting new HTTPS connection (1): huggingface.co:443
2022-07-21 12:35:46,198-64497-DEBUG:https://huggingface.co:443 "HEAD /bert-base-cased/resolve/main/special_tokens_map.json HTTP/1.1" 404 0
2022-07-21 12:35:46,629-64928-DEBUG:Starting new HTTPS connection (1): huggingface.co:443
2022-07-21 12:35:47,454-65754-DEBUG:https://huggingface.co:443 "HEAD /bert-base-cased/resolve/main/tokenizer_config.json HTTP/1.1" 200 0
2022-07-21 12:35:48,114-66413-DEBUG:Starting new HTTPS connection (1): huggingface.co:443
2022-07-21 12:35:48,622-66921-DEBUG:https://huggingface.co:443 "HEAD /bert-base-cased/resolve/main/config.json HTTP/1.1" 200 0
2022-07-21 12:35:48,867-67166-DEBUG:Starting new HTTPS connection (1): huggingface.co:443
2022-07-21 12:35:49,360-67659-DEBUG:https://huggingface.co:443 "HEAD /bert-base-cased/resolve/main/config.json HTTP/1.1" 200 0
2022-07-21 12:35:50,979-69278-DEBUG:Starting new HTTPS connection (1): huggingface.co:443
2022-07-21 12:35:51,565-69864-DEBUG:https://huggingface.co:443 "HEAD /bert-base-cased/resolve/main/pytorch_model.bin HTTP/1.1" 302 0
Some weights of the model checkpoint at bert-base-cased were not used when initializing BertModel: ['cls.seq_relationship.bias', 'cls.seq_relationship.weight', 'cls.predictions.bias', 'cls.predictions.transform.LayerNorm.bias', 'cls.predictions.decoder.weight', 'cls.predictions.transform.dense.weight', 'cls.predictions.transform.LayerNorm.weight', 'cls.predictions.transform.dense.bias']
- This IS expected if you are initializing BertModel from the checkpoint of a model trained on another task or with another architecture (e.g. initializing a BertForSequenceClassification model from a BertForPreTraining model).
- This IS NOT expected if you are initializing BertModel from the checkpoint of a model that you expect to be exactly identical (initializing a BertForSequenceClassification model from a BertForSequenceClassification model).
2022-07-21 12:36:18,446-96745-INFO:Constructing training examples...
2022-07-21 12:36:20,825-99124-INFO:Starting training
2022-07-21 12:36:21,554-99853-INFO:Epoch 1 Training batch 0/31 sent 0 to 32 lr:1.9355e-06
2022-07-21 12:36:32,501-110800-INFO:Epoch 1 Training batch 20/31 sent 640 to 672 lr:3.8710e-05
2022-07-21 12:40:00,137-318436-INFO:Epoch 2 Training batch 0/31 sent 0 to 32 lr:6.0000e-05
2022-07-21 12:40:10,612-328911-INFO:Epoch 2 Training batch 20/31 sent 640 to 672 lr:6.0000e-05
2022-07-21 12:42:49,653-487952-INFO:Epoch 3 Training batch 0/31 sent 0 to 32 lr:6.0000e-05
2022-07-21 12:43:00,361-498661-INFO:Epoch 3 Training batch 20/31 sent 640 to 672 lr:6.0000e-05
2022-07-21 12:47:52,912-791211-INFO:Epoch 4 Training batch 0/31 sent 0 to 32 lr:6.0000e-05
2022-07-21 12:48:04,086-802385-INFO:Epoch 4 Training batch 20/31 sent 640 to 672 lr:6.0000e-05
2022-07-21 12:51:23,807-1002106-INFO:Epoch 5 Training batch 0/31 sent 0 to 32 lr:6.0000e-05
2022-07-21 12:51:34,682-1012981-INFO:Epoch 5 Training batch 20/31 sent 640 to 672 lr:6.0000e-05
2022-07-21 12:54:57,402-1215701-INFO:Epoch 6 Training batch 0/31 sent 0 to 32 lr:6.0000e-05
2022-07-21 12:55:08,070-1226369-INFO:Epoch 6 Training batch 20/31 sent 640 to 672 lr:6.0000e-05
2022-07-21 12:58:17,551-1415850-INFO:Epoch 7 Training batch 0/31 sent 0 to 32 lr:6.0000e-05
2022-07-21 12:58:28,650-1426949-INFO:Epoch 7 Training batch 20/31 sent 640 to 672 lr:6.0000e-05
2022-07-21 13:02:42,339-1680638-INFO:Epoch 8 Training batch 0/31 sent 0 to 32 lr:6.0000e-05
2022-07-21 13:02:53,254-1691553-INFO:Epoch 8 Training batch 20/31 sent 640 to 672 lr:6.0000e-05
2022-07-21 13:07:37,774-1976073-INFO:Epoch 9 Training batch 0/31 sent 0 to 32 lr:6.0000e-05
2022-07-21 13:07:48,244-1986543-INFO:Epoch 9 Training batch 20/31 sent 640 to 672 lr:6.0000e-05
2022-07-21 13:11:26,572-2204871-INFO:Epoch 10 Training batch 0/31 sent 0 to 32 lr:6.0000e-05
2022-07-21 13:11:37,179-2215478-INFO:Epoch 10 Training batch 20/31 sent 640 to 672 lr:6.0000e-05
2022-07-21 13:15:27,628-2445927-INFO:Epoch 11 Training batch 0/31 sent 0 to 32 lr:6.0000e-05
2022-07-21 13:15:38,079-2456379-INFO:Epoch 11 Training batch 20/31 sent 640 to 672 lr:6.0000e-05
2022-07-21 13:19:16,977-2675276-INFO:Epoch 12 Training batch 0/31 sent 0 to 32 lr:6.0000e-05
2022-07-21 13:19:27,646-2685945-INFO:Epoch 12 Training batch 20/31 sent 640 to 672 lr:6.0000e-05
2022-07-21 13:24:24,030-2982329-INFO:Epoch 13 Training batch 0/31 sent 0 to 32 lr:6.0000e-05
2022-07-21 13:24:34,873-2993172-INFO:Epoch 13 Training batch 20/31 sent 640 to 672 lr:6.0000e-05
2022-07-21 13:27:58,642-3196941-INFO:Epoch 14 Training batch 0/31 sent 0 to 32 lr:6.0000e-05
2022-07-21 13:28:09,693-3207992-INFO:Epoch 14 Training batch 20/31 sent 640 to 672 lr:6.0000e-05
2022-07-21 13:32:11,935-3450234-INFO:Epoch 15 Training batch 0/31 sent 0 to 32 lr:6.0000e-05
2022-07-21 13:32:22,381-3460680-INFO:Epoch 15 Training batch 20/31 sent 640 to 672 lr:6.0000e-05
2022-07-21 13:36:05,551-3683850-INFO:Epoch 16 Training batch 0/31 sent 0 to 32 lr:6.0000e-05
2022-07-21 13:36:16,302-3694601-INFO:Epoch 16 Training batch 20/31 sent 640 to 672 lr:6.0000e-05
2022-07-21 13:39:41,685-3899984-INFO:Epoch 17 Training batch 0/31 sent 0 to 32 lr:6.0000e-05
2022-07-21 13:39:52,400-3910699-INFO:Epoch 17 Training batch 20/31 sent 640 to 672 lr:6.0000e-05
2022-07-21 13:42:04,562-4042861-INFO:Epoch 18 Training batch 0/31 sent 0 to 32 lr:6.0000e-05
2022-07-21 13:42:15,121-4053420-INFO:Epoch 18 Training batch 20/31 sent 640 to 672 lr:6.0000e-05
2022-07-21 13:45:28,046-4246345-INFO:Epoch 19 Training batch 0/31 sent 0 to 32 lr:6.0000e-05
2022-07-21 13:45:38,702-4257001-INFO:Epoch 19 Training batch 20/31 sent 640 to 672 lr:6.0000e-05
2022-07-21 13:48:59,458-4457757-INFO:Epoch 20 Training batch 0/31 sent 0 to 32 lr:6.0000e-05
2022-07-21 13:49:10,582-4468881-INFO:Epoch 20 Training batch 20/31 sent 640 to 672 lr:6.0000e-05
2022-07-21 13:52:23,911-4662210-INFO:Epoch 21 Training batch 0/31 sent 0 to 32 lr:6.0000e-05
2022-07-21 13:52:34,529-4672828-INFO:Epoch 21 Training batch 20/31 sent 640 to 672 lr:6.0000e-05
2022-07-21 13:54:50,724-4809024-INFO:Epoch 22 Training batch 0/31 sent 0 to 32 lr:6.0000e-05
2022-07-21 13:55:01,813-4820112-INFO:Epoch 22 Training batch 20/31 sent 640 to 672 lr:6.0000e-05
2022-07-21 13:57:18,148-4956447-INFO:Epoch 23 Training batch 0/31 sent 0 to 32 lr:6.0000e-05
2022-07-21 13:57:28,635-4966934-INFO:Epoch 23 Training batch 20/31 sent 640 to 672 lr:6.0000e-05
2022-07-21 13:59:42,804-5101103-INFO:Epoch 24 Training batch 0/31 sent 0 to 32 lr:6.0000e-05
2022-07-21 13:59:53,772-5112071-INFO:Epoch 24 Training batch 20/31 sent 640 to 672 lr:6.0000e-05
2022-07-21 14:03:31,507-5329806-INFO:Epoch 25 Training batch 0/31 sent 0 to 32 lr:6.0000e-05
2022-07-21 14:03:42,045-5340345-INFO:Epoch 25 Training batch 20/31 sent 640 to 672 lr:6.0000e-05
2022-07-21 14:05:56,740-5475039-INFO:Epoch 26 Training batch 0/31 sent 0 to 32 lr:6.0000e-05
2022-07-21 14:06:07,426-5485725-INFO:Epoch 26 Training batch 20/31 sent 640 to 672 lr:6.0000e-05
2022-07-21 14:09:23,670-5681969-INFO:Epoch 27 Training batch 0/31 sent 0 to 32 lr:6.0000e-05
2022-07-21 14:09:34,360-5692659-INFO:Epoch 27 Training batch 20/31 sent 640 to 672 lr:6.0000e-05
2022-07-21 14:11:48,857-5827156-INFO:Epoch 28 Training batch 0/31 sent 0 to 32 lr:6.0000e-05
2022-07-21 14:11:59,581-5837880-INFO:Epoch 28 Training batch 20/31 sent 640 to 672 lr:6.0000e-05
2022-07-21 14:15:40,946-6059245-INFO:Epoch 29 Training batch 0/31 sent 0 to 32 lr:6.0000e-05
2022-07-21 14:15:51,452-6069751-INFO:Epoch 29 Training batch 20/31 sent 640 to 672 lr:6.0000e-05
2022-07-21 14:18:05,909-6204208-INFO:Epoch 30 Training batch 0/31 sent 0 to 32 lr:6.0000e-05
2022-07-21 14:20:25,246-6343545-INFO:Epoch 30 Training batch 20/31 sent 640 to 672 lr:6.0000e-05
2022-07-21 14:23:42,748-6541047-INFO:Epoch 31 Training batch 0/31 sent 0 to 32 lr:6.0000e-05
2022-07-21 14:28:29,516-6827815-INFO:Epoch 31 Training batch 20/31 sent 640 to 672 lr:6.0000e-05
2022-07-21 14:33:01,398-7099697-INFO:Epoch 32 Training batch 0/31 sent 0 to 32 lr:6.0000e-05
2022-07-21 14:36:24,733-7303032-INFO:Epoch 32 Training batch 20/31 sent 640 to 672 lr:6.0000e-05
2022-07-21 14:39:46,230-7504529-INFO:Epoch 33 Training batch 0/31 sent 0 to 32 lr:6.0000e-05
2022-07-21 14:42:04,438-7642737-INFO:Epoch 33 Training batch 20/31 sent 640 to 672 lr:6.0000e-05
2022-07-21 14:45:23,118-7841417-INFO:Epoch 34 Training batch 0/31 sent 0 to 32 lr:6.0000e-05
2022-07-21 14:47:42,823-7981122-INFO:Epoch 34 Training batch 20/31 sent 640 to 672 lr:6.0000e-05
2022-07-21 14:51:04,441-8182740-INFO:Epoch 35 Training batch 0/31 sent 0 to 32 lr:6.0000e-05
2022-07-21 14:53:21,383-8319682-INFO:Epoch 35 Training batch 20/31 sent 640 to 672 lr:6.0000e-05
2022-07-21 14:56:43,090-8521389-INFO:Epoch 36 Training batch 0/31 sent 0 to 32 lr:6.0000e-05
2022-07-21 14:58:59,426-8657725-INFO:Epoch 36 Training batch 20/31 sent 640 to 672 lr:6.0000e-05
2022-07-21 15:02:15,764-8854063-INFO:Epoch 37 Training batch 0/31 sent 0 to 32 lr:3.0000e-05
2022-07-21 15:04:32,013-8990312-INFO:Epoch 37 Training batch 20/31 sent 640 to 672 lr:3.0000e-05
2022-07-21 15:09:29,632-9287931-INFO:Epoch 38 Training batch 0/31 sent 0 to 32 lr:3.0000e-05
2022-07-21 15:12:28,246-9466545-INFO:Epoch 38 Training batch 20/31 sent 640 to 672 lr:3.0000e-05
2022-07-21 15:15:43,365-9661664-INFO:Epoch 39 Training batch 0/31 sent 0 to 32 lr:3.0000e-05
2022-07-21 15:18:03,366-9801665-INFO:Epoch 39 Training batch 20/31 sent 640 to 672 lr:3.0000e-05
2022-07-21 15:21:26,673-10004973-INFO:Epoch 40 Training batch 0/31 sent 0 to 32 lr:3.0000e-05
2022-07-21 15:26:22,283-10300582-INFO:Epoch 40 Training batch 20/31 sent 640 to 672 lr:3.0000e-05
2022-07-21 15:29:38,202-10496502-INFO:Epoch 41 Training batch 0/31 sent 0 to 32 lr:3.0000e-05
2022-07-21 15:31:58,998-10637297-INFO:Epoch 41 Training batch 20/31 sent 640 to 672 lr:3.0000e-05
2022-07-21 15:35:14,443-10832742-INFO:Epoch 42 Training batch 0/31 sent 0 to 32 lr:3.0000e-05
2022-07-21 15:37:30,189-10968488-INFO:Epoch 42 Training batch 20/31 sent 640 to 672 lr:3.0000e-05
2022-07-21 15:40:47,528-11165827-INFO:Epoch 43 Training batch 0/31 sent 0 to 32 lr:3.0000e-05
2022-07-21 15:43:06,853-11305152-INFO:Epoch 43 Training batch 20/31 sent 640 to 672 lr:3.0000e-05
2022-07-21 15:46:23,993-11502292-INFO:Epoch 44 Training batch 0/31 sent 0 to 32 lr:3.0000e-05
2022-07-21 15:48:39,221-11637520-INFO:Epoch 44 Training batch 20/31 sent 640 to 672 lr:3.0000e-05
2022-07-21 15:51:55,362-11833662-INFO:Epoch 45 Training batch 0/31 sent 0 to 32 lr:1.5000e-05
2022-07-21 15:54:11,457-11969756-INFO:Epoch 45 Training batch 20/31 sent 640 to 672 lr:1.5000e-05
2022-07-21 15:57:26,769-12165069-INFO:Epoch 46 Training batch 0/31 sent 0 to 32 lr:1.5000e-05
2022-07-21 15:59:44,344-12302643-INFO:Epoch 46 Training batch 20/31 sent 640 to 672 lr:1.5000e-05
2022-07-21 16:02:59,995-12498295-INFO:Epoch 47 Training batch 0/31 sent 0 to 32 lr:1.5000e-05
2022-07-21 16:05:16,499-12634799-INFO:Epoch 47 Training batch 20/31 sent 640 to 672 lr:1.5000e-05
2022-07-21 16:08:32,640-12830939-INFO:Epoch 48 Training batch 0/31 sent 0 to 32 lr:1.5000e-05
2022-07-21 16:10:50,258-12968557-INFO:Epoch 48 Training batch 20/31 sent 640 to 672 lr:1.5000e-05
2022-07-21 16:14:48,094-13206394-INFO:Epoch 49 Training batch 0/31 sent 0 to 32 lr:1.5000e-05
2022-07-21 16:17:08,565-13346864-INFO:Epoch 49 Training batch 20/31 sent 640 to 672 lr:1.5000e-05
2022-07-21 16:21:20,040-13598339-INFO:Epoch 50 Training batch 0/31 sent 0 to 32 lr:1.5000e-05
2022-07-21 16:23:40,239-13738538-INFO:Epoch 50 Training batch 20/31 sent 640 to 672 lr:1.5000e-05
2022-07-21 16:27:03,515-13941814-INFO:Epoch 51 Training batch 0/31 sent 0 to 32 lr:1.5000e-05
2022-07-21 16:29:25,561-14083860-INFO:Epoch 51 Training batch 20/31 sent 640 to 672 lr:1.5000e-05
2022-07-21 16:34:48,673-14406972-INFO:Epoch 52 Training batch 0/31 sent 0 to 32 lr:1.5000e-05
2022-07-21 16:37:09,610-14547910-INFO:Epoch 52 Training batch 20/31 sent 640 to 672 lr:1.5000e-05
2022-07-21 16:40:31,844-14750143-INFO:Epoch 53 Training batch 0/31 sent 0 to 32 lr:1.5000e-05
2022-07-21 16:42:52,471-14890770-INFO:Epoch 53 Training batch 20/31 sent 640 to 672 lr:1.5000e-05
2022-07-21 16:47:57,914-15196213-INFO:Epoch 54 Training batch 0/31 sent 0 to 32 lr:1.5000e-05
2022-07-21 16:50:23,791-15342090-INFO:Epoch 54 Training batch 20/31 sent 640 to 672 lr:1.5000e-05
2022-07-21 16:53:44,496-15542795-INFO:Epoch 55 Training batch 0/31 sent 0 to 32 lr:1.5000e-05
2022-07-21 16:56:07,286-15685585-INFO:Epoch 55 Training batch 20/31 sent 640 to 672 lr:1.5000e-05
2022-07-21 16:59:31,478-15889777-INFO:Epoch 56 Training batch 0/31 sent 0 to 32 lr:1.5000e-05
2022-07-21 17:04:29,989-16188288-INFO:Epoch 56 Training batch 20/31 sent 640 to 672 lr:1.5000e-05
2022-07-21 17:07:50,607-16388906-INFO:Epoch 57 Training batch 0/31 sent 0 to 32 lr:1.5000e-05
2022-07-21 17:10:16,182-16534481-INFO:Epoch 57 Training batch 20/31 sent 640 to 672 lr:1.5000e-05
2022-07-21 17:13:44,127-16742426-INFO:Epoch 58 Training batch 0/31 sent 0 to 32 lr:1.5000e-05
2022-07-21 17:16:05,194-16883493-INFO:Epoch 58 Training batch 20/31 sent 640 to 672 lr:1.5000e-05
2022-07-21 17:19:27,761-17086061-INFO:Epoch 59 Training batch 0/31 sent 0 to 32 lr:1.5000e-05
2022-07-21 17:21:47,562-17225861-INFO:Epoch 59 Training batch 20/31 sent 640 to 672 lr:1.5000e-05
2022-07-21 17:25:10,690-17428989-INFO:Epoch 60 Training batch 0/31 sent 0 to 32 lr:1.5000e-05
2022-07-21 17:27:31,046-17569345-INFO:Epoch 60 Training batch 20/31 sent 640 to 672 lr:1.5000e-05
2022-07-21 17:30:51,282-17769582-INFO:Epoch 61 Training batch 0/31 sent 0 to 32 lr:7.5000e-06
2022-07-21 17:33:11,842-17910141-INFO:Epoch 61 Training batch 20/31 sent 640 to 672 lr:7.5000e-06
2022-07-21 17:36:32,766-18111065-INFO:Epoch 62 Training batch 0/31 sent 0 to 32 lr:7.5000e-06
2022-07-21 17:38:53,543-18251842-INFO:Epoch 62 Training batch 20/31 sent 640 to 672 lr:7.5000e-06
2022-07-21 17:42:14,542-18452841-INFO:Epoch 63 Training batch 0/31 sent 0 to 32 lr:7.5000e-06
2022-07-21 17:44:38,861-18597160-INFO:Epoch 63 Training batch 20/31 sent 640 to 672 lr:7.5000e-06
2022-07-21 17:48:02,777-18801076-INFO:Epoch 64 Training batch 0/31 sent 0 to 32 lr:7.5000e-06
2022-07-21 17:50:26,444-18944744-INFO:Epoch 64 Training batch 20/31 sent 640 to 672 lr:7.5000e-06
2022-07-21 17:53:56,615-19154914-INFO:Epoch 65 Training batch 0/31 sent 0 to 32 lr:3.7500e-06
2022-07-21 17:56:18,784-19297083-INFO:Epoch 65 Training batch 20/31 sent 640 to 672 lr:3.7500e-06
2022-07-21 18:01:37,828-19616127-INFO:Epoch 66 Training batch 0/31 sent 0 to 32 lr:3.7500e-06
2022-07-21 18:05:56,909-19875208-INFO:Epoch 66 Training batch 20/31 sent 640 to 672 lr:3.7500e-06
2022-07-21 18:09:15,366-20073665-INFO:Epoch 67 Training batch 0/31 sent 0 to 32 lr:3.7500e-06
2022-07-21 18:11:32,778-20211077-INFO:Epoch 67 Training batch 20/31 sent 640 to 672 lr:3.7500e-06
2022-07-21 18:14:50,334-20408633-INFO:Epoch 68 Training batch 0/31 sent 0 to 32 lr:3.7500e-06
2022-07-21 18:17:06,318-20544618-INFO:Epoch 68 Training batch 20/31 sent 640 to 672 lr:3.7500e-06
2022-07-21 18:20:22,284-20740583-INFO:Epoch 69 Training batch 0/31 sent 0 to 32 lr:3.7500e-06
2022-07-21 18:22:37,598-20875897-INFO:Epoch 69 Training batch 20/31 sent 640 to 672 lr:3.7500e-06
2022-07-21 18:25:51,479-21069779-INFO:Epoch 70 Training batch 0/31 sent 0 to 32 lr:3.7500e-06
2022-07-21 18:28:07,073-21205372-INFO:Epoch 70 Training batch 20/31 sent 640 to 672 lr:3.7500e-06
2022-07-21 18:31:22,601-21400900-INFO:Epoch 71 Training batch 0/31 sent 0 to 32 lr:1.8750e-06
2022-07-21 18:33:42,951-21541250-INFO:Epoch 71 Training batch 20/31 sent 640 to 672 lr:1.8750e-06
2022-07-21 18:37:01,108-21739408-INFO:Epoch 72 Training batch 0/31 sent 0 to 32 lr:1.8750e-06
2022-07-21 18:39:17,977-21876277-INFO:Epoch 72 Training batch 20/31 sent 640 to 672 lr:1.8750e-06
2022-07-21 18:42:30,952-22069251-INFO:Epoch 73 Training batch 0/31 sent 0 to 32 lr:1.8750e-06
2022-07-21 18:44:46,002-22204301-INFO:Epoch 73 Training batch 20/31 sent 640 to 672 lr:1.8750e-06
2022-07-21 18:48:02,961-22401260-INFO:Epoch 74 Training batch 0/31 sent 0 to 32 lr:1.8750e-06
2022-07-21 18:50:25,307-22543606-INFO:Epoch 74 Training batch 20/31 sent 640 to 672 lr:1.8750e-06
2022-07-21 18:53:46,395-22744694-INFO:Epoch 75 Training batch 0/31 sent 0 to 32 lr:9.3750e-07
2022-07-21 18:56:05,150-22883449-INFO:Epoch 75 Training batch 20/31 sent 640 to 672 lr:9.3750e-07
2022-07-21 18:59:20,253-23078552-INFO:Epoch 76 Training batch 0/31 sent 0 to 32 lr:9.3750e-07
2022-07-21 19:01:38,065-23216364-INFO:Epoch 76 Training batch 20/31 sent 640 to 672 lr:9.3750e-07
2022-07-21 19:04:53,644-23411943-INFO:Epoch 77 Training batch 0/31 sent 0 to 32 lr:9.3750e-07
2022-07-21 19:07:10,242-23548541-INFO:Epoch 77 Training batch 20/31 sent 640 to 672 lr:9.3750e-07
2022-07-21 19:10:24,647-23742946-INFO:Epoch 78 Training batch 0/31 sent 0 to 32 lr:9.3750e-07
2022-07-21 19:12:40,732-23879031-INFO:Epoch 78 Training batch 20/31 sent 640 to 672 lr:9.3750e-07
2022-07-21 19:15:52,199-24070498-INFO:Epoch 79 Training batch 0/31 sent 0 to 32 lr:4.6875e-07
2022-07-21 19:18:07,653-24205952-INFO:Epoch 79 Training batch 20/31 sent 640 to 672 lr:4.6875e-07
