2022-07-21 12:35:18,781-48513-INFO:Mode=train
2022-07-21 12:35:21,582-51314-INFO:Using gpu 0
2022-07-21 12:35:21,887-51619-INFO:Loading corpora...
2022-07-21 12:35:42,341-72074-INFO:Vocabulary extraction...
2022-07-21 12:35:42,973-72705-INFO:Model initialization...
2022-07-21 12:35:43,174-72906-DEBUG:Starting new HTTPS connection (1): huggingface.co:443
2022-07-21 12:35:43,820-73552-DEBUG:https://huggingface.co:443 "HEAD /bert-base-cased/resolve/main/tokenizer_config.json HTTP/1.1" 200 0
2022-07-21 12:35:43,967-73699-DEBUG:Starting new HTTPS connection (1): huggingface.co:443
2022-07-21 12:35:44,558-74290-DEBUG:https://huggingface.co:443 "HEAD /bert-base-cased/resolve/main/config.json HTTP/1.1" 200 0
2022-07-21 12:35:44,791-74523-DEBUG:Starting new HTTPS connection (1): huggingface.co:443
2022-07-21 12:35:45,401-75133-DEBUG:https://huggingface.co:443 "GET /api/models/bert-base-cased HTTP/1.1" 200 1143
2022-07-21 12:35:45,671-75403-DEBUG:Starting new HTTPS connection (1): huggingface.co:443
2022-07-21 12:35:46,196-75929-DEBUG:https://huggingface.co:443 "HEAD /bert-base-cased/resolve/main/vocab.txt HTTP/1.1" 200 0
2022-07-21 12:35:46,631-76363-DEBUG:Starting new HTTPS connection (1): huggingface.co:443
2022-07-21 12:35:47,453-77185-DEBUG:https://huggingface.co:443 "HEAD /bert-base-cased/resolve/main/tokenizer.json HTTP/1.1" 200 0
2022-07-21 12:35:48,120-77852-DEBUG:Starting new HTTPS connection (1): huggingface.co:443
2022-07-21 12:35:48,626-78358-DEBUG:https://huggingface.co:443 "HEAD /bert-base-cased/resolve/main/added_tokens.json HTTP/1.1" 404 0
2022-07-21 12:35:48,835-78567-DEBUG:Starting new HTTPS connection (1): huggingface.co:443
2022-07-21 12:35:49,364-79096-DEBUG:https://huggingface.co:443 "HEAD /bert-base-cased/resolve/main/special_tokens_map.json HTTP/1.1" 404 0
2022-07-21 12:35:49,577-79310-DEBUG:Starting new HTTPS connection (1): huggingface.co:443
2022-07-21 12:35:50,115-79847-DEBUG:https://huggingface.co:443 "HEAD /bert-base-cased/resolve/main/tokenizer_config.json HTTP/1.1" 200 0
2022-07-21 12:35:50,280-80012-DEBUG:Starting new HTTPS connection (1): huggingface.co:443
2022-07-21 12:35:50,838-80570-DEBUG:https://huggingface.co:443 "HEAD /bert-base-cased/resolve/main/config.json HTTP/1.1" 200 0
2022-07-21 12:35:51,096-80828-DEBUG:Starting new HTTPS connection (1): huggingface.co:443
2022-07-21 12:35:51,588-81320-DEBUG:https://huggingface.co:443 "HEAD /bert-base-cased/resolve/main/config.json HTTP/1.1" 200 0
2022-07-21 12:36:06,488-96220-DEBUG:Starting new HTTPS connection (1): huggingface.co:443
2022-07-21 12:36:07,058-96791-DEBUG:https://huggingface.co:443 "HEAD /bert-base-cased/resolve/main/pytorch_model.bin HTTP/1.1" 302 0
Some weights of the model checkpoint at bert-base-cased were not used when initializing BertModel: ['cls.seq_relationship.bias', 'cls.predictions.transform.LayerNorm.bias', 'cls.predictions.decoder.weight', 'cls.predictions.transform.LayerNorm.weight', 'cls.predictions.bias', 'cls.predictions.transform.dense.bias', 'cls.seq_relationship.weight', 'cls.predictions.transform.dense.weight']
- This IS expected if you are initializing BertModel from the checkpoint of a model trained on another task or with another architecture (e.g. initializing a BertForSequenceClassification model from a BertForPreTraining model).
- This IS NOT expected if you are initializing BertModel from the checkpoint of a model that you expect to be exactly identical (initializing a BertForSequenceClassification model from a BertForSequenceClassification model).
2022-07-21 12:36:24,738-114470-INFO:Constructing training examples...
2022-07-21 12:36:32,610-122342-INFO:Starting training
2022-07-21 12:36:33,323-123055-INFO:Epoch 1 Training batch 0/125 sent 0 to 32 lr:4.8000e-07
2022-07-21 12:36:45,283-135015-INFO:Epoch 1 Training batch 20/125 sent 640 to 672 lr:9.6000e-06
2022-07-21 12:36:56,641-146373-INFO:Epoch 1 Training batch 40/125 sent 1280 to 1312 lr:1.9200e-05
2022-07-21 12:37:08,314-158046-INFO:Epoch 1 Training batch 60/125 sent 1920 to 1952 lr:2.8800e-05
2022-07-21 12:37:19,620-169352-INFO:Epoch 1 Training batch 80/125 sent 2560 to 2592 lr:3.8400e-05
2022-07-21 12:37:30,818-180550-INFO:Epoch 1 Training batch 100/125 sent 3200 to 3232 lr:4.8000e-05
2022-07-21 12:37:42,235-191967-INFO:Epoch 1 Training batch 120/125 sent 3840 to 3872 lr:5.7600e-05
2022-07-21 12:41:03,602-393334-INFO:Epoch 2 Training batch 0/125 sent 0 to 32 lr:6.0000e-05
2022-07-21 12:41:15,207-404940-INFO:Epoch 2 Training batch 20/125 sent 640 to 672 lr:6.0000e-05
2022-07-21 12:41:26,451-416184-INFO:Epoch 2 Training batch 40/125 sent 1280 to 1312 lr:6.0000e-05
2022-07-21 12:41:37,767-427499-INFO:Epoch 2 Training batch 60/125 sent 1920 to 1952 lr:6.0000e-05
2022-07-21 12:41:48,817-438549-INFO:Epoch 2 Training batch 80/125 sent 2560 to 2592 lr:6.0000e-05
2022-07-21 12:42:00,086-449818-INFO:Epoch 2 Training batch 100/125 sent 3200 to 3232 lr:6.0000e-05
2022-07-21 12:42:11,333-461066-INFO:Epoch 2 Training batch 120/125 sent 3840 to 3872 lr:6.0000e-05
2022-07-21 12:44:59,339-629071-INFO:Epoch 3 Training batch 0/125 sent 0 to 32 lr:6.0000e-05
2022-07-21 12:45:10,743-640476-INFO:Epoch 3 Training batch 20/125 sent 640 to 672 lr:6.0000e-05
2022-07-21 12:45:22,094-651826-INFO:Epoch 3 Training batch 40/125 sent 1280 to 1312 lr:6.0000e-05
2022-07-21 12:45:33,637-663369-INFO:Epoch 3 Training batch 60/125 sent 1920 to 1952 lr:6.0000e-05
2022-07-21 12:45:44,832-674564-INFO:Epoch 3 Training batch 80/125 sent 2560 to 2592 lr:6.0000e-05
2022-07-21 12:45:55,898-685630-INFO:Epoch 3 Training batch 100/125 sent 3200 to 3232 lr:6.0000e-05
2022-07-21 12:46:07,203-696935-INFO:Epoch 3 Training batch 120/125 sent 3840 to 3872 lr:6.0000e-05
2022-07-21 12:49:52,488-922221-INFO:Epoch 4 Training batch 0/125 sent 0 to 32 lr:6.0000e-05
2022-07-21 12:50:03,966-933699-INFO:Epoch 4 Training batch 20/125 sent 640 to 672 lr:6.0000e-05
2022-07-21 12:50:15,343-945076-INFO:Epoch 4 Training batch 40/125 sent 1280 to 1312 lr:6.0000e-05
2022-07-21 12:50:26,530-956262-INFO:Epoch 4 Training batch 60/125 sent 1920 to 1952 lr:6.0000e-05
2022-07-21 12:50:37,989-967722-INFO:Epoch 4 Training batch 80/125 sent 2560 to 2592 lr:6.0000e-05
2022-07-21 12:50:49,672-979405-INFO:Epoch 4 Training batch 100/125 sent 3200 to 3232 lr:6.0000e-05
2022-07-21 12:51:01,039-990771-INFO:Epoch 4 Training batch 120/125 sent 3840 to 3872 lr:6.0000e-05
2022-07-21 12:55:36,977-1266709-INFO:Epoch 5 Training batch 0/125 sent 0 to 32 lr:6.0000e-05
2022-07-21 12:55:48,486-1278219-INFO:Epoch 5 Training batch 20/125 sent 640 to 672 lr:6.0000e-05
2022-07-21 12:55:59,826-1289558-INFO:Epoch 5 Training batch 40/125 sent 1280 to 1312 lr:6.0000e-05
2022-07-21 12:56:10,860-1300592-INFO:Epoch 5 Training batch 60/125 sent 1920 to 1952 lr:6.0000e-05
2022-07-21 12:56:22,338-1312070-INFO:Epoch 5 Training batch 80/125 sent 2560 to 2592 lr:6.0000e-05
2022-07-21 12:56:33,795-1323527-INFO:Epoch 5 Training batch 100/125 sent 3200 to 3232 lr:6.0000e-05
2022-07-21 12:56:45,018-1334750-INFO:Epoch 5 Training batch 120/125 sent 3840 to 3872 lr:6.0000e-05
2022-07-21 13:00:39,443-1569176-INFO:Epoch 6 Training batch 0/125 sent 0 to 32 lr:6.0000e-05
2022-07-21 13:00:51,309-1581041-INFO:Epoch 6 Training batch 20/125 sent 640 to 672 lr:6.0000e-05
2022-07-21 13:01:02,817-1592550-INFO:Epoch 6 Training batch 40/125 sent 1280 to 1312 lr:6.0000e-05
2022-07-21 13:01:14,151-1603883-INFO:Epoch 6 Training batch 60/125 sent 1920 to 1952 lr:6.0000e-05
2022-07-21 13:01:26,156-1615888-INFO:Epoch 6 Training batch 80/125 sent 2560 to 2592 lr:6.0000e-05
2022-07-21 13:01:37,515-1627248-INFO:Epoch 6 Training batch 100/125 sent 3200 to 3232 lr:6.0000e-05
2022-07-21 13:01:48,709-1638441-INFO:Epoch 6 Training batch 120/125 sent 3840 to 3872 lr:6.0000e-05
2022-07-21 13:06:06,046-1895778-INFO:Epoch 7 Training batch 0/125 sent 0 to 32 lr:6.0000e-05
2022-07-21 13:06:17,867-1907599-INFO:Epoch 7 Training batch 20/125 sent 640 to 672 lr:6.0000e-05
2022-07-21 13:06:29,685-1919417-INFO:Epoch 7 Training batch 40/125 sent 1280 to 1312 lr:6.0000e-05
2022-07-21 13:06:41,382-1931114-INFO:Epoch 7 Training batch 60/125 sent 1920 to 1952 lr:6.0000e-05
2022-07-21 13:06:52,831-1942563-INFO:Epoch 7 Training batch 80/125 sent 2560 to 2592 lr:6.0000e-05
2022-07-21 13:07:03,941-1953673-INFO:Epoch 7 Training batch 100/125 sent 3200 to 3232 lr:6.0000e-05
2022-07-21 13:07:15,334-1965066-INFO:Epoch 7 Training batch 120/125 sent 3840 to 3872 lr:6.0000e-05
2022-07-21 13:11:03,086-2192818-INFO:Epoch 8 Training batch 0/125 sent 0 to 32 lr:6.0000e-05
2022-07-21 13:11:14,197-2203930-INFO:Epoch 8 Training batch 20/125 sent 640 to 672 lr:6.0000e-05
2022-07-21 13:11:25,317-2215050-INFO:Epoch 8 Training batch 40/125 sent 1280 to 1312 lr:6.0000e-05
2022-07-21 13:11:36,808-2226541-INFO:Epoch 8 Training batch 60/125 sent 1920 to 1952 lr:6.0000e-05
2022-07-21 13:11:48,058-2237790-INFO:Epoch 8 Training batch 80/125 sent 2560 to 2592 lr:6.0000e-05
2022-07-21 13:11:59,658-2249391-INFO:Epoch 8 Training batch 100/125 sent 3200 to 3232 lr:6.0000e-05
2022-07-21 13:12:10,981-2260713-INFO:Epoch 8 Training batch 120/125 sent 3840 to 3872 lr:6.0000e-05
2022-07-21 13:15:50,292-2480024-INFO:Epoch 9 Training batch 0/125 sent 0 to 32 lr:6.0000e-05
2022-07-21 13:16:01,444-2491176-INFO:Epoch 9 Training batch 20/125 sent 640 to 672 lr:6.0000e-05
2022-07-21 13:16:12,298-2502031-INFO:Epoch 9 Training batch 40/125 sent 1280 to 1312 lr:6.0000e-05
2022-07-21 13:16:23,815-2513547-INFO:Epoch 9 Training batch 60/125 sent 1920 to 1952 lr:6.0000e-05
2022-07-21 13:16:35,108-2524840-INFO:Epoch 9 Training batch 80/125 sent 2560 to 2592 lr:6.0000e-05
2022-07-21 13:16:46,456-2536188-INFO:Epoch 9 Training batch 100/125 sent 3200 to 3232 lr:6.0000e-05
2022-07-21 13:16:57,863-2547595-INFO:Epoch 9 Training batch 120/125 sent 3840 to 3872 lr:6.0000e-05
2022-07-21 13:19:13,324-2683056-INFO:Epoch 10 Training batch 0/125 sent 0 to 32 lr:6.0000e-05
2022-07-21 13:19:24,332-2694065-INFO:Epoch 10 Training batch 20/125 sent 640 to 672 lr:6.0000e-05
2022-07-21 13:19:35,762-2705494-INFO:Epoch 10 Training batch 40/125 sent 1280 to 1312 lr:6.0000e-05
2022-07-21 13:19:47,180-2716912-INFO:Epoch 10 Training batch 60/125 sent 1920 to 1952 lr:6.0000e-05
2022-07-21 13:19:57,998-2727730-INFO:Epoch 10 Training batch 80/125 sent 2560 to 2592 lr:6.0000e-05
2022-07-21 13:20:09,313-2739046-INFO:Epoch 10 Training batch 100/125 sent 3200 to 3232 lr:6.0000e-05
2022-07-21 13:20:20,593-2750325-INFO:Epoch 10 Training batch 120/125 sent 3840 to 3872 lr:6.0000e-05
2022-07-21 13:25:24,994-3054726-INFO:Epoch 11 Training batch 0/125 sent 0 to 32 lr:6.0000e-05
2022-07-21 13:25:36,755-3066487-INFO:Epoch 11 Training batch 20/125 sent 640 to 672 lr:6.0000e-05
2022-07-21 13:25:48,050-3077782-INFO:Epoch 11 Training batch 40/125 sent 1280 to 1312 lr:6.0000e-05
2022-07-21 13:25:59,073-3088805-INFO:Epoch 11 Training batch 60/125 sent 1920 to 1952 lr:6.0000e-05
2022-07-21 13:26:10,059-3099791-INFO:Epoch 11 Training batch 80/125 sent 2560 to 2592 lr:6.0000e-05
2022-07-21 13:26:21,221-3110953-INFO:Epoch 11 Training batch 100/125 sent 3200 to 3232 lr:6.0000e-05
2022-07-21 13:26:32,511-3122243-INFO:Epoch 11 Training batch 120/125 sent 3840 to 3872 lr:6.0000e-05
2022-07-21 13:30:21,633-3351365-INFO:Epoch 12 Training batch 0/125 sent 0 to 32 lr:6.0000e-05
2022-07-21 13:30:32,901-3362633-INFO:Epoch 12 Training batch 20/125 sent 640 to 672 lr:6.0000e-05
2022-07-21 13:30:43,679-3373411-INFO:Epoch 12 Training batch 40/125 sent 1280 to 1312 lr:6.0000e-05
2022-07-21 13:30:55,004-3384736-INFO:Epoch 12 Training batch 60/125 sent 1920 to 1952 lr:6.0000e-05
2022-07-21 13:31:06,070-3395802-INFO:Epoch 12 Training batch 80/125 sent 2560 to 2592 lr:6.0000e-05
2022-07-21 13:31:17,684-3407416-INFO:Epoch 12 Training batch 100/125 sent 3200 to 3232 lr:6.0000e-05
2022-07-21 13:31:28,851-3418583-INFO:Epoch 12 Training batch 120/125 sent 3840 to 3872 lr:6.0000e-05
2022-07-21 13:33:48,600-3558332-INFO:Epoch 13 Training batch 0/125 sent 0 to 32 lr:6.0000e-05
2022-07-21 13:33:59,635-3569367-INFO:Epoch 13 Training batch 20/125 sent 640 to 672 lr:6.0000e-05
2022-07-21 13:34:10,592-3580325-INFO:Epoch 13 Training batch 40/125 sent 1280 to 1312 lr:6.0000e-05
2022-07-21 13:34:22,240-3591973-INFO:Epoch 13 Training batch 60/125 sent 1920 to 1952 lr:6.0000e-05
2022-07-21 13:34:33,533-3603265-INFO:Epoch 13 Training batch 80/125 sent 2560 to 2592 lr:6.0000e-05
2022-07-21 13:34:44,585-3614318-INFO:Epoch 13 Training batch 100/125 sent 3200 to 3232 lr:6.0000e-05
2022-07-21 13:34:55,692-3625424-INFO:Epoch 13 Training batch 120/125 sent 3840 to 3872 lr:6.0000e-05
2022-07-21 13:37:13,764-3763496-INFO:Epoch 14 Training batch 0/125 sent 0 to 32 lr:6.0000e-05
2022-07-21 13:37:24,901-3774633-INFO:Epoch 14 Training batch 20/125 sent 640 to 672 lr:6.0000e-05
2022-07-21 13:37:36,258-3785990-INFO:Epoch 14 Training batch 40/125 sent 1280 to 1312 lr:6.0000e-05
2022-07-21 13:37:47,319-3797051-INFO:Epoch 14 Training batch 60/125 sent 1920 to 1952 lr:6.0000e-05
2022-07-21 13:37:58,382-3808115-INFO:Epoch 14 Training batch 80/125 sent 2560 to 2592 lr:6.0000e-05
2022-07-21 13:38:09,629-3819361-INFO:Epoch 14 Training batch 100/125 sent 3200 to 3232 lr:6.0000e-05
2022-07-21 13:38:20,785-3830517-INFO:Epoch 14 Training batch 120/125 sent 3840 to 3872 lr:6.0000e-05
2022-07-21 13:41:30,203-4019935-INFO:Epoch 15 Training batch 0/125 sent 0 to 32 lr:6.0000e-05
2022-07-21 13:41:41,468-4031201-INFO:Epoch 15 Training batch 20/125 sent 640 to 672 lr:6.0000e-05
2022-07-21 13:41:52,253-4041985-INFO:Epoch 15 Training batch 40/125 sent 1280 to 1312 lr:6.0000e-05
2022-07-21 13:42:03,761-4053493-INFO:Epoch 15 Training batch 60/125 sent 1920 to 1952 lr:6.0000e-05
2022-07-21 13:42:15,524-4065256-INFO:Epoch 15 Training batch 80/125 sent 2560 to 2592 lr:6.0000e-05
2022-07-21 13:42:26,493-4076226-INFO:Epoch 15 Training batch 100/125 sent 3200 to 3232 lr:6.0000e-05
2022-07-21 13:42:37,726-4087458-INFO:Epoch 15 Training batch 120/125 sent 3840 to 3872 lr:6.0000e-05
2022-07-21 13:45:59,062-4288794-INFO:Epoch 16 Training batch 0/125 sent 0 to 32 lr:6.0000e-05
2022-07-21 13:46:10,931-4300664-INFO:Epoch 16 Training batch 20/125 sent 640 to 672 lr:6.0000e-05
2022-07-21 13:46:22,490-4312222-INFO:Epoch 16 Training batch 40/125 sent 1280 to 1312 lr:6.0000e-05
2022-07-21 13:46:33,335-4323068-INFO:Epoch 16 Training batch 60/125 sent 1920 to 1952 lr:6.0000e-05
2022-07-21 13:46:44,699-4334431-INFO:Epoch 16 Training batch 80/125 sent 2560 to 2592 lr:6.0000e-05
2022-07-21 13:46:55,970-4345702-INFO:Epoch 16 Training batch 100/125 sent 3200 to 3232 lr:6.0000e-05
2022-07-21 13:47:07,046-4356778-INFO:Epoch 16 Training batch 120/125 sent 3840 to 3872 lr:6.0000e-05
2022-07-21 13:49:23,672-4493404-INFO:Epoch 17 Training batch 0/125 sent 0 to 32 lr:6.0000e-05
2022-07-21 13:49:35,124-4504856-INFO:Epoch 17 Training batch 20/125 sent 640 to 672 lr:6.0000e-05
2022-07-21 13:49:46,205-4515938-INFO:Epoch 17 Training batch 40/125 sent 1280 to 1312 lr:6.0000e-05
2022-07-21 13:49:57,730-4527462-INFO:Epoch 17 Training batch 60/125 sent 1920 to 1952 lr:6.0000e-05
2022-07-21 13:50:08,984-4538717-INFO:Epoch 17 Training batch 80/125 sent 2560 to 2592 lr:6.0000e-05
2022-07-21 13:50:20,014-4549746-INFO:Epoch 17 Training batch 100/125 sent 3200 to 3232 lr:6.0000e-05
2022-07-21 13:50:31,009-4560741-INFO:Epoch 17 Training batch 120/125 sent 3840 to 3872 lr:6.0000e-05
2022-07-21 13:55:54,392-4884124-INFO:Epoch 18 Training batch 0/125 sent 0 to 32 lr:6.0000e-05
2022-07-21 13:56:05,574-4895306-INFO:Epoch 18 Training batch 20/125 sent 640 to 672 lr:6.0000e-05
2022-07-21 13:56:16,818-4906551-INFO:Epoch 18 Training batch 40/125 sent 1280 to 1312 lr:6.0000e-05
2022-07-21 13:56:28,034-4917766-INFO:Epoch 18 Training batch 60/125 sent 1920 to 1952 lr:6.0000e-05
2022-07-21 13:56:39,957-4929690-INFO:Epoch 18 Training batch 80/125 sent 2560 to 2592 lr:6.0000e-05
2022-07-21 13:56:51,599-4941331-INFO:Epoch 18 Training batch 100/125 sent 3200 to 3232 lr:6.0000e-05
2022-07-21 13:57:02,750-4952482-INFO:Epoch 18 Training batch 120/125 sent 3840 to 3872 lr:6.0000e-05
2022-07-21 14:01:36,668-5226400-INFO:Epoch 19 Training batch 0/125 sent 0 to 32 lr:6.0000e-05
2022-07-21 14:01:47,937-5237669-INFO:Epoch 19 Training batch 20/125 sent 640 to 672 lr:6.0000e-05
2022-07-21 14:01:59,238-5248970-INFO:Epoch 19 Training batch 40/125 sent 1280 to 1312 lr:6.0000e-05
2022-07-21 14:02:10,345-5260077-INFO:Epoch 19 Training batch 60/125 sent 1920 to 1952 lr:6.0000e-05
2022-07-21 14:02:21,632-5271365-INFO:Epoch 19 Training batch 80/125 sent 2560 to 2592 lr:6.0000e-05
2022-07-21 14:02:32,768-5282501-INFO:Epoch 19 Training batch 100/125 sent 3200 to 3232 lr:6.0000e-05
2022-07-21 14:02:43,964-5293696-INFO:Epoch 19 Training batch 120/125 sent 3840 to 3872 lr:6.0000e-05
2022-07-21 14:06:05,698-5495431-INFO:Epoch 20 Training batch 0/125 sent 0 to 32 lr:6.0000e-05
2022-07-21 14:06:16,866-5506598-INFO:Epoch 20 Training batch 20/125 sent 640 to 672 lr:6.0000e-05
2022-07-21 14:06:28,082-5517814-INFO:Epoch 20 Training batch 40/125 sent 1280 to 1312 lr:6.0000e-05
2022-07-21 14:06:39,483-5529215-INFO:Epoch 20 Training batch 60/125 sent 1920 to 1952 lr:6.0000e-05
2022-07-21 14:06:50,626-5540358-INFO:Epoch 20 Training batch 80/125 sent 2560 to 2592 lr:6.0000e-05
2022-07-21 14:07:01,774-5551506-INFO:Epoch 20 Training batch 100/125 sent 3200 to 3232 lr:6.0000e-05
2022-07-21 14:07:12,761-5562493-INFO:Epoch 20 Training batch 120/125 sent 3840 to 3872 lr:6.0000e-05
2022-07-21 14:10:23,914-5753646-INFO:Epoch 21 Training batch 0/125 sent 0 to 32 lr:6.0000e-05
2022-07-21 14:10:35,577-5765309-INFO:Epoch 21 Training batch 20/125 sent 640 to 672 lr:6.0000e-05
2022-07-21 14:10:46,611-5776343-INFO:Epoch 21 Training batch 40/125 sent 1280 to 1312 lr:6.0000e-05
2022-07-21 14:10:57,841-5787573-INFO:Epoch 21 Training batch 60/125 sent 1920 to 1952 lr:6.0000e-05
2022-07-21 14:11:09,135-5798867-INFO:Epoch 21 Training batch 80/125 sent 2560 to 2592 lr:6.0000e-05
2022-07-21 14:11:20,440-5810172-INFO:Epoch 21 Training batch 100/125 sent 3200 to 3232 lr:6.0000e-05
2022-07-21 14:11:31,264-5820997-INFO:Epoch 21 Training batch 120/125 sent 3840 to 3872 lr:6.0000e-05
2022-07-21 14:15:06,350-6036082-INFO:Epoch 22 Training batch 0/125 sent 0 to 32 lr:6.0000e-05
2022-07-21 14:15:17,684-6047417-INFO:Epoch 22 Training batch 20/125 sent 640 to 672 lr:6.0000e-05
2022-07-21 14:15:28,835-6058567-INFO:Epoch 22 Training batch 40/125 sent 1280 to 1312 lr:6.0000e-05
2022-07-21 14:15:40,287-6070019-INFO:Epoch 22 Training batch 60/125 sent 1920 to 1952 lr:6.0000e-05
2022-07-21 14:15:51,378-6081111-INFO:Epoch 22 Training batch 80/125 sent 2560 to 2592 lr:6.0000e-05
2022-07-21 14:16:02,295-6092027-INFO:Epoch 22 Training batch 100/125 sent 3200 to 3232 lr:6.0000e-05
2022-07-21 14:16:13,152-6102884-INFO:Epoch 22 Training batch 120/125 sent 3840 to 3872 lr:6.0000e-05
2022-07-21 14:19:27,169-6296901-INFO:Epoch 23 Training batch 0/125 sent 0 to 32 lr:6.0000e-05
2022-07-21 14:19:38,297-6308029-INFO:Epoch 23 Training batch 20/125 sent 640 to 672 lr:6.0000e-05
2022-07-21 14:19:49,693-6319425-INFO:Epoch 23 Training batch 40/125 sent 1280 to 1312 lr:6.0000e-05
2022-07-21 14:20:00,957-6330690-INFO:Epoch 23 Training batch 60/125 sent 1920 to 1952 lr:6.0000e-05
2022-07-21 14:20:12,346-6342078-INFO:Epoch 23 Training batch 80/125 sent 2560 to 2592 lr:6.0000e-05
2022-07-21 14:20:23,363-6353095-INFO:Epoch 23 Training batch 100/125 sent 3200 to 3232 lr:6.0000e-05
2022-07-21 14:20:34,587-6364319-INFO:Epoch 23 Training batch 120/125 sent 3840 to 3872 lr:6.0000e-05
2022-07-21 14:23:47,640-6557372-INFO:Epoch 24 Training batch 0/125 sent 0 to 32 lr:6.0000e-05
2022-07-21 14:23:58,995-6568727-INFO:Epoch 24 Training batch 20/125 sent 640 to 672 lr:6.0000e-05
2022-07-21 14:24:10,385-6580118-INFO:Epoch 24 Training batch 40/125 sent 1280 to 1312 lr:6.0000e-05
2022-07-21 14:24:21,438-6591171-INFO:Epoch 24 Training batch 60/125 sent 1920 to 1952 lr:6.0000e-05
2022-07-21 14:24:32,473-6602205-INFO:Epoch 24 Training batch 80/125 sent 2560 to 2592 lr:6.0000e-05
2022-07-21 14:24:43,689-6613421-INFO:Epoch 24 Training batch 100/125 sent 3200 to 3232 lr:6.0000e-05
2022-07-21 14:24:55,039-6624771-INFO:Epoch 24 Training batch 120/125 sent 3840 to 3872 lr:6.0000e-05
2022-07-21 14:28:21,823-6831555-INFO:Epoch 25 Training batch 0/125 sent 0 to 32 lr:6.0000e-05
2022-07-21 14:28:33,361-6843093-INFO:Epoch 25 Training batch 20/125 sent 640 to 672 lr:6.0000e-05
2022-07-21 14:28:44,302-6854034-INFO:Epoch 25 Training batch 40/125 sent 1280 to 1312 lr:6.0000e-05
2022-07-21 14:28:55,405-6865137-INFO:Epoch 25 Training batch 60/125 sent 1920 to 1952 lr:6.0000e-05
2022-07-21 14:29:06,973-6876705-INFO:Epoch 25 Training batch 80/125 sent 2560 to 2592 lr:6.0000e-05
2022-07-21 14:29:18,313-6888046-INFO:Epoch 25 Training batch 100/125 sent 3200 to 3232 lr:6.0000e-05
2022-07-21 14:29:29,953-6899685-INFO:Epoch 25 Training batch 120/125 sent 3840 to 3872 lr:6.0000e-05
2022-07-21 14:32:45,908-7095641-INFO:Epoch 26 Training batch 0/125 sent 0 to 32 lr:6.0000e-05
2022-07-21 14:32:57,171-7106903-INFO:Epoch 26 Training batch 20/125 sent 640 to 672 lr:6.0000e-05
2022-07-21 14:33:08,750-7118483-INFO:Epoch 26 Training batch 40/125 sent 1280 to 1312 lr:6.0000e-05
2022-07-21 14:33:19,731-7129464-INFO:Epoch 26 Training batch 60/125 sent 1920 to 1952 lr:6.0000e-05
2022-07-21 14:33:30,873-7140605-INFO:Epoch 26 Training batch 80/125 sent 2560 to 2592 lr:6.0000e-05
2022-07-21 14:33:42,093-7151826-INFO:Epoch 26 Training batch 100/125 sent 3200 to 3232 lr:6.0000e-05
2022-07-21 14:33:53,217-7162950-INFO:Epoch 26 Training batch 120/125 sent 3840 to 3872 lr:6.0000e-05
2022-07-21 14:37:20,661-7370393-INFO:Epoch 27 Training batch 0/125 sent 0 to 32 lr:6.0000e-05
2022-07-21 14:37:32,051-7381784-INFO:Epoch 27 Training batch 20/125 sent 640 to 672 lr:6.0000e-05
2022-07-21 14:37:42,773-7392505-INFO:Epoch 27 Training batch 40/125 sent 1280 to 1312 lr:6.0000e-05
2022-07-21 14:37:53,892-7403624-INFO:Epoch 27 Training batch 60/125 sent 1920 to 1952 lr:6.0000e-05
2022-07-21 14:38:05,573-7415305-INFO:Epoch 27 Training batch 80/125 sent 2560 to 2592 lr:6.0000e-05
2022-07-21 14:38:16,742-7426475-INFO:Epoch 27 Training batch 100/125 sent 3200 to 3232 lr:6.0000e-05
2022-07-21 14:38:27,802-7437534-INFO:Epoch 27 Training batch 120/125 sent 3840 to 3872 lr:6.0000e-05
2022-07-21 14:41:43,835-7633567-INFO:Epoch 28 Training batch 0/125 sent 0 to 32 lr:6.0000e-05
2022-07-21 14:41:56,022-7645754-INFO:Epoch 28 Training batch 20/125 sent 640 to 672 lr:6.0000e-05
2022-07-21 14:42:07,148-7656880-INFO:Epoch 28 Training batch 40/125 sent 1280 to 1312 lr:6.0000e-05
2022-07-21 14:42:18,258-7667990-INFO:Epoch 28 Training batch 60/125 sent 1920 to 1952 lr:6.0000e-05
2022-07-21 14:42:29,273-7679005-INFO:Epoch 28 Training batch 80/125 sent 2560 to 2592 lr:6.0000e-05
2022-07-21 14:42:40,765-7690497-INFO:Epoch 28 Training batch 100/125 sent 3200 to 3232 lr:6.0000e-05
2022-07-21 14:42:51,838-7701570-INFO:Epoch 28 Training batch 120/125 sent 3840 to 3872 lr:6.0000e-05
2022-07-21 14:45:08,241-7837974-INFO:Epoch 29 Training batch 0/125 sent 0 to 32 lr:6.0000e-05
2022-07-21 14:45:19,545-7849277-INFO:Epoch 29 Training batch 20/125 sent 640 to 672 lr:6.0000e-05
2022-07-21 14:45:30,455-7860187-INFO:Epoch 29 Training batch 40/125 sent 1280 to 1312 lr:6.0000e-05
2022-07-21 14:45:41,392-7871125-INFO:Epoch 29 Training batch 60/125 sent 1920 to 1952 lr:6.0000e-05
2022-07-21 14:45:53,158-7882890-INFO:Epoch 29 Training batch 80/125 sent 2560 to 2592 lr:6.0000e-05
2022-07-21 14:46:04,268-7894000-INFO:Epoch 29 Training batch 100/125 sent 3200 to 3232 lr:6.0000e-05
2022-07-21 14:46:15,602-7905334-INFO:Epoch 29 Training batch 120/125 sent 3840 to 3872 lr:6.0000e-05
2022-07-21 14:49:36,468-8106200-INFO:Epoch 30 Training batch 0/125 sent 0 to 32 lr:6.0000e-05
2022-07-21 14:49:47,750-8117482-INFO:Epoch 30 Training batch 20/125 sent 640 to 672 lr:6.0000e-05
2022-07-21 14:51:05,317-8195050-INFO:Epoch 30 Training batch 40/125 sent 1280 to 1312 lr:6.0000e-05
2022-07-21 14:51:16,686-8206418-INFO:Epoch 30 Training batch 60/125 sent 1920 to 1952 lr:6.0000e-05
2022-07-21 14:52:38,536-8288268-INFO:Epoch 30 Training batch 80/125 sent 2560 to 2592 lr:6.0000e-05
2022-07-21 14:53:55,972-8365704-INFO:Epoch 30 Training batch 100/125 sent 3200 to 3232 lr:6.0000e-05
2022-07-21 14:54:06,946-8376678-INFO:Epoch 30 Training batch 120/125 sent 3840 to 3872 lr:6.0000e-05
2022-07-21 14:57:21,774-8571506-INFO:Epoch 31 Training batch 0/125 sent 0 to 32 lr:6.0000e-05
2022-07-21 14:57:32,494-8582226-INFO:Epoch 31 Training batch 20/125 sent 640 to 672 lr:6.0000e-05
2022-07-21 14:58:49,560-8659292-INFO:Epoch 31 Training batch 40/125 sent 1280 to 1312 lr:6.0000e-05
2022-07-21 14:59:00,520-8670252-INFO:Epoch 31 Training batch 60/125 sent 1920 to 1952 lr:6.0000e-05
2022-07-21 15:00:18,556-8748288-INFO:Epoch 31 Training batch 80/125 sent 2560 to 2592 lr:6.0000e-05
2022-07-21 15:01:36,600-8826333-INFO:Epoch 31 Training batch 100/125 sent 3200 to 3232 lr:6.0000e-05
2022-07-21 15:01:48,037-8837769-INFO:Epoch 31 Training batch 120/125 sent 3840 to 3872 lr:6.0000e-05
2022-07-21 15:05:02,701-9032433-INFO:Epoch 32 Training batch 0/125 sent 0 to 32 lr:6.0000e-05
2022-07-21 15:05:14,038-9043770-INFO:Epoch 32 Training batch 20/125 sent 640 to 672 lr:6.0000e-05
2022-07-21 15:06:32,488-9122221-INFO:Epoch 32 Training batch 40/125 sent 1280 to 1312 lr:6.0000e-05
2022-07-21 15:06:43,855-9133587-INFO:Epoch 32 Training batch 60/125 sent 1920 to 1952 lr:6.0000e-05
2022-07-21 15:08:02,308-9212041-INFO:Epoch 32 Training batch 80/125 sent 2560 to 2592 lr:6.0000e-05
2022-07-21 15:09:19,889-9289621-INFO:Epoch 32 Training batch 100/125 sent 3200 to 3232 lr:6.0000e-05
2022-07-21 15:09:30,552-9300284-INFO:Epoch 32 Training batch 120/125 sent 3840 to 3872 lr:6.0000e-05
2022-07-21 15:12:41,423-9491155-INFO:Epoch 33 Training batch 0/125 sent 0 to 32 lr:6.0000e-05
2022-07-21 15:12:52,459-9502191-INFO:Epoch 33 Training batch 20/125 sent 640 to 672 lr:6.0000e-05
2022-07-21 15:14:10,268-9580000-INFO:Epoch 33 Training batch 40/125 sent 1280 to 1312 lr:6.0000e-05
2022-07-21 15:14:21,368-9591100-INFO:Epoch 33 Training batch 60/125 sent 1920 to 1952 lr:6.0000e-05
2022-07-21 15:15:40,024-9669757-INFO:Epoch 33 Training batch 80/125 sent 2560 to 2592 lr:6.0000e-05
2022-07-21 15:16:56,785-9746517-INFO:Epoch 33 Training batch 100/125 sent 3200 to 3232 lr:6.0000e-05
2022-07-21 15:17:07,803-9757535-INFO:Epoch 33 Training batch 120/125 sent 3840 to 3872 lr:6.0000e-05
2022-07-21 15:20:29,828-9959560-INFO:Epoch 34 Training batch 0/125 sent 0 to 32 lr:6.0000e-05
2022-07-21 15:20:41,453-9971185-INFO:Epoch 34 Training batch 20/125 sent 640 to 672 lr:6.0000e-05
2022-07-21 15:22:00,173-10049906-INFO:Epoch 34 Training batch 40/125 sent 1280 to 1312 lr:6.0000e-05
2022-07-21 15:22:11,473-10061205-INFO:Epoch 34 Training batch 60/125 sent 1920 to 1952 lr:6.0000e-05
2022-07-21 15:23:32,294-10142026-INFO:Epoch 34 Training batch 80/125 sent 2560 to 2592 lr:6.0000e-05
2022-07-21 15:24:50,394-10220126-INFO:Epoch 34 Training batch 100/125 sent 3200 to 3232 lr:6.0000e-05
2022-07-21 15:25:01,487-10231219-INFO:Epoch 34 Training batch 120/125 sent 3840 to 3872 lr:6.0000e-05
2022-07-21 15:28:08,592-10418325-INFO:Epoch 35 Training batch 0/125 sent 0 to 32 lr:6.0000e-05
2022-07-21 15:28:19,448-10429180-INFO:Epoch 35 Training batch 20/125 sent 640 to 672 lr:6.0000e-05
2022-07-21 15:29:37,428-10507160-INFO:Epoch 35 Training batch 40/125 sent 1280 to 1312 lr:6.0000e-05
2022-07-21 15:29:48,294-10518026-INFO:Epoch 35 Training batch 60/125 sent 1920 to 1952 lr:6.0000e-05
2022-07-21 15:31:09,476-10599208-INFO:Epoch 35 Training batch 80/125 sent 2560 to 2592 lr:6.0000e-05
2022-07-21 15:32:27,654-10677386-INFO:Epoch 35 Training batch 100/125 sent 3200 to 3232 lr:6.0000e-05
2022-07-21 15:32:39,026-10688758-INFO:Epoch 35 Training batch 120/125 sent 3840 to 3872 lr:6.0000e-05
2022-07-21 15:35:51,519-10881251-INFO:Epoch 36 Training batch 0/125 sent 0 to 32 lr:6.0000e-05
2022-07-21 15:36:02,504-10892237-INFO:Epoch 36 Training batch 20/125 sent 640 to 672 lr:6.0000e-05
2022-07-21 15:37:20,545-10970278-INFO:Epoch 36 Training batch 40/125 sent 1280 to 1312 lr:6.0000e-05
2022-07-21 15:37:31,496-10981228-INFO:Epoch 36 Training batch 60/125 sent 1920 to 1952 lr:6.0000e-05
2022-07-21 15:38:48,783-11058515-INFO:Epoch 36 Training batch 80/125 sent 2560 to 2592 lr:6.0000e-05
2022-07-21 15:40:08,150-11137882-INFO:Epoch 36 Training batch 100/125 sent 3200 to 3232 lr:6.0000e-05
2022-07-21 15:40:19,433-11149165-INFO:Epoch 36 Training batch 120/125 sent 3840 to 3872 lr:6.0000e-05
2022-07-21 15:42:37,263-11286995-INFO:Epoch 37 Training batch 0/125 sent 0 to 32 lr:6.0000e-05
2022-07-21 15:42:48,750-11298483-INFO:Epoch 37 Training batch 20/125 sent 640 to 672 lr:6.0000e-05
2022-07-21 15:44:07,444-11377176-INFO:Epoch 37 Training batch 40/125 sent 1280 to 1312 lr:6.0000e-05
2022-07-21 15:44:18,816-11388548-INFO:Epoch 37 Training batch 60/125 sent 1920 to 1952 lr:6.0000e-05
2022-07-21 15:45:37,333-11467065-INFO:Epoch 37 Training batch 80/125 sent 2560 to 2592 lr:6.0000e-05
2022-07-21 15:46:55,465-11545198-INFO:Epoch 37 Training batch 100/125 sent 3200 to 3232 lr:6.0000e-05
2022-07-21 15:47:06,329-11556061-INFO:Epoch 37 Training batch 120/125 sent 3840 to 3872 lr:6.0000e-05
2022-07-21 15:50:04,381-11734113-INFO:Epoch 38 Training batch 0/125 sent 0 to 32 lr:6.0000e-05
2022-07-21 15:50:16,075-11745808-INFO:Epoch 38 Training batch 20/125 sent 640 to 672 lr:6.0000e-05
2022-07-21 15:51:34,901-11824633-INFO:Epoch 38 Training batch 40/125 sent 1280 to 1312 lr:6.0000e-05
2022-07-21 15:51:46,095-11835827-INFO:Epoch 38 Training batch 60/125 sent 1920 to 1952 lr:6.0000e-05
2022-07-21 15:53:02,858-11912590-INFO:Epoch 38 Training batch 80/125 sent 2560 to 2592 lr:6.0000e-05
2022-07-21 15:54:19,702-11989434-INFO:Epoch 38 Training batch 100/125 sent 3200 to 3232 lr:6.0000e-05
2022-07-21 15:54:30,928-12000660-INFO:Epoch 38 Training batch 120/125 sent 3840 to 3872 lr:6.0000e-05
2022-07-21 15:56:46,522-12136254-INFO:Epoch 39 Training batch 0/125 sent 0 to 32 lr:6.0000e-05
2022-07-21 15:56:57,988-12147720-INFO:Epoch 39 Training batch 20/125 sent 640 to 672 lr:6.0000e-05
2022-07-21 15:58:14,277-12224009-INFO:Epoch 39 Training batch 40/125 sent 1280 to 1312 lr:6.0000e-05
2022-07-21 15:58:25,546-12235278-INFO:Epoch 39 Training batch 60/125 sent 1920 to 1952 lr:6.0000e-05
2022-07-21 15:59:42,464-12312197-INFO:Epoch 39 Training batch 80/125 sent 2560 to 2592 lr:6.0000e-05
2022-07-21 16:01:00,810-12390542-INFO:Epoch 39 Training batch 100/125 sent 3200 to 3232 lr:6.0000e-05
2022-07-21 16:01:12,177-12401909-INFO:Epoch 39 Training batch 120/125 sent 3840 to 3872 lr:6.0000e-05
2022-07-21 16:03:26,312-12536044-INFO:Epoch 40 Training batch 0/125 sent 0 to 32 lr:6.0000e-05
2022-07-21 16:03:37,004-12546736-INFO:Epoch 40 Training batch 20/125 sent 640 to 672 lr:6.0000e-05
2022-07-21 16:04:53,710-12623442-INFO:Epoch 40 Training batch 40/125 sent 1280 to 1312 lr:6.0000e-05
2022-07-21 16:05:04,994-12634726-INFO:Epoch 40 Training batch 60/125 sent 1920 to 1952 lr:6.0000e-05
2022-07-21 16:06:21,832-12711565-INFO:Epoch 40 Training batch 80/125 sent 2560 to 2592 lr:6.0000e-05
2022-07-21 16:07:40,261-12789993-INFO:Epoch 40 Training batch 100/125 sent 3200 to 3232 lr:6.0000e-05
2022-07-21 16:07:51,687-12801419-INFO:Epoch 40 Training batch 120/125 sent 3840 to 3872 lr:6.0000e-05
2022-07-21 16:10:05,748-12935481-INFO:Epoch 41 Training batch 0/125 sent 0 to 32 lr:6.0000e-05
2022-07-21 16:10:17,059-12946791-INFO:Epoch 41 Training batch 20/125 sent 640 to 672 lr:6.0000e-05
2022-07-21 16:11:34,414-13024146-INFO:Epoch 41 Training batch 40/125 sent 1280 to 1312 lr:6.0000e-05
2022-07-21 16:11:45,516-13035248-INFO:Epoch 41 Training batch 60/125 sent 1920 to 1952 lr:6.0000e-05
2022-07-21 16:13:02,485-13112218-INFO:Epoch 41 Training batch 80/125 sent 2560 to 2592 lr:6.0000e-05
2022-07-21 16:14:20,810-13190542-INFO:Epoch 41 Training batch 100/125 sent 3200 to 3232 lr:6.0000e-05
2022-07-21 16:14:32,272-13202004-INFO:Epoch 41 Training batch 120/125 sent 3840 to 3872 lr:6.0000e-05
2022-07-21 16:16:49,789-13339521-INFO:Epoch 42 Training batch 0/125 sent 0 to 32 lr:3.0000e-05
2022-07-21 16:17:00,700-13350432-INFO:Epoch 42 Training batch 20/125 sent 640 to 672 lr:3.0000e-05
2022-07-21 16:18:17,821-13427554-INFO:Epoch 42 Training batch 40/125 sent 1280 to 1312 lr:3.0000e-05
2022-07-21 16:18:29,249-13438981-INFO:Epoch 42 Training batch 60/125 sent 1920 to 1952 lr:3.0000e-05
2022-07-21 16:19:48,693-13518425-INFO:Epoch 42 Training batch 80/125 sent 2560 to 2592 lr:3.0000e-05
2022-07-21 16:21:06,069-13595801-INFO:Epoch 42 Training batch 100/125 sent 3200 to 3232 lr:3.0000e-05
2022-07-21 16:21:17,589-13607321-INFO:Epoch 42 Training batch 120/125 sent 3840 to 3872 lr:3.0000e-05
2022-07-21 16:23:36,126-13745859-INFO:Epoch 43 Training batch 0/125 sent 0 to 32 lr:3.0000e-05
2022-07-21 16:23:47,474-13757206-INFO:Epoch 43 Training batch 20/125 sent 640 to 672 lr:3.0000e-05
2022-07-21 16:25:07,433-13837165-INFO:Epoch 43 Training batch 40/125 sent 1280 to 1312 lr:3.0000e-05
2022-07-21 16:25:18,583-13848316-INFO:Epoch 43 Training batch 60/125 sent 1920 to 1952 lr:3.0000e-05
2022-07-21 16:26:38,349-13928081-INFO:Epoch 43 Training batch 80/125 sent 2560 to 2592 lr:3.0000e-05
2022-07-21 16:27:57,270-14007002-INFO:Epoch 43 Training batch 100/125 sent 3200 to 3232 lr:3.0000e-05
2022-07-21 16:28:08,442-14018175-INFO:Epoch 43 Training batch 120/125 sent 3840 to 3872 lr:3.0000e-05
2022-07-21 16:30:26,626-14156358-INFO:Epoch 44 Training batch 0/125 sent 0 to 32 lr:3.0000e-05
2022-07-21 16:30:37,632-14167364-INFO:Epoch 44 Training batch 20/125 sent 640 to 672 lr:3.0000e-05
2022-07-21 16:31:55,563-14245296-INFO:Epoch 44 Training batch 40/125 sent 1280 to 1312 lr:3.0000e-05
2022-07-21 16:32:06,704-14256436-INFO:Epoch 44 Training batch 60/125 sent 1920 to 1952 lr:3.0000e-05
2022-07-21 16:33:25,515-14335248-INFO:Epoch 44 Training batch 80/125 sent 2560 to 2592 lr:3.0000e-05
2022-07-21 16:34:44,244-14413976-INFO:Epoch 44 Training batch 100/125 sent 3200 to 3232 lr:3.0000e-05
2022-07-21 16:34:55,507-14425239-INFO:Epoch 44 Training batch 120/125 sent 3840 to 3872 lr:3.0000e-05
2022-07-21 16:39:02,986-14672719-INFO:Epoch 45 Training batch 0/125 sent 0 to 32 lr:3.0000e-05
2022-07-21 16:39:14,000-14683732-INFO:Epoch 45 Training batch 20/125 sent 640 to 672 lr:3.0000e-05
2022-07-21 16:40:33,525-14763257-INFO:Epoch 45 Training batch 40/125 sent 1280 to 1312 lr:3.0000e-05
2022-07-21 16:40:45,006-14774739-INFO:Epoch 45 Training batch 60/125 sent 1920 to 1952 lr:3.0000e-05
2022-07-21 16:42:04,721-14854453-INFO:Epoch 45 Training batch 80/125 sent 2560 to 2592 lr:3.0000e-05
2022-07-21 16:43:24,717-14934450-INFO:Epoch 45 Training batch 100/125 sent 3200 to 3232 lr:3.0000e-05
2022-07-21 16:43:35,861-14945593-INFO:Epoch 45 Training batch 120/125 sent 3840 to 3872 lr:3.0000e-05
2022-07-21 16:47:48,332-15198065-INFO:Epoch 46 Training batch 0/125 sent 0 to 32 lr:3.0000e-05
2022-07-21 16:47:59,701-15209433-INFO:Epoch 46 Training batch 20/125 sent 640 to 672 lr:3.0000e-05
2022-07-21 16:49:22,709-15292442-INFO:Epoch 46 Training batch 40/125 sent 1280 to 1312 lr:3.0000e-05
2022-07-21 16:49:33,818-15303551-INFO:Epoch 46 Training batch 60/125 sent 1920 to 1952 lr:3.0000e-05
2022-07-21 16:50:54,939-15384671-INFO:Epoch 46 Training batch 80/125 sent 2560 to 2592 lr:3.0000e-05
2022-07-21 16:52:16,362-15466094-INFO:Epoch 46 Training batch 100/125 sent 3200 to 3232 lr:3.0000e-05
2022-07-21 16:52:27,544-15477276-INFO:Epoch 46 Training batch 120/125 sent 3840 to 3872 lr:3.0000e-05
2022-07-21 16:56:26,333-15716065-INFO:Epoch 47 Training batch 0/125 sent 0 to 32 lr:3.0000e-05
2022-07-21 16:56:37,344-15727076-INFO:Epoch 47 Training batch 20/125 sent 640 to 672 lr:3.0000e-05
2022-07-21 16:57:57,325-15807057-INFO:Epoch 47 Training batch 40/125 sent 1280 to 1312 lr:3.0000e-05
2022-07-21 16:58:08,564-15818296-INFO:Epoch 47 Training batch 60/125 sent 1920 to 1952 lr:3.0000e-05
2022-07-21 16:59:28,930-15898662-INFO:Epoch 47 Training batch 80/125 sent 2560 to 2592 lr:3.0000e-05
2022-07-21 17:00:50,289-15980021-INFO:Epoch 47 Training batch 100/125 sent 3200 to 3232 lr:3.0000e-05
2022-07-21 17:01:01,994-15991726-INFO:Epoch 47 Training batch 120/125 sent 3840 to 3872 lr:3.0000e-05
2022-07-21 17:03:27,745-16137477-INFO:Epoch 48 Training batch 0/125 sent 0 to 32 lr:3.0000e-05
2022-07-21 17:03:39,239-16148971-INFO:Epoch 48 Training batch 20/125 sent 640 to 672 lr:3.0000e-05
2022-07-21 17:04:59,096-16228828-INFO:Epoch 48 Training batch 40/125 sent 1280 to 1312 lr:3.0000e-05
2022-07-21 17:05:10,650-16240382-INFO:Epoch 48 Training batch 60/125 sent 1920 to 1952 lr:3.0000e-05
2022-07-21 17:06:30,683-16320415-INFO:Epoch 48 Training batch 80/125 sent 2560 to 2592 lr:3.0000e-05
2022-07-21 17:07:50,774-16400506-INFO:Epoch 48 Training batch 100/125 sent 3200 to 3232 lr:3.0000e-05
2022-07-21 17:08:01,634-16411366-INFO:Epoch 48 Training batch 120/125 sent 3840 to 3872 lr:3.0000e-05
2022-07-21 17:13:03,939-16713671-INFO:Epoch 49 Training batch 0/125 sent 0 to 32 lr:3.0000e-05
2022-07-21 17:13:15,332-16725064-INFO:Epoch 49 Training batch 20/125 sent 640 to 672 lr:3.0000e-05
2022-07-21 17:14:36,181-16805913-INFO:Epoch 49 Training batch 40/125 sent 1280 to 1312 lr:3.0000e-05
2022-07-21 17:14:47,495-16817227-INFO:Epoch 49 Training batch 60/125 sent 1920 to 1952 lr:3.0000e-05
2022-07-21 17:16:07,042-16896774-INFO:Epoch 49 Training batch 80/125 sent 2560 to 2592 lr:3.0000e-05
2022-07-21 17:17:26,490-16976222-INFO:Epoch 49 Training batch 100/125 sent 3200 to 3232 lr:3.0000e-05
2022-07-21 17:17:37,882-16987615-INFO:Epoch 49 Training batch 120/125 sent 3840 to 3872 lr:3.0000e-05
2022-07-21 17:19:58,214-17127946-INFO:Epoch 50 Training batch 0/125 sent 0 to 32 lr:3.0000e-05
2022-07-21 17:20:09,902-17139634-INFO:Epoch 50 Training batch 20/125 sent 640 to 672 lr:3.0000e-05
2022-07-21 17:21:30,097-17219829-INFO:Epoch 50 Training batch 40/125 sent 1280 to 1312 lr:3.0000e-05
2022-07-21 17:21:41,019-17230752-INFO:Epoch 50 Training batch 60/125 sent 1920 to 1952 lr:3.0000e-05
2022-07-21 17:22:58,543-17308275-INFO:Epoch 50 Training batch 80/125 sent 2560 to 2592 lr:3.0000e-05
2022-07-21 17:24:16,930-17386662-INFO:Epoch 50 Training batch 100/125 sent 3200 to 3232 lr:3.0000e-05
2022-07-21 17:24:27,648-17397380-INFO:Epoch 50 Training batch 120/125 sent 3840 to 3872 lr:3.0000e-05
2022-07-21 17:28:38,315-17648047-INFO:Epoch 51 Training batch 0/125 sent 0 to 32 lr:3.0000e-05
2022-07-21 17:28:51,622-17661354-INFO:Epoch 51 Training batch 20/125 sent 640 to 672 lr:3.0000e-05
2022-07-21 17:30:10,580-17740312-INFO:Epoch 51 Training batch 40/125 sent 1280 to 1312 lr:3.0000e-05
2022-07-21 17:30:22,314-17752047-INFO:Epoch 51 Training batch 60/125 sent 1920 to 1952 lr:3.0000e-05
2022-07-21 17:31:40,840-17830572-INFO:Epoch 51 Training batch 80/125 sent 2560 to 2592 lr:3.0000e-05
2022-07-21 17:32:59,009-17908742-INFO:Epoch 51 Training batch 100/125 sent 3200 to 3232 lr:3.0000e-05
2022-07-21 17:33:10,216-17919948-INFO:Epoch 51 Training batch 120/125 sent 3840 to 3872 lr:3.0000e-05
2022-07-21 17:35:29,471-18059204-INFO:Epoch 52 Training batch 0/125 sent 0 to 32 lr:3.0000e-05
2022-07-21 17:35:40,571-18070303-INFO:Epoch 52 Training batch 20/125 sent 640 to 672 lr:3.0000e-05
2022-07-21 17:37:00,646-18150379-INFO:Epoch 52 Training batch 40/125 sent 1280 to 1312 lr:3.0000e-05
2022-07-21 17:37:11,873-18161605-INFO:Epoch 52 Training batch 60/125 sent 1920 to 1952 lr:3.0000e-05
2022-07-21 17:38:32,085-18241818-INFO:Epoch 52 Training batch 80/125 sent 2560 to 2592 lr:3.0000e-05
2022-07-21 17:39:50,458-18320190-INFO:Epoch 52 Training batch 100/125 sent 3200 to 3232 lr:3.0000e-05
2022-07-21 17:40:01,682-18331414-INFO:Epoch 52 Training batch 120/125 sent 3840 to 3872 lr:3.0000e-05
2022-07-21 17:42:20,692-18470424-INFO:Epoch 53 Training batch 0/125 sent 0 to 32 lr:3.0000e-05
2022-07-21 17:42:32,287-18482020-INFO:Epoch 53 Training batch 20/125 sent 640 to 672 lr:3.0000e-05
2022-07-21 17:43:52,030-18561762-INFO:Epoch 53 Training batch 40/125 sent 1280 to 1312 lr:3.0000e-05
2022-07-21 17:44:03,427-18573159-INFO:Epoch 53 Training batch 60/125 sent 1920 to 1952 lr:3.0000e-05
2022-07-21 17:45:25,393-18655125-INFO:Epoch 53 Training batch 80/125 sent 2560 to 2592 lr:3.0000e-05
2022-07-21 17:46:44,574-18734306-INFO:Epoch 53 Training batch 100/125 sent 3200 to 3232 lr:3.0000e-05
2022-07-21 17:46:56,118-18745850-INFO:Epoch 53 Training batch 120/125 sent 3840 to 3872 lr:3.0000e-05
2022-07-21 17:49:15,856-18885589-INFO:Epoch 54 Training batch 0/125 sent 0 to 32 lr:3.0000e-05
2022-07-21 17:49:27,095-18896828-INFO:Epoch 54 Training batch 20/125 sent 640 to 672 lr:3.0000e-05
2022-07-21 17:50:47,908-18977640-INFO:Epoch 54 Training batch 40/125 sent 1280 to 1312 lr:3.0000e-05
2022-07-21 17:50:59,230-18988962-INFO:Epoch 54 Training batch 60/125 sent 1920 to 1952 lr:3.0000e-05
2022-07-21 17:52:20,456-19070188-INFO:Epoch 54 Training batch 80/125 sent 2560 to 2592 lr:3.0000e-05
2022-07-21 17:53:40,070-19149803-INFO:Epoch 54 Training batch 100/125 sent 3200 to 3232 lr:3.0000e-05
2022-07-21 17:53:51,097-19160830-INFO:Epoch 54 Training batch 120/125 sent 3840 to 3872 lr:3.0000e-05
2022-07-21 17:56:11,770-19301502-INFO:Epoch 55 Training batch 0/125 sent 0 to 32 lr:1.5000e-05
2022-07-21 17:56:22,900-19312632-INFO:Epoch 55 Training batch 20/125 sent 640 to 672 lr:1.5000e-05
2022-07-21 17:57:45,138-19394870-INFO:Epoch 55 Training batch 40/125 sent 1280 to 1312 lr:1.5000e-05
2022-07-21 17:57:56,488-19406220-INFO:Epoch 55 Training batch 60/125 sent 1920 to 1952 lr:1.5000e-05
2022-07-21 17:59:17,075-19486807-INFO:Epoch 55 Training batch 80/125 sent 2560 to 2592 lr:1.5000e-05
2022-07-21 18:00:38,741-19568473-INFO:Epoch 55 Training batch 100/125 sent 3200 to 3232 lr:1.5000e-05
2022-07-21 18:00:49,961-19579693-INFO:Epoch 55 Training batch 120/125 sent 3840 to 3872 lr:1.5000e-05
2022-07-21 18:03:13,438-19723170-INFO:Epoch 56 Training batch 0/125 sent 0 to 32 lr:1.5000e-05
2022-07-21 18:03:24,406-19734138-INFO:Epoch 56 Training batch 20/125 sent 640 to 672 lr:1.5000e-05
2022-07-21 18:04:44,085-19813818-INFO:Epoch 56 Training batch 40/125 sent 1280 to 1312 lr:1.5000e-05
2022-07-21 18:04:55,705-19825438-INFO:Epoch 56 Training batch 60/125 sent 1920 to 1952 lr:1.5000e-05
2022-07-21 18:06:14,882-19904615-INFO:Epoch 56 Training batch 80/125 sent 2560 to 2592 lr:1.5000e-05
2022-07-21 18:07:34,797-19984529-INFO:Epoch 56 Training batch 100/125 sent 3200 to 3232 lr:1.5000e-05
2022-07-21 18:07:46,133-19995865-INFO:Epoch 56 Training batch 120/125 sent 3840 to 3872 lr:1.5000e-05
2022-07-21 18:10:04,741-20134474-INFO:Epoch 57 Training batch 0/125 sent 0 to 32 lr:1.5000e-05
2022-07-21 18:10:16,334-20146066-INFO:Epoch 57 Training batch 20/125 sent 640 to 672 lr:1.5000e-05
2022-07-21 18:11:34,303-20224035-INFO:Epoch 57 Training batch 40/125 sent 1280 to 1312 lr:1.5000e-05
2022-07-21 18:11:45,422-20235154-INFO:Epoch 57 Training batch 60/125 sent 1920 to 1952 lr:1.5000e-05
2022-07-21 18:13:05,618-20315351-INFO:Epoch 57 Training batch 80/125 sent 2560 to 2592 lr:1.5000e-05
2022-07-21 18:14:26,495-20396227-INFO:Epoch 57 Training batch 100/125 sent 3200 to 3232 lr:1.5000e-05
2022-07-21 18:14:37,877-20407609-INFO:Epoch 57 Training batch 120/125 sent 3840 to 3872 lr:1.5000e-05
2022-07-21 18:16:55,374-20545106-INFO:Epoch 58 Training batch 0/125 sent 0 to 32 lr:1.5000e-05
2022-07-21 18:17:06,635-20556368-INFO:Epoch 58 Training batch 20/125 sent 640 to 672 lr:1.5000e-05
2022-07-21 18:18:24,722-20634454-INFO:Epoch 58 Training batch 40/125 sent 1280 to 1312 lr:1.5000e-05
2022-07-21 18:18:36,072-20645804-INFO:Epoch 58 Training batch 60/125 sent 1920 to 1952 lr:1.5000e-05
2022-07-21 18:19:55,174-20724906-INFO:Epoch 58 Training batch 80/125 sent 2560 to 2592 lr:1.5000e-05
2022-07-21 18:21:13,662-20803394-INFO:Epoch 58 Training batch 100/125 sent 3200 to 3232 lr:1.5000e-05
2022-07-21 18:21:24,712-20814444-INFO:Epoch 58 Training batch 120/125 sent 3840 to 3872 lr:1.5000e-05
2022-07-21 18:23:40,863-20950595-INFO:Epoch 59 Training batch 0/125 sent 0 to 32 lr:7.5000e-06
2022-07-21 18:23:52,412-20962144-INFO:Epoch 59 Training batch 20/125 sent 640 to 672 lr:7.5000e-06
2022-07-21 18:25:09,482-21039214-INFO:Epoch 59 Training batch 40/125 sent 1280 to 1312 lr:7.5000e-06
2022-07-21 18:25:20,798-21050530-INFO:Epoch 59 Training batch 60/125 sent 1920 to 1952 lr:7.5000e-06
2022-07-21 18:26:39,007-21128740-INFO:Epoch 59 Training batch 80/125 sent 2560 to 2592 lr:7.5000e-06
2022-07-21 18:27:56,895-21206627-INFO:Epoch 59 Training batch 100/125 sent 3200 to 3232 lr:7.5000e-06
2022-07-21 18:28:08,120-21217853-INFO:Epoch 59 Training batch 120/125 sent 3840 to 3872 lr:7.5000e-06
2022-07-21 18:30:26,778-21356511-INFO:Epoch 60 Training batch 0/125 sent 0 to 32 lr:7.5000e-06
2022-07-21 18:30:38,285-21368017-INFO:Epoch 60 Training batch 20/125 sent 640 to 672 lr:7.5000e-06
2022-07-21 18:31:56,845-21446577-INFO:Epoch 60 Training batch 40/125 sent 1280 to 1312 lr:7.5000e-06
2022-07-21 18:32:08,580-21458312-INFO:Epoch 60 Training batch 60/125 sent 1920 to 1952 lr:7.5000e-06
2022-07-21 18:33:28,064-21537797-INFO:Epoch 60 Training batch 80/125 sent 2560 to 2592 lr:7.5000e-06
2022-07-21 18:34:48,577-21618309-INFO:Epoch 60 Training batch 100/125 sent 3200 to 3232 lr:7.5000e-06
2022-07-21 18:34:59,757-21629489-INFO:Epoch 60 Training batch 120/125 sent 3840 to 3872 lr:7.5000e-06
2022-07-21 18:37:18,730-21768462-INFO:Epoch 61 Training batch 0/125 sent 0 to 32 lr:7.5000e-06
2022-07-21 18:37:29,901-21779633-INFO:Epoch 61 Training batch 20/125 sent 640 to 672 lr:7.5000e-06
2022-07-21 18:38:48,191-21857923-INFO:Epoch 61 Training batch 40/125 sent 1280 to 1312 lr:7.5000e-06
2022-07-21 18:38:59,397-21869129-INFO:Epoch 61 Training batch 60/125 sent 1920 to 1952 lr:7.5000e-06
2022-07-21 18:40:17,005-21946737-INFO:Epoch 61 Training batch 80/125 sent 2560 to 2592 lr:7.5000e-06
2022-07-21 18:41:34,923-22024655-INFO:Epoch 61 Training batch 100/125 sent 3200 to 3232 lr:7.5000e-06
2022-07-21 18:41:46,200-22035932-INFO:Epoch 61 Training batch 120/125 sent 3840 to 3872 lr:7.5000e-06
2022-07-21 18:44:02,778-22172510-INFO:Epoch 62 Training batch 0/125 sent 0 to 32 lr:7.5000e-06
2022-07-21 18:44:14,340-22184072-INFO:Epoch 62 Training batch 20/125 sent 640 to 672 lr:7.5000e-06
2022-07-21 18:45:33,153-22262885-INFO:Epoch 62 Training batch 40/125 sent 1280 to 1312 lr:7.5000e-06
2022-07-21 18:45:44,056-22273789-INFO:Epoch 62 Training batch 60/125 sent 1920 to 1952 lr:7.5000e-06
2022-07-21 18:47:03,544-22353276-INFO:Epoch 62 Training batch 80/125 sent 2560 to 2592 lr:7.5000e-06
2022-07-21 18:48:22,869-22432601-INFO:Epoch 62 Training batch 100/125 sent 3200 to 3232 lr:7.5000e-06
2022-07-21 18:48:34,288-22444020-INFO:Epoch 62 Training batch 120/125 sent 3840 to 3872 lr:7.5000e-06
2022-07-21 18:50:56,028-22585761-INFO:Epoch 63 Training batch 0/125 sent 0 to 32 lr:3.7500e-06
2022-07-21 18:51:07,167-22596899-INFO:Epoch 63 Training batch 20/125 sent 640 to 672 lr:3.7500e-06
2022-07-21 18:52:26,904-22676637-INFO:Epoch 63 Training batch 40/125 sent 1280 to 1312 lr:3.7500e-06
2022-07-21 18:52:38,272-22688004-INFO:Epoch 63 Training batch 60/125 sent 1920 to 1952 lr:3.7500e-06
2022-07-21 18:53:59,322-22769054-INFO:Epoch 63 Training batch 80/125 sent 2560 to 2592 lr:3.7500e-06
2022-07-21 18:55:17,889-22847621-INFO:Epoch 63 Training batch 100/125 sent 3200 to 3232 lr:3.7500e-06
2022-07-21 18:55:29,105-22858837-INFO:Epoch 63 Training batch 120/125 sent 3840 to 3872 lr:3.7500e-06
2022-07-21 18:59:00,826-23070558-INFO:Epoch 64 Training batch 0/125 sent 0 to 32 lr:3.7500e-06
2022-07-21 18:59:12,206-23081938-INFO:Epoch 64 Training batch 20/125 sent 640 to 672 lr:3.7500e-06
2022-07-21 19:00:30,871-23160603-INFO:Epoch 64 Training batch 40/125 sent 1280 to 1312 lr:3.7500e-06
2022-07-21 19:00:41,800-23171533-INFO:Epoch 64 Training batch 60/125 sent 1920 to 1952 lr:3.7500e-06
2022-07-21 19:02:00,371-23250104-INFO:Epoch 64 Training batch 80/125 sent 2560 to 2592 lr:3.7500e-06
2022-07-21 19:03:20,108-23329840-INFO:Epoch 64 Training batch 100/125 sent 3200 to 3232 lr:3.7500e-06
2022-07-21 19:03:31,346-23341078-INFO:Epoch 64 Training batch 120/125 sent 3840 to 3872 lr:3.7500e-06
2022-07-21 19:05:48,916-23478648-INFO:Epoch 65 Training batch 0/125 sent 0 to 32 lr:3.7500e-06
2022-07-21 19:05:59,941-23489673-INFO:Epoch 65 Training batch 20/125 sent 640 to 672 lr:3.7500e-06
2022-07-21 19:07:17,777-23567509-INFO:Epoch 65 Training batch 40/125 sent 1280 to 1312 lr:3.7500e-06
2022-07-21 19:07:29,224-23578957-INFO:Epoch 65 Training batch 60/125 sent 1920 to 1952 lr:3.7500e-06
2022-07-21 19:08:45,287-23655020-INFO:Epoch 65 Training batch 80/125 sent 2560 to 2592 lr:3.7500e-06
2022-07-21 19:10:03,250-23732982-INFO:Epoch 65 Training batch 100/125 sent 3200 to 3232 lr:3.7500e-06
2022-07-21 19:10:14,411-23744144-INFO:Epoch 65 Training batch 120/125 sent 3840 to 3872 lr:3.7500e-06
2022-07-21 19:12:28,620-23878352-INFO:Epoch 66 Training batch 0/125 sent 0 to 32 lr:3.7500e-06
2022-07-21 19:12:39,498-23889230-INFO:Epoch 66 Training batch 20/125 sent 640 to 672 lr:3.7500e-06
2022-07-21 19:13:55,484-23965216-INFO:Epoch 66 Training batch 40/125 sent 1280 to 1312 lr:3.7500e-06
2022-07-21 19:14:06,448-23976181-INFO:Epoch 66 Training batch 60/125 sent 1920 to 1952 lr:3.7500e-06
2022-07-21 19:15:24,041-24053773-INFO:Epoch 66 Training batch 80/125 sent 2560 to 2592 lr:3.7500e-06
2022-07-21 19:16:40,891-24130623-INFO:Epoch 66 Training batch 100/125 sent 3200 to 3232 lr:3.7500e-06
2022-07-21 19:16:52,614-24142347-INFO:Epoch 66 Training batch 120/125 sent 3840 to 3872 lr:3.7500e-06
2022-07-21 19:20:50,016-24379748-INFO:Epoch 67 Training batch 0/125 sent 0 to 32 lr:3.7500e-06
2022-07-21 19:21:01,569-24391302-INFO:Epoch 67 Training batch 20/125 sent 640 to 672 lr:3.7500e-06
2022-07-21 19:22:21,224-24470956-INFO:Epoch 67 Training batch 40/125 sent 1280 to 1312 lr:3.7500e-06
2022-07-21 19:22:32,123-24481855-INFO:Epoch 67 Training batch 60/125 sent 1920 to 1952 lr:3.7500e-06
2022-07-21 19:23:52,672-24562404-INFO:Epoch 67 Training batch 80/125 sent 2560 to 2592 lr:3.7500e-06
2022-07-21 19:25:12,418-24642150-INFO:Epoch 67 Training batch 100/125 sent 3200 to 3232 lr:3.7500e-06
2022-07-21 19:25:23,773-24653505-INFO:Epoch 67 Training batch 120/125 sent 3840 to 3872 lr:3.7500e-06
2022-07-21 19:28:33,876-24843608-INFO:Epoch 68 Training batch 0/125 sent 0 to 32 lr:3.7500e-06
2022-07-21 19:28:44,742-24854475-INFO:Epoch 68 Training batch 20/125 sent 640 to 672 lr:3.7500e-06
2022-07-21 19:30:02,349-24932082-INFO:Epoch 68 Training batch 40/125 sent 1280 to 1312 lr:3.7500e-06
2022-07-21 19:30:13,597-24943329-INFO:Epoch 68 Training batch 60/125 sent 1920 to 1952 lr:3.7500e-06
2022-07-21 19:31:31,934-25021666-INFO:Epoch 68 Training batch 80/125 sent 2560 to 2592 lr:3.7500e-06
2022-07-21 19:32:50,068-25099800-INFO:Epoch 68 Training batch 100/125 sent 3200 to 3232 lr:3.7500e-06
2022-07-21 19:33:01,061-25110793-INFO:Epoch 68 Training batch 120/125 sent 3840 to 3872 lr:3.7500e-06
2022-07-21 19:35:18,909-25248641-INFO:Epoch 69 Training batch 0/125 sent 0 to 32 lr:3.7500e-06
2022-07-21 19:35:30,400-25260132-INFO:Epoch 69 Training batch 20/125 sent 640 to 672 lr:3.7500e-06
2022-07-21 19:36:47,894-25337626-INFO:Epoch 69 Training batch 40/125 sent 1280 to 1312 lr:3.7500e-06
2022-07-21 19:36:59,152-25348884-INFO:Epoch 69 Training batch 60/125 sent 1920 to 1952 lr:3.7500e-06
2022-07-21 19:38:17,387-25427119-INFO:Epoch 69 Training batch 80/125 sent 2560 to 2592 lr:3.7500e-06
2022-07-21 19:39:34,783-25504515-INFO:Epoch 69 Training batch 100/125 sent 3200 to 3232 lr:3.7500e-06
2022-07-21 19:39:45,727-25515459-INFO:Epoch 69 Training batch 120/125 sent 3840 to 3872 lr:3.7500e-06
2022-07-21 19:43:07,162-25716894-INFO:Epoch 70 Training batch 0/125 sent 0 to 32 lr:3.7500e-06
2022-07-21 19:43:18,422-25728154-INFO:Epoch 70 Training batch 20/125 sent 640 to 672 lr:3.7500e-06
2022-07-21 19:44:36,292-25806024-INFO:Epoch 70 Training batch 40/125 sent 1280 to 1312 lr:3.7500e-06
2022-07-21 19:44:47,395-25817127-INFO:Epoch 70 Training batch 60/125 sent 1920 to 1952 lr:3.7500e-06
2022-07-21 19:46:04,102-25893834-INFO:Epoch 70 Training batch 80/125 sent 2560 to 2592 lr:3.7500e-06
2022-07-21 19:47:22,065-25971797-INFO:Epoch 70 Training batch 100/125 sent 3200 to 3232 lr:3.7500e-06
2022-07-21 19:47:33,339-25983071-INFO:Epoch 70 Training batch 120/125 sent 3840 to 3872 lr:3.7500e-06
2022-07-21 19:50:45,704-26175436-INFO:Epoch 71 Training batch 0/125 sent 0 to 32 lr:3.7500e-06
2022-07-21 19:50:57,010-26186742-INFO:Epoch 71 Training batch 20/125 sent 640 to 672 lr:3.7500e-06
2022-07-21 19:52:14,339-26264072-INFO:Epoch 71 Training batch 40/125 sent 1280 to 1312 lr:3.7500e-06
2022-07-21 19:52:25,758-26275490-INFO:Epoch 71 Training batch 60/125 sent 1920 to 1952 lr:3.7500e-06
2022-07-21 19:53:44,365-26354098-INFO:Epoch 71 Training batch 80/125 sent 2560 to 2592 lr:3.7500e-06
2022-07-21 19:55:02,968-26432700-INFO:Epoch 71 Training batch 100/125 sent 3200 to 3232 lr:3.7500e-06
2022-07-21 19:55:14,305-26444037-INFO:Epoch 71 Training batch 120/125 sent 3840 to 3872 lr:3.7500e-06
2022-07-21 19:57:29,806-26579539-INFO:Epoch 72 Training batch 0/125 sent 0 to 32 lr:3.7500e-06
2022-07-21 19:57:40,998-26590730-INFO:Epoch 72 Training batch 20/125 sent 640 to 672 lr:3.7500e-06
2022-07-21 19:58:57,600-26667333-INFO:Epoch 72 Training batch 40/125 sent 1280 to 1312 lr:3.7500e-06
2022-07-21 19:59:08,605-26678337-INFO:Epoch 72 Training batch 60/125 sent 1920 to 1952 lr:3.7500e-06
2022-07-21 20:00:24,688-26754420-INFO:Epoch 72 Training batch 80/125 sent 2560 to 2592 lr:3.7500e-06
2022-07-21 20:01:41,032-26830764-INFO:Epoch 72 Training batch 100/125 sent 3200 to 3232 lr:3.7500e-06
2022-07-21 20:01:52,230-26841962-INFO:Epoch 72 Training batch 120/125 sent 3840 to 3872 lr:3.7500e-06
2022-07-21 20:04:08,532-26978264-INFO:Epoch 73 Training batch 0/125 sent 0 to 32 lr:3.7500e-06
2022-07-21 20:04:19,853-26989585-INFO:Epoch 73 Training batch 20/125 sent 640 to 672 lr:3.7500e-06
2022-07-21 20:05:37,069-27066801-INFO:Epoch 73 Training batch 40/125 sent 1280 to 1312 lr:3.7500e-06
2022-07-21 20:05:48,130-27077863-INFO:Epoch 73 Training batch 60/125 sent 1920 to 1952 lr:3.7500e-06
2022-07-21 20:07:06,107-27155840-INFO:Epoch 73 Training batch 80/125 sent 2560 to 2592 lr:3.7500e-06
2022-07-21 20:08:22,924-27232656-INFO:Epoch 73 Training batch 100/125 sent 3200 to 3232 lr:3.7500e-06
2022-07-21 20:08:34,459-27244192-INFO:Epoch 73 Training batch 120/125 sent 3840 to 3872 lr:3.7500e-06
2022-07-21 20:10:50,537-27380269-INFO:Epoch 74 Training batch 0/125 sent 0 to 32 lr:3.7500e-06
2022-07-21 20:11:01,962-27391694-INFO:Epoch 74 Training batch 20/125 sent 640 to 672 lr:3.7500e-06
2022-07-21 20:12:21,136-27470868-INFO:Epoch 74 Training batch 40/125 sent 1280 to 1312 lr:3.7500e-06
2022-07-21 20:12:32,525-27482257-INFO:Epoch 74 Training batch 60/125 sent 1920 to 1952 lr:3.7500e-06
2022-07-21 20:13:52,273-27562005-INFO:Epoch 74 Training batch 80/125 sent 2560 to 2592 lr:3.7500e-06
2022-07-21 20:15:11,340-27641072-INFO:Epoch 74 Training batch 100/125 sent 3200 to 3232 lr:3.7500e-06
2022-07-21 20:15:22,400-27652132-INFO:Epoch 74 Training batch 120/125 sent 3840 to 3872 lr:3.7500e-06
2022-07-21 20:17:38,919-27788651-INFO:Epoch 75 Training batch 0/125 sent 0 to 32 lr:1.8750e-06
2022-07-21 20:17:49,946-27799678-INFO:Epoch 75 Training batch 20/125 sent 640 to 672 lr:1.8750e-06
2022-07-21 20:19:08,286-27878018-INFO:Epoch 75 Training batch 40/125 sent 1280 to 1312 lr:1.8750e-06
2022-07-21 20:19:19,579-27889311-INFO:Epoch 75 Training batch 60/125 sent 1920 to 1952 lr:1.8750e-06
2022-07-21 20:20:37,334-27967066-INFO:Epoch 75 Training batch 80/125 sent 2560 to 2592 lr:1.8750e-06
2022-07-21 20:21:55,168-28044900-INFO:Epoch 75 Training batch 100/125 sent 3200 to 3232 lr:1.8750e-06
2022-07-21 20:22:06,501-28056233-INFO:Epoch 75 Training batch 120/125 sent 3840 to 3872 lr:1.8750e-06
2022-07-21 20:24:23,329-28193061-INFO:Epoch 76 Training batch 0/125 sent 0 to 32 lr:1.8750e-06
2022-07-21 20:24:34,919-28204651-INFO:Epoch 76 Training batch 20/125 sent 640 to 672 lr:1.8750e-06
2022-07-21 20:25:53,057-28282789-INFO:Epoch 76 Training batch 40/125 sent 1280 to 1312 lr:1.8750e-06
2022-07-21 20:26:04,258-28293990-INFO:Epoch 76 Training batch 60/125 sent 1920 to 1952 lr:1.8750e-06
2022-07-21 20:27:22,867-28372599-INFO:Epoch 76 Training batch 80/125 sent 2560 to 2592 lr:1.8750e-06
2022-07-21 20:28:40,805-28450537-INFO:Epoch 76 Training batch 100/125 sent 3200 to 3232 lr:1.8750e-06
2022-07-21 20:28:51,748-28461480-INFO:Epoch 76 Training batch 120/125 sent 3840 to 3872 lr:1.8750e-06
2022-07-21 20:31:10,149-28599881-INFO:Epoch 77 Training batch 0/125 sent 0 to 32 lr:1.8750e-06
2022-07-21 20:31:21,271-28611003-INFO:Epoch 77 Training batch 20/125 sent 640 to 672 lr:1.8750e-06
2022-07-21 20:32:40,374-28690106-INFO:Epoch 77 Training batch 40/125 sent 1280 to 1312 lr:1.8750e-06
2022-07-21 20:32:51,430-28701162-INFO:Epoch 77 Training batch 60/125 sent 1920 to 1952 lr:1.8750e-06
2022-07-21 20:34:09,728-28779460-INFO:Epoch 77 Training batch 80/125 sent 2560 to 2592 lr:1.8750e-06
2022-07-21 20:35:26,938-28856671-INFO:Epoch 77 Training batch 100/125 sent 3200 to 3232 lr:1.8750e-06
2022-07-21 20:35:38,110-28867842-INFO:Epoch 77 Training batch 120/125 sent 3840 to 3872 lr:1.8750e-06
2022-07-21 20:37:55,043-29004775-INFO:Epoch 78 Training batch 0/125 sent 0 to 32 lr:1.8750e-06
2022-07-21 20:38:06,352-29016084-INFO:Epoch 78 Training batch 20/125 sent 640 to 672 lr:1.8750e-06
2022-07-21 20:39:24,474-29094206-INFO:Epoch 78 Training batch 40/125 sent 1280 to 1312 lr:1.8750e-06
2022-07-21 20:39:35,713-29105446-INFO:Epoch 78 Training batch 60/125 sent 1920 to 1952 lr:1.8750e-06
2022-07-21 20:40:53,354-29183087-INFO:Epoch 78 Training batch 80/125 sent 2560 to 2592 lr:1.8750e-06
2022-07-21 20:42:11,229-29260962-INFO:Epoch 78 Training batch 100/125 sent 3200 to 3232 lr:1.8750e-06
2022-07-21 20:42:22,362-29272094-INFO:Epoch 78 Training batch 120/125 sent 3840 to 3872 lr:1.8750e-06
2022-07-21 20:44:38,841-29408573-INFO:Epoch 79 Training batch 0/125 sent 0 to 32 lr:9.3750e-07
2022-07-21 20:44:50,051-29419784-INFO:Epoch 79 Training batch 20/125 sent 640 to 672 lr:9.3750e-07
2022-07-21 20:46:10,266-29499998-INFO:Epoch 79 Training batch 40/125 sent 1280 to 1312 lr:9.3750e-07
2022-07-21 20:46:22,033-29511766-INFO:Epoch 79 Training batch 60/125 sent 1920 to 1952 lr:9.3750e-07
2022-07-21 20:47:41,890-29591623-INFO:Epoch 79 Training batch 80/125 sent 2560 to 2592 lr:9.3750e-07
2022-07-21 20:49:01,561-29671293-INFO:Epoch 79 Training batch 100/125 sent 3200 to 3232 lr:9.3750e-07
2022-07-21 20:49:12,719-29682451-INFO:Epoch 79 Training batch 120/125 sent 3840 to 3872 lr:9.3750e-07
2022-07-21 20:51:28,924-29818657-INFO:Epoch 80 Training batch 0/125 sent 0 to 32 lr:9.3750e-07
2022-07-21 20:51:40,349-29830082-INFO:Epoch 80 Training batch 20/125 sent 640 to 672 lr:9.3750e-07
2022-07-21 20:52:57,761-29907493-INFO:Epoch 80 Training batch 40/125 sent 1280 to 1312 lr:9.3750e-07
2022-07-21 20:53:09,157-29918889-INFO:Epoch 80 Training batch 60/125 sent 1920 to 1952 lr:9.3750e-07
2022-07-21 20:54:28,757-29998489-INFO:Epoch 80 Training batch 80/125 sent 2560 to 2592 lr:9.3750e-07
2022-07-21 20:55:46,324-30076056-INFO:Epoch 80 Training batch 100/125 sent 3200 to 3232 lr:9.3750e-07
2022-07-21 20:55:57,683-30087415-INFO:Epoch 80 Training batch 120/125 sent 3840 to 3872 lr:9.3750e-07
2022-07-21 20:58:13,043-30222775-INFO:Epoch 81 Training batch 0/125 sent 0 to 32 lr:9.3750e-07
2022-07-21 20:58:24,448-30234180-INFO:Epoch 81 Training batch 20/125 sent 640 to 672 lr:9.3750e-07
2022-07-21 20:59:41,599-30311331-INFO:Epoch 81 Training batch 40/125 sent 1280 to 1312 lr:9.3750e-07
2022-07-21 20:59:52,835-30322567-INFO:Epoch 81 Training batch 60/125 sent 1920 to 1952 lr:9.3750e-07
2022-07-21 21:01:10,792-30400524-INFO:Epoch 81 Training batch 80/125 sent 2560 to 2592 lr:9.3750e-07
2022-07-21 21:02:27,869-30477601-INFO:Epoch 81 Training batch 100/125 sent 3200 to 3232 lr:9.3750e-07
2022-07-21 21:02:39,323-30489055-INFO:Epoch 81 Training batch 120/125 sent 3840 to 3872 lr:9.3750e-07
2022-07-21 21:04:57,764-30627496-INFO:Epoch 82 Training batch 0/125 sent 0 to 32 lr:9.3750e-07
2022-07-21 21:05:09,056-30638789-INFO:Epoch 82 Training batch 20/125 sent 640 to 672 lr:9.3750e-07
2022-07-21 21:06:27,527-30717259-INFO:Epoch 82 Training batch 40/125 sent 1280 to 1312 lr:9.3750e-07
2022-07-21 21:06:38,606-30728338-INFO:Epoch 82 Training batch 60/125 sent 1920 to 1952 lr:9.3750e-07
2022-07-21 21:07:56,791-30806523-INFO:Epoch 82 Training batch 80/125 sent 2560 to 2592 lr:9.3750e-07
2022-07-21 21:09:15,438-30885170-INFO:Epoch 82 Training batch 100/125 sent 3200 to 3232 lr:9.3750e-07
2022-07-21 21:09:26,575-30896307-INFO:Epoch 82 Training batch 120/125 sent 3840 to 3872 lr:9.3750e-07
2022-07-21 21:11:42,258-31031990-INFO:Epoch 83 Training batch 0/125 sent 0 to 32 lr:4.6875e-07
2022-07-21 21:11:53,361-31043094-INFO:Epoch 83 Training batch 20/125 sent 640 to 672 lr:4.6875e-07
2022-07-21 21:13:12,111-31121844-INFO:Epoch 83 Training batch 40/125 sent 1280 to 1312 lr:4.6875e-07
2022-07-21 21:13:23,597-31133329-INFO:Epoch 83 Training batch 60/125 sent 1920 to 1952 lr:4.6875e-07
2022-07-21 21:14:41,950-31211682-INFO:Epoch 83 Training batch 80/125 sent 2560 to 2592 lr:4.6875e-07
2022-07-21 21:15:59,387-31289120-INFO:Epoch 83 Training batch 100/125 sent 3200 to 3232 lr:4.6875e-07
2022-07-21 21:16:10,374-31300106-INFO:Epoch 83 Training batch 120/125 sent 3840 to 3872 lr:4.6875e-07
