mode train
model /home/getalp/lumbantn/stage/results/dptb-NPaug-p100-12.7.22/model
train ../../all_disco_data_discbracket/dptb_aug/aug_NP_disco-only_train.discbracket
dev ../../all_disco_data_discbracket/dptb/dev.discbracket
fmt discbracket
gpu 0
t 1
S None
v 1
projective False
enc lstm
spmrl False
collins False
i 1000
l 0.0015
m 0
d 1e-07
I 0.01
G None
B 8
eval_batchsize 30
O adam
start_averaging 40
s 10
patience 5
check 4
dcu 0.2
diff 0.3
dwu 0.2
H 250
C 256
c 64
w 300
ft None
freeze_ft False
fun tanh
feats tacl
bert False
init_bert False
bert_id bert-base-cased
no_char False
no_word False
parsed None
parsed_batchsize 300
parsed_epochs 1
parsed_lr 0.0001
load_pretrained None
lstm_dim 400
lstm_layers 2
lstm_residual_connection True
lstm_layer_norm 001
trans_dmodel 1024
trans_n_heads 8
trans_n_layers 8
trans_ff_hidden_dim 2048
trans_query_dim 64
trans_value_dim 64
trans_att_dropout 0.2
trans_ff_dropout 0.1
trans_residual_att_dropout 0.2
trans_residual_ff_dropout 0.1
trans_att_proj_bias False
trans_shared_dropout False
trans_no_norm_input True
trans_no_pre_ln True
trans_no_position_embs True
trans_position_concat False
trans_position_max 300
trans_position_dropout 0.0
Training sentences: 79664
Additional non-gold training sentences: 0
Dev set sentences: 1700
warmup steps: 9958
Epoch 1.4 lr:1.5000e-03 dev: df=61.56 dp=63.86 dr=59.42 f=86.63 p=86.33 r=86.94 tag=96.73 train: df=76.85 dp=84.06 dr=70.78 f=88.22 p=88.18 r=88.27 tag=97.89 best: 0 ep 0 avg=0
Epoch 1 tag:3116.1618 str:1718.9924 lab:2812.5705 gn:0.0000
Epoch 2.4 lr:1.5000e-03 dev: df=70.06 dp=74.19 dr=66.37 f=89.43 p=89.41 r=89.44 tag=97.19 train: df=86.78 dp=87.64 dr=85.93 f=93.63 p=93.45 r=93.82 tag=98.81 best: 86.63 ep 1 avg=0
Epoch 2 tag:681.5629 str:619.2224 lab:753.5304 gn:0.0000
Epoch 3.4 lr:1.5000e-03 dev: df=66.82 dp=70.85 dr=63.23 f=89.17 p=89.15 r=89.18 tag=96.87 train: df=91.13 dp=92.24 dr=90.04 f=95.99 p=96.02 r=95.97 tag=99.12 best: 89.43 ep 2 avg=0
Epoch 3 tag:497.2532 str:403.4909 lab:491.1326 gn:0.0000
Epoch 4.4 lr:1.5000e-03 dev: df=68.06 dp=70.6 dr=65.7 f=88.92 p=88.45 r=89.39 tag=97.11 train: df=93.52 dp=93.32 dr=93.72 f=97.16 p=97.03 r=97.29 tag=99.4 best: 89.43 ep 2 avg=0
Epoch 4 tag:399.5864 str:307.1589 lab:382.0878 gn:0.0000
Epoch 5.4 lr:1.5000e-03 dev: df=65.08 dp=65.83 dr=64.35 f=89.55 p=89.27 r=89.83 tag=97.01 train: df=96.99 dp=96.37 dr=97.62 f=98.39 p=98.34 r=98.44 tag=99.48 best: 89.43 ep 2 avg=0
Epoch 5 tag:340.7797 str:255.7905 lab:320.0282 gn:0.0000
Epoch 6.4 lr:1.5000e-03 dev: df=66.82 dp=70.57 dr=63.45 f=89.07 p=88.97 r=89.18 tag=96.82 train: df=94.13 dp=92.84 dr=95.45 f=97.75 p=97.76 r=97.74 tag=99.55 best: 89.55 ep 5 avg=0
Epoch 6 tag:298.7769 str:225.6636 lab:282.6938 gn:0.0000
Epoch 7.4 lr:1.5000e-03 dev: df=70.69 dp=74.75 dr=67.04 f=89.33 p=88.59 r=90.09 tag=96.85 train: df=94.78 dp=95.2 dr=94.37 f=98.17 p=98.04 r=98.31 tag=99.66 best: 89.55 ep 5 avg=0
Epoch 7 tag:273.4579 str:202.8395 lab:256.1983 gn:0.0000
Epoch 8.4 lr:1.5000e-03 dev: df=70.36 dp=77.93 dr=64.13 f=88.96 p=88.88 r=89.03 tag=96.87 train: df=93.27 dp=95.06 dr=91.56 f=98.05 p=98.09 r=98.0 tag=99.65 best: 89.55 ep 5 avg=0
Epoch 8 tag:252.8777 str:190.8488 lab:239.9974 gn:0.0000
Epoch 9.4 lr:1.5000e-03 dev: df=69.22 dp=74.29 dr=64.8 f=89.36 p=89.04 r=89.69 tag=96.93 train: df=96.23 dp=95.72 dr=96.75 f=98.68 p=98.62 r=98.73 tag=99.64 best: 89.55 ep 5 avg=0
Epoch 9 tag:241.0340 str:181.8118 lab:229.8517 gn:0.0000
Epoch 10.4 lr:1.5000e-03 dev: df=67.13 dp=69.64 dr=64.8 f=89.19 p=88.95 r=89.43 tag=96.79 train: df=95.14 dp=95.03 dr=95.24 f=98.35 p=98.33 r=98.37 tag=99.69 best: 89.55 ep 5 avg=0
Epoch 10 tag:230.7245 str:175.1171 lab:222.0112 gn:0.0000
Epoch 11.4 lr:1.5000e-03 dev: df=64.54 dp=63.42 dr=65.7 f=88.82 p=88.45 r=89.19 tag=96.86 train: df=95.12 dp=95.23 dr=95.02 f=98.59 p=98.49 r=98.68 tag=99.73 best: 89.55 ep 5 avg=0
Epoch 11 tag:225.2021 str:171.9629 lab:217.1983 gn:0.0000
Epoch    10: reducing learning rate of group 0 to 7.5000e-04.
Epoch 12.4 lr:7.5000e-04 dev: df=67.22 dp=70.62 dr=64.13 f=89.87 p=89.88 r=89.85 tag=97.06 train: df=98.39 dp=97.86 dr=98.92 f=99.38 p=99.4 r=99.36 tag=99.84 best: 89.55 ep 5 avg=0
Epoch 12 tag:159.8142 str:112.5274 lab:144.2858 gn:0.0000
Epoch 13.4 lr:7.5000e-04 dev: df=66.12 dp=69.55 dr=63.0 f=89.66 p=89.13 r=90.2 tag=96.97 train: df=98.17 dp=97.64 dr=98.7 f=99.44 p=99.39 r=99.49 tag=99.87 best: 89.87 ep 12 avg=0
Epoch 13 tag:128.2365 str:79.7905 lab:106.5869 gn:0.0000
Epoch 14.4 lr:7.5000e-04 dev: df=67.46 dp=72.01 dr=63.45 f=89.68 p=89.41 r=89.96 tag=96.95 train: df=98.49 dp=98.28 dr=98.7 f=99.63 p=99.62 r=99.64 tag=99.87 best: 89.87 ep 12 avg=0
Epoch 14 tag:114.9582 str:69.4186 lab:94.0539 gn:0.0000
Epoch 15.4 lr:7.5000e-04 dev: df=69.69 dp=74.49 dr=65.47 f=89.62 p=89.57 r=89.67 tag=96.93 train: df=98.38 dp=98.27 dr=98.48 f=99.51 p=99.58 r=99.45 tag=99.89 best: 89.87 ep 12 avg=0
Epoch 15 tag:104.6362 str:64.6820 lab:87.1075 gn:0.0000
Epoch 16.4 lr:7.5000e-04 dev: df=66.98 dp=70.1 dr=64.13 f=89.32 p=89.04 r=89.6 tag=97.01 train: df=98.17 dp=97.64 dr=98.7 f=99.57 p=99.56 r=99.58 tag=99.89 best: 89.87 ep 12 avg=0
Epoch 16 tag:99.1421 str:60.4778 lab:82.9444 gn:0.0000
Epoch 17.4 lr:7.5000e-04 dev: df=65.24 dp=69.54 dr=61.43 f=89.44 p=89.24 r=89.64 tag=96.91 train: df=98.59 dp=98.7 dr=98.48 f=99.73 p=99.73 r=99.72 tag=99.92 best: 89.87 ep 12 avg=0
Epoch 17 tag:95.1096 str:58.2082 lab:78.2872 gn:0.0000
Epoch 18.4 lr:7.5000e-04 dev: df=68.6 dp=71.26 dr=66.14 f=89.54 p=89.37 r=89.71 tag=96.95 train: df=98.38 dp=98.06 dr=98.7 f=99.72 p=99.73 r=99.71 tag=99.91 best: 89.87 ep 12 avg=0
Epoch 18 tag:92.0733 str:56.4555 lab:76.4509 gn:0.0000
Epoch    17: reducing learning rate of group 0 to 3.7500e-04.
Epoch 19.4 lr:3.7500e-04 dev: df=67.99 dp=70.98 dr=65.25 f=89.74 p=89.37 r=90.11 tag=96.89 train: df=98.38 dp=98.27 dr=98.48 f=99.88 p=99.9 r=99.86 tag=99.95 best: 89.87 ep 12 avg=0
Epoch 19 tag:70.9245 str:38.7146 lab:54.4932 gn:0.0000
Epoch 20.4 lr:3.7500e-04 dev: df=68.01 dp=72.41 dr=64.13 f=89.81 p=89.46 r=90.16 tag=96.91 train: df=98.39 dp=97.86 dr=98.92 f=99.85 p=99.86 r=99.83 tag=99.95 best: 89.87 ep 12 avg=0
Epoch 20 tag:61.3554 str:27.9609 lab:42.0852 gn:0.0000
Epoch 21.4 lr:3.7500e-04 dev: df=67.2 dp=68.78 dr=65.7 f=89.72 p=89.29 r=90.16 tag=96.91 train: df=98.38 dp=98.06 dr=98.7 f=99.87 p=99.87 r=99.87 tag=99.95 best: 89.87 ep 12 avg=0
Epoch 21 tag:55.4854 str:24.5504 lab:37.7735 gn:0.0000
Epoch 22.4 lr:3.7500e-04 dev: df=69.98 dp=74.0 dr=66.37 f=89.56 p=89.11 r=90.02 tag=96.92 train: df=98.16 dp=98.26 dr=98.05 f=99.82 p=99.81 r=99.83 tag=99.96 best: 89.87 ep 12 avg=0
Epoch 22 tag:50.1070 str:22.3430 lab:34.8698 gn:0.0000
Epoch 23.4 lr:3.7500e-04 dev: df=69.67 dp=73.87 dr=65.92 f=89.75 p=89.43 r=90.09 tag=96.92 train: df=98.81 dp=98.49 dr=99.13 f=99.91 p=99.91 r=99.92 tag=99.97 best: 89.87 ep 12 avg=0
Epoch 23 tag:48.1364 str:22.0013 lab:32.5899 gn:0.0000
Epoch 24.4 lr:3.7500e-04 dev: df=67.15 dp=72.16 dr=62.78 f=89.36 p=89.27 r=89.46 tag=96.87 train: df=98.37 dp=98.48 dr=98.27 f=99.86 p=99.84 r=99.87 tag=99.96 best: 89.87 ep 12 avg=0
Epoch 24 tag:46.4214 str:20.3962 lab:30.5664 gn:0.0000
Epoch    23: reducing learning rate of group 0 to 1.8750e-04.
Epoch 25.4 lr:1.8750e-04 dev: df=70.1 dp=75.13 dr=65.7 f=89.55 p=89.3 r=89.79 tag=96.93 train: df=98.81 dp=98.7 dr=98.92 f=99.92 p=99.92 r=99.93 tag=99.98 best: 89.87 ep 12 avg=0
Epoch 25 tag:39.6571 str:15.9703 lab:24.6579 gn:0.0000
Epoch 26.4 lr:1.8750e-04 dev: df=68.09 dp=72.29 dr=64.35 f=89.56 p=89.44 r=89.68 tag=96.98 train: df=98.81 dp=98.7 dr=98.92 f=99.92 p=99.93 r=99.92 tag=99.98 best: 89.87 ep 12 avg=0
Epoch 26 tag:36.2922 str:12.7643 lab:21.0523 gn:0.0000
Epoch 27.4 lr:1.8750e-04 dev: df=68.2 dp=74.02 dr=63.23 f=89.75 p=89.63 r=89.87 tag=96.94 train: df=98.81 dp=98.7 dr=98.92 f=99.92 p=99.93 r=99.92 tag=99.98 best: 89.87 ep 12 avg=0
Epoch 27 tag:32.5351 str:11.7478 lab:19.1835 gn:0.0000
Epoch 28.4 lr:1.8750e-04 dev: df=68.74 dp=73.47 dr=64.57 f=89.52 p=89.29 r=89.74 tag=96.94 train: df=98.81 dp=98.92 dr=98.7 f=99.91 p=99.92 r=99.91 tag=99.97 best: 89.87 ep 12 avg=0
Epoch 28 tag:32.8373 str:10.6641 lab:18.5309 gn:0.0000
Epoch 29.4 lr:1.8750e-04 dev: df=67.68 dp=70.83 dr=64.8 f=89.59 p=89.37 r=89.82 tag=96.93 train: df=98.81 dp=98.92 dr=98.7 f=99.92 p=99.94 r=99.91 tag=99.98 best: 89.87 ep 12 avg=0
Epoch 29 tag:29.9467 str:10.1123 lab:17.3144 gn:0.0000
Epoch 30.1 lr:1.8750e-04 dev: df=69.88 dp=73.51 dr=66.59 f=89.68 p=89.47 r=89.89 tag=96.92 train: df=98.81 dp=98.7 dr=98.92 f=99.91 p=99.91 r=99.92 tag=99.98 best: 89.87 ep 12 avg=0
Epoch 30.2 lr:1.8750e-04 dev: df=68.17 dp=72.47 dr=64.35 f=89.62 p=89.41 r=89.82 tag=96.89 train: df=98.81 dp=98.7 dr=98.92 f=99.9 p=99.9 r=99.91 tag=99.98 best: 89.87 ep 12 avg=0
Epoch 30.3 lr:1.8750e-04 dev: df=68.24 dp=71.78 dr=65.02 f=89.64 p=89.39 r=89.9 tag=96.92 train: df=98.81 dp=98.7 dr=98.92 f=99.91 p=99.91 r=99.92 tag=99.98 best: 89.87 ep 12 avg=0
Epoch 30.4 lr:1.8750e-04 dev: df=68.71 dp=72.57 dr=65.25 f=89.71 p=89.42 r=89.99 tag=96.99 train: df=98.81 dp=98.7 dr=98.92 f=99.92 p=99.93 r=99.92 tag=99.98 best: 89.87 ep 12 avg=0
Epoch 30 tag:28.7483 str:9.8534 lab:16.9423 gn:0.0000
Epoch    29: reducing learning rate of group 0 to 9.3750e-05.
Epoch 31.1 lr:9.3750e-05 dev: df=68.81 dp=73.35 dr=64.8 f=89.7 p=89.52 r=89.89 tag=96.96 train: df=98.81 dp=98.92 dr=98.7 f=99.92 p=99.93 r=99.92 tag=99.98 best: 89.87 ep 12 avg=0
Epoch 31.2 lr:9.3750e-05 dev: df=69.36 dp=73.74 dr=65.47 f=89.61 p=89.36 r=89.86 tag=96.97 train: df=98.81 dp=98.49 dr=99.13 f=99.92 p=99.91 r=99.93 tag=99.98 best: 89.87 ep 12 avg=0
Epoch 31.3 lr:9.3750e-05 dev: df=68.49 dp=72.91 dr=64.57 f=89.59 p=89.33 r=89.85 tag=96.97 train: df=98.81 dp=98.7 dr=98.92 f=99.93 p=99.93 r=99.93 tag=99.98 best: 89.87 ep 12 avg=0
Epoch 31.4 lr:9.3750e-05 dev: df=69.12 dp=73.48 dr=65.25 f=89.56 p=89.31 r=89.81 tag=96.97 train: df=98.81 dp=98.7 dr=98.92 f=99.92 p=99.93 r=99.92 tag=99.98 best: 89.87 ep 12 avg=0
Epoch 31 tag:26.3433 str:7.9772 lab:14.9476 gn:0.0000
Finishing training: no improvement on dev.
