mode train
model /home/getalp/lumbantn/stage/results-ftb/ftb-NPaug-p100-disco-only-bert-26.7.22/model
train ../../all_disco_data_discbracket/disco_ftb_aug/aug_NP_p100_disco-only_train.discbracket
dev ../../all_disco_data_discbracket/disco_ftb/dev.discbracket
fmt discbracket
gpu 0
t 1
S None
v 1
projective False
enc lstm
spmrl False
collins False
i 1000
l 6e-05
m 0
d 1e-07
I 0.01
G None
B 16
eval_batchsize 200
O aadam
start_averaging 3
s 10
patience 3
check 4
dcu 0.2
diff 0.3
dwu 0.3
H 250
C 128
c 64
w 32
ft None
freeze_ft False
fun tanh
feats tacl
bert True
init_bert False
bert_id flaubert/flaubert_base_cased
no_char False
no_word True
parsed None
parsed_batchsize 300
parsed_epochs 1
parsed_lr 0.0001
load_pretrained None
lstm_dim 400
lstm_layers 2
lstm_residual_connection True
lstm_layer_norm 001
trans_dmodel 1024
trans_n_heads 8
trans_n_layers 8
trans_ff_hidden_dim 2048
trans_query_dim 64
trans_value_dim 64
trans_att_dropout 0.2
trans_ff_dropout 0.1
trans_residual_att_dropout 0.2
trans_residual_ff_dropout 0.1
trans_att_proj_bias False
trans_shared_dropout False
trans_no_norm_input True
trans_no_pre_ln True
trans_no_position_embs True
trans_position_concat False
trans_position_max 300
trans_position_dropout 0.0
Training sentences: 29518
Additional non-gold training sentences: 0
Dev set sentences: 1235
warmup steps: 1844
Epoch 1.4 lr:6.0000e-05 dev: df=32.84 dp=34.38 dr=31.43 f=83.01 p=83.98 r=82.07 tag=97.65 train: df=90.46 dp=90.7 dr=90.23 f=86.62 p=87.44 r=85.81 tag=98.82 best: f=0 df=0 ep 0 avg=0
Epoch 1 tag:1461.3081 str:533.3219 lab:2040.4310 gn:0.0000
Epoch 2.4 lr:6.0000e-05 dev: df=53.33 dp=64.0 dr=45.71 f=85.83 p=85.87 r=85.79 tag=98.0 train: df=99.1 dp=98.72 dr=99.49 f=92.19 p=92.03 r=92.35 tag=99.3 best: f=83.01 df=32.84 ep 1 avg=0
Epoch 2 tag:95.5149 str:141.2593 lab:275.0186 gn:0.0000
Epoch 3.4 lr:6.0000e-05 dev: df=54.55 dp=58.06 dr=51.43 f=86.77 p=86.66 r=86.89 tag=98.05 train: df=99.62 dp=99.23 dr=100.0 f=95.06 p=94.87 r=95.24 tag=99.53 best: f=85.83 df=53.33 ep 2 avg=0
Epoch 3.4 lr:6.0000e-05 dev: df=54.55 dp=58.06 dr=51.43 f=86.88 p=86.87 r=86.89 tag=98.08 train: df=99.62 dp=99.23 dr=100.0 f=95.16 p=95.04 r=95.27 tag=99.52 best: f=86.77 df=54.55 ep 3 avg=1
Epoch 3 tag:64.0111 str:94.0387 lab:176.5807 gn:0.0000
Epoch 4.4 lr:6.0000e-05 dev: df=50.85 dp=62.5 dr=42.86 f=87.0 p=87.05 r=86.95 tag=98.02 train: df=100.0 dp=100.0 dr=100.0 f=96.3 p=96.3 r=96.29 tag=99.62 best: f=86.88 df=54.55 ep 3 avg=0
Epoch 4.4 lr:6.0000e-05 dev: df=56.25 dp=62.07 dr=51.43 f=87.53 p=87.66 r=87.4 tag=98.08 train: df=99.87 dp=99.74 dr=100.0 f=96.56 p=96.58 r=96.53 tag=99.67 best: f=86.88 df=54.55 ep 3 avg=1
Epoch 4 tag:46.8948 str:69.6102 lab:134.2860 gn:0.0000
Epoch 5.4 lr:6.0000e-05 dev: df=58.06 dp=66.67 dr=51.43 f=86.72 p=86.75 r=86.69 tag=98.09 train: df=99.87 dp=99.74 dr=100.0 f=97.28 p=97.22 r=97.35 tag=99.73 best: f=87.53 df=56.25 ep 4 avg=0
Epoch 5.4 lr:6.0000e-05 dev: df=60.32 dp=67.86 dr=54.29 f=87.68 p=87.81 r=87.56 tag=98.12 train: df=100.0 dp=100.0 dr=100.0 f=97.35 p=97.35 r=97.35 tag=99.76 best: f=86.72 df=58.06 ep 5 avg=1
Epoch 5 tag:35.4672 str:53.5627 lab:106.5427 gn:0.0000
Epoch 6.4 lr:6.0000e-05 dev: df=56.67 dp=68.0 dr=48.57 f=86.79 p=86.49 r=87.09 tag=97.99 train: df=100.0 dp=100.0 dr=100.0 f=98.0 p=97.85 r=98.15 tag=99.72 best: f=87.68 df=60.32 ep 5 avg=0
Epoch 6.4 lr:6.0000e-05 dev: df=59.02 dp=69.23 dr=51.43 f=87.86 p=87.91 r=87.8 tag=98.16 train: df=100.0 dp=100.0 dr=100.0 f=97.72 p=97.66 r=97.79 tag=99.81 best: f=87.68 df=60.32 ep 5 avg=1
Epoch 6 tag:28.0599 str:43.5502 lab:88.1928 gn:0.0000
Epoch 7.4 lr:6.0000e-05 dev: df=52.63 dp=68.18 dr=42.86 f=86.92 p=87.17 r=86.67 tag=98.0 train: df=100.0 dp=100.0 dr=100.0 f=98.18 p=98.28 r=98.07 tag=99.88 best: f=87.68 df=60.32 ep 5 avg=0
Epoch 7.4 lr:6.0000e-05 dev: df=60.32 dp=67.86 dr=54.29 f=87.8 p=87.88 r=87.72 tag=98.16 train: df=100.0 dp=100.0 dr=100.0 f=98.04 p=98.01 r=98.08 tag=99.87 best: f=87.68 df=60.32 ep 5 avg=1
Epoch 7 tag:22.3964 str:35.5622 lab:73.3681 gn:0.0000
Epoch 8.4 lr:6.0000e-05 dev: df=64.52 dp=74.07 dr=57.14 f=86.69 p=87.14 r=86.25 tag=98.04 train: df=100.0 dp=100.0 dr=100.0 f=98.59 p=98.64 r=98.53 tag=99.87 best: f=87.8 df=60.32 ep 7 avg=0
Epoch 8.4 lr:6.0000e-05 dev: df=62.5 dp=68.97 dr=57.14 f=87.8 p=87.85 r=87.74 tag=98.14 train: df=100.0 dp=100.0 dr=100.0 f=98.32 p=98.24 r=98.39 tag=99.89 best: f=86.69 df=64.52 ep 8 avg=1
Epoch 8 tag:18.1696 str:29.3527 lab:61.8342 gn:0.0000
Epoch 9.4 lr:6.0000e-05 dev: df=50.0 dp=60.0 dr=42.86 f=86.57 p=86.89 r=86.26 tag=98.0 train: df=100.0 dp=100.0 dr=100.0 f=98.78 p=98.84 r=98.71 tag=99.89 best: f=86.69 df=64.52 ep 8 avg=0
Epoch 9.4 lr:6.0000e-05 dev: df=60.32 dp=67.86 dr=54.29 f=87.83 p=87.87 r=87.8 tag=98.14 train: df=100.0 dp=100.0 dr=100.0 f=98.55 p=98.51 r=98.59 tag=99.91 best: f=86.69 df=64.52 ep 8 avg=1
Epoch 9 tag:15.2433 str:25.6859 lab:53.3158 gn:0.0000
Epoch 10.4 lr:6.0000e-05 dev: df=63.49 dp=71.43 dr=57.14 f=86.66 p=86.59 r=86.72 tag=98.02 train: df=100.0 dp=100.0 dr=100.0 f=99.09 p=99.05 r=99.14 tag=99.87 best: f=86.69 df=64.52 ep 8 avg=0
Epoch 10.4 lr:6.0000e-05 dev: df=61.29 dp=70.37 dr=54.29 f=87.79 p=87.82 r=87.75 tag=98.12 train: df=100.0 dp=100.0 dr=100.0 f=98.7 p=98.66 r=98.74 tag=99.91 best: f=86.69 df=64.52 ep 8 avg=1
Epoch 10 tag:13.0746 str:22.0497 lab:46.0421 gn:0.0000
Epoch 11.4 lr:6.0000e-05 dev: df=51.52 dp=54.84 dr=48.57 f=86.68 p=86.68 r=86.67 tag=98.02 train: df=100.0 dp=100.0 dr=100.0 f=99.2 p=99.18 r=99.22 tag=99.93 best: f=86.69 df=64.52 ep 8 avg=0
Epoch 11.4 lr:6.0000e-05 dev: df=61.29 dp=70.37 dr=54.29 f=87.78 p=87.81 r=87.76 tag=98.09 train: df=100.0 dp=100.0 dr=100.0 f=99.0 p=98.98 r=99.01 tag=99.93 best: f=86.69 df=64.52 ep 8 avg=1
Epoch 11 tag:11.5697 str:19.8859 lab:40.8137 gn:0.0000
Epoch    11: reducing learning rate of group 0 to 3.0000e-05.
Epoch 12.4 lr:3.0000e-05 dev: df=66.67 dp=70.97 dr=62.86 f=86.98 p=86.93 r=87.03 tag=98.02 train: df=100.0 dp=100.0 dr=100.0 f=99.67 p=99.66 r=99.69 tag=99.98 best: f=86.69 df=64.52 ep 8 avg=0
Epoch 12.4 lr:3.0000e-05 dev: df=63.49 dp=71.43 dr=57.14 f=87.84 p=87.87 r=87.82 tag=98.08 train: df=100.0 dp=100.0 dr=100.0 f=99.11 p=99.07 r=99.14 tag=99.93 best: f=86.98 df=66.67 ep 12 avg=1
Epoch 12 tag:6.0631 str:11.3410 lab:26.2021 gn:0.0000
Epoch 13.4 lr:3.0000e-05 dev: df=58.06 dp=66.67 dr=51.43 f=87.08 p=87.14 r=87.03 tag=98.05 train: df=100.0 dp=100.0 dr=100.0 f=99.77 p=99.76 r=99.78 tag=99.99 best: f=86.98 df=66.67 ep 12 avg=0
Epoch 13.4 lr:3.0000e-05 dev: df=63.49 dp=71.43 dr=57.14 f=87.83 p=87.88 r=87.78 tag=98.08 train: df=100.0 dp=100.0 dr=100.0 f=99.25 p=99.22 r=99.28 tag=99.94 best: f=86.98 df=66.67 ep 12 avg=1
Epoch 13 tag:4.4432 str:8.1777 lab:19.9466 gn:0.0000
Epoch 14.4 lr:3.0000e-05 dev: df=55.88 dp=57.58 dr=54.29 f=87.04 p=86.92 r=87.15 tag=98.07 train: df=100.0 dp=100.0 dr=100.0 f=99.79 p=99.8 r=99.78 tag=99.99 best: f=86.98 df=66.67 ep 12 avg=0
Epoch 14.4 lr:3.0000e-05 dev: df=63.49 dp=71.43 dr=57.14 f=87.81 p=87.85 r=87.77 tag=98.07 train: df=100.0 dp=100.0 dr=100.0 f=99.37 p=99.34 r=99.4 tag=99.94 best: f=86.98 df=66.67 ep 12 avg=1
Epoch 14 tag:3.5961 str:6.8853 lab:17.0563 gn:0.0000
Epoch 15.4 lr:3.0000e-05 dev: df=62.3 dp=73.08 dr=54.29 f=87.03 p=87.05 r=87.01 tag=98.05 train: df=100.0 dp=100.0 dr=100.0 f=99.83 p=99.82 r=99.84 tag=99.99 best: f=86.98 df=66.67 ep 12 avg=0
Epoch 15.4 lr:3.0000e-05 dev: df=62.5 dp=68.97 dr=57.14 f=87.75 p=87.78 r=87.72 tag=98.07 train: df=100.0 dp=100.0 dr=100.0 f=99.44 p=99.4 r=99.47 tag=99.96 best: f=86.98 df=66.67 ep 12 avg=1
Epoch 15 tag:3.2414 str:6.0201 lab:14.9650 gn:0.0000
Epoch    15: reducing learning rate of group 0 to 1.5000e-05.
Epoch 16.4 lr:1.5000e-05 dev: df=57.63 dp=70.83 dr=48.57 f=87.11 p=87.32 r=86.9 tag=98.06 train: df=100.0 dp=100.0 dr=100.0 f=99.87 p=99.87 r=99.87 tag=99.99 best: f=86.98 df=66.67 ep 12 avg=0
Epoch 16.4 lr:1.5000e-05 dev: df=61.54 dp=66.67 dr=57.14 f=87.74 p=87.78 r=87.7 tag=98.08 train: df=100.0 dp=100.0 dr=100.0 f=99.47 p=99.44 r=99.51 tag=99.96 best: f=86.98 df=66.67 ep 12 avg=1
Epoch 16 tag:2.2168 str:3.8263 lab:10.9810 gn:0.0000
Epoch 17.4 lr:1.5000e-05 dev: df=60.0 dp=72.0 dr=51.43 f=87.15 p=87.28 r=87.03 tag=98.03 train: df=100.0 dp=100.0 dr=100.0 f=99.93 p=99.93 r=99.92 tag=100.0 best: f=86.98 df=66.67 ep 12 avg=0
Epoch 17.4 lr:1.5000e-05 dev: df=61.54 dp=66.67 dr=57.14 f=87.71 p=87.75 r=87.67 tag=98.09 train: df=100.0 dp=100.0 dr=100.0 f=99.52 p=99.48 r=99.55 tag=99.96 best: f=86.98 df=66.67 ep 12 avg=1
Epoch 17 tag:1.6252 str:2.9201 lab:8.9483 gn:0.0000
Epoch 18.4 lr:1.5000e-05 dev: df=55.74 dp=65.38 dr=48.57 f=87.06 p=87.17 r=86.96 tag=98.1 train: df=100.0 dp=100.0 dr=100.0 f=99.91 p=99.91 r=99.91 tag=100.0 best: f=86.98 df=66.67 ep 12 avg=0
Epoch 18.4 lr:1.5000e-05 dev: df=61.54 dp=66.67 dr=57.14 f=87.67 p=87.72 r=87.61 tag=98.1 train: df=100.0 dp=100.0 dr=100.0 f=99.62 p=99.6 r=99.63 tag=99.98 best: f=86.98 df=66.67 ep 12 avg=1
Epoch 18 tag:1.4741 str:2.7675 lab:8.1004 gn:0.0000
Epoch 19.4 lr:1.5000e-05 dev: df=54.24 dp=66.67 dr=45.71 f=87.07 p=87.22 r=86.92 tag=98.02 train: df=100.0 dp=100.0 dr=100.0 f=99.93 p=99.93 r=99.93 tag=100.0 best: f=86.98 df=66.67 ep 12 avg=0
Epoch 19.4 lr:1.5000e-05 dev: df=62.5 dp=68.97 dr=57.14 f=87.62 p=87.67 r=87.56 tag=98.09 train: df=100.0 dp=100.0 dr=100.0 f=99.66 p=99.65 r=99.67 tag=99.98 best: f=86.98 df=66.67 ep 12 avg=1
Epoch 19 tag:1.2604 str:2.2663 lab:7.4414 gn:0.0000
Epoch    19: reducing learning rate of group 0 to 7.5000e-06.
Epoch 20.4 lr:7.5000e-06 dev: df=62.3 dp=73.08 dr=54.29 f=87.09 p=87.2 r=86.97 tag=98.07 train: df=100.0 dp=100.0 dr=100.0 f=99.95 p=99.95 r=99.95 tag=100.0 best: f=86.98 df=66.67 ep 12 avg=0
Epoch 20.4 lr:7.5000e-06 dev: df=62.5 dp=68.97 dr=57.14 f=87.56 p=87.61 r=87.52 tag=98.09 train: df=100.0 dp=100.0 dr=100.0 f=99.71 p=99.72 r=99.7 tag=99.98 best: f=86.98 df=66.67 ep 12 avg=1
Epoch 20 tag:1.0140 str:1.7308 lab:6.0094 gn:0.0000
Epoch 21.4 lr:7.5000e-06 dev: df=53.33 dp=64.0 dr=45.71 f=87.03 p=87.16 r=86.91 tag=98.06 train: df=100.0 dp=100.0 dr=100.0 f=99.94 p=99.94 r=99.95 tag=99.99 best: f=86.98 df=66.67 ep 12 avg=0
Epoch 21.4 lr:7.5000e-06 dev: df=62.5 dp=68.97 dr=57.14 f=87.55 p=87.61 r=87.49 tag=98.09 train: df=100.0 dp=100.0 dr=100.0 f=99.76 p=99.76 r=99.76 tag=99.99 best: f=86.98 df=66.67 ep 12 avg=1
Epoch 21 tag:0.7739 str:1.3861 lab:5.3537 gn:0.0000
Epoch 22.4 lr:7.5000e-06 dev: df=60.0 dp=72.0 dr=51.43 f=87.19 p=87.28 r=87.1 tag=98.09 train: df=100.0 dp=100.0 dr=100.0 f=99.95 p=99.95 r=99.95 tag=99.99 best: f=86.98 df=66.67 ep 12 avg=0
Epoch 22.4 lr:7.5000e-06 dev: df=62.5 dp=68.97 dr=57.14 f=87.51 p=87.57 r=87.44 tag=98.09 train: df=100.0 dp=100.0 dr=100.0 f=99.77 p=99.77 r=99.77 tag=99.99 best: f=86.98 df=66.67 ep 12 avg=1
Epoch 22 tag:0.7205 str:1.2818 lab:4.9444 gn:0.0000
Epoch 23.4 lr:7.5000e-06 dev: df=65.62 dp=72.41 dr=60.0 f=87.31 p=87.4 r=87.22 tag=98.05 train: df=100.0 dp=100.0 dr=100.0 f=99.95 p=99.95 r=99.95 tag=100.0 best: f=86.98 df=66.67 ep 12 avg=0
Epoch 23.4 lr:7.5000e-06 dev: df=62.5 dp=68.97 dr=57.14 f=87.51 p=87.58 r=87.44 tag=98.09 train: df=100.0 dp=100.0 dr=100.0 f=99.8 p=99.8 r=99.8 tag=99.99 best: f=86.98 df=66.67 ep 12 avg=1
Epoch 23 tag:0.6737 str:1.1778 lab:4.5463 gn:0.0000
Epoch    23: reducing learning rate of group 0 to 3.7500e-06.
Epoch 24.4 lr:3.7500e-06 dev: df=64.52 dp=74.07 dr=57.14 f=87.36 p=87.47 r=87.25 tag=98.1 train: df=100.0 dp=100.0 dr=100.0 f=99.96 p=99.96 r=99.96 tag=100.0 best: f=86.98 df=66.67 ep 12 avg=0
Epoch 24.4 lr:3.7500e-06 dev: df=62.5 dp=68.97 dr=57.14 f=87.47 p=87.54 r=87.41 tag=98.09 train: df=100.0 dp=100.0 dr=100.0 f=99.8 p=99.81 r=99.8 tag=99.99 best: f=86.98 df=66.67 ep 12 avg=1
Epoch 24 tag:0.5456 str:1.0101 lab:4.1922 gn:0.0000
Epoch 25.4 lr:3.7500e-06 dev: df=63.49 dp=71.43 dr=57.14 f=87.25 p=87.35 r=87.15 tag=98.11 train: df=100.0 dp=100.0 dr=100.0 f=99.97 p=99.97 r=99.97 tag=100.0 best: f=86.98 df=66.67 ep 12 avg=0
Epoch 25.4 lr:3.7500e-06 dev: df=61.54 dp=66.67 dr=57.14 f=87.52 p=87.59 r=87.46 tag=98.09 train: df=100.0 dp=100.0 dr=100.0 f=99.82 p=99.82 r=99.81 tag=99.99 best: f=86.98 df=66.67 ep 12 avg=1
Epoch 25 tag:0.5417 str:0.8868 lab:3.9670 gn:0.0000
Finishing training: no improvement on dev.
