mode train
model /home/getalp/lumbantn/stage/results/dptb-12.7.22/model
train ../../all_disco_data_discbracket/dptb/train.discbracket
dev ../../all_disco_data_discbracket/dptb/dev.discbracket
fmt discbracket
gpu 0
t 1
S None
v 1
projective False
enc lstm
spmrl False
collins False
i 1000
l 0.0015
m 0
d 1e-07
I 0.01
G None
B 8
eval_batchsize 30
O adam
start_averaging 40
s 10
patience 5
check 4
dcu 0.2
diff 0.3
dwu 0.2
H 250
C 256
c 64
w 300
ft None
freeze_ft False
fun tanh
feats tacl
bert False
init_bert False
bert_id bert-base-cased
no_char False
no_word False
parsed None
parsed_batchsize 300
parsed_epochs 1
parsed_lr 0.0001
load_pretrained None
lstm_dim 400
lstm_layers 2
lstm_residual_connection True
lstm_layer_norm 001
trans_dmodel 1024
trans_n_heads 8
trans_n_layers 8
trans_ff_hidden_dim 2048
trans_query_dim 64
trans_value_dim 64
trans_att_dropout 0.2
trans_ff_dropout 0.1
trans_residual_att_dropout 0.2
trans_residual_ff_dropout 0.1
trans_att_proj_bias False
trans_shared_dropout False
trans_no_norm_input True
trans_no_pre_ln True
trans_no_position_embs True
trans_position_concat False
trans_position_max 300
trans_position_dropout 0.0
Training sentences: 39832
Additional non-gold training sentences: 0
Dev set sentences: 1700
warmup steps: 4979
Epoch 1.4 lr:1.5000e-03 dev: df=58.37 dp=72.43 dr=48.88 f=83.23 p=83.14 r=83.32 tag=96.48 train: df=57.64 dp=67.35 dr=50.38 f=83.52 p=83.5 r=83.54 tag=97.08 best: 0 ep 0 avg=0
Epoch 1 tag:2147.0437 str:974.7988 lab:1796.9168 gn:0.0000
Epoch 2.4 lr:1.5000e-03 dev: df=64.02 dp=74.63 dr=56.05 f=88.33 p=88.18 r=88.47 tag=96.72 train: df=74.26 dp=83.02 dr=67.18 f=91.13 p=91.12 r=91.15 tag=98.11 best: 83.23 ep 1 avg=0
Epoch 2 tag:491.5068 str:408.3034 lab:529.4405 gn:0.0000
Epoch 3.4 lr:1.5000e-03 dev: df=67.43 dp=77.94 dr=59.42 f=89.66 p=89.79 r=89.54 tag=97.05 train: df=76.19 dp=88.0 dr=67.18 f=93.27 p=93.39 r=93.15 tag=98.37 best: 88.33 ep 2 avg=0
Epoch 3 tag:378.4781 str:301.1987 lab:382.1765 gn:0.0000
Epoch 4.4 lr:1.5000e-03 dev: df=67.34 dp=76.57 dr=60.09 f=90.2 p=90.35 r=90.04 tag=97.06 train: df=82.11 dp=87.83 dr=77.1 f=94.86 p=94.99 r=94.74 tag=98.6 best: 89.66 ep 3 avg=0
Epoch 4 tag:324.8498 str:243.2691 lab:308.1044 gn:0.0000
Epoch 5.4 lr:1.5000e-03 dev: df=70.07 dp=76.6 dr=64.57 f=89.95 p=89.89 r=90.01 tag=97.08 train: df=85.16 dp=87.2 dr=83.21 f=95.95 p=95.94 r=95.97 tag=98.79 best: 90.2 ep 4 avg=0
Epoch 5 tag:285.4432 str:202.6055 lab:258.5127 gn:0.0000
Epoch 6.4 lr:1.5000e-03 dev: df=72.09 dp=78.57 dr=66.59 f=89.85 p=89.59 r=90.12 tag=97.07 train: df=87.88 dp=87.22 dr=88.55 f=96.58 p=96.35 r=96.8 tag=98.96 best: 90.2 ep 4 avg=0
Epoch 6 tag:255.4140 str:170.0895 lab:222.2220 gn:0.0000
Epoch 7.4 lr:1.5000e-03 dev: df=72.21 dp=76.77 dr=68.16 f=89.94 p=90.03 r=89.85 tag=96.82 train: df=90.08 dp=90.08 dr=90.08 f=97.48 p=97.5 r=97.45 tag=99.21 best: 90.2 ep 4 avg=0
Epoch 7 tag:232.1086 str:147.3952 lab:195.2852 gn:0.0000
Epoch 8.4 lr:1.5000e-03 dev: df=70.26 dp=73.53 dr=67.26 f=89.92 p=89.68 r=90.15 tag=96.93 train: df=90.91 dp=90.23 dr=91.6 f=97.73 p=97.59 r=97.87 tag=99.28 best: 90.2 ep 4 avg=0
Epoch 8 tag:211.6689 str:129.9125 lab:176.9907 gn:0.0000
Epoch 9.4 lr:1.5000e-03 dev: df=71.53 dp=78.19 dr=65.92 f=90.11 p=90.15 r=90.07 tag=96.96 train: df=93.33 dp=95.97 dr=90.84 f=98.45 p=98.5 r=98.4 tag=99.42 best: 90.2 ep 4 avg=0
Epoch 9 tag:193.1301 str:117.4765 lab:161.2249 gn:0.0000
Epoch 10.4 lr:1.5000e-03 dev: df=71.34 dp=77.43 dr=66.14 f=89.86 p=90.12 r=89.59 tag=97.05 train: df=89.33 dp=92.62 dr=86.26 f=98.46 p=98.56 r=98.37 tag=99.46 best: 90.2 ep 4 avg=0
Epoch 10 tag:179.0026 str:109.0752 lab:148.6163 gn:0.0000
Epoch     9: reducing learning rate of group 0 to 7.5000e-04.
Epoch 11.4 lr:7.5000e-04 dev: df=71.9 dp=75.25 dr=68.83 f=90.3 p=90.27 r=90.34 tag=97.13 train: df=95.02 dp=95.38 dr=94.66 f=99.27 p=99.31 r=99.24 tag=99.68 best: 90.2 ep 4 avg=0
Epoch 11 tag:130.2280 str:71.3985 lab:100.6524 gn:0.0000
Epoch 12.4 lr:7.5000e-04 dev: df=72.23 dp=77.1 dr=67.94 f=90.4 p=90.32 r=90.48 tag=97.04 train: df=97.34 dp=96.97 dr=97.71 f=99.58 p=99.53 r=99.63 tag=99.76 best: 90.3 ep 11 avg=0
Epoch 12 tag:104.9223 str:49.9434 lab:75.5331 gn:0.0000
Epoch 13.4 lr:7.5000e-04 dev: df=73.89 dp=79.74 dr=68.83 f=90.07 p=89.83 r=90.31 tag=96.93 train: df=96.97 dp=96.24 dr=97.71 f=99.6 p=99.56 r=99.64 tag=99.88 best: 90.4 ep 12 avg=0
Epoch 13 tag:91.6356 str:41.9228 lab:64.8764 gn:0.0000
Epoch 14.4 lr:7.5000e-04 dev: df=73.91 dp=80.1 dr=68.61 f=90.0 p=89.79 r=90.2 tag=96.88 train: df=98.85 dp=99.23 dr=98.47 f=99.69 p=99.72 r=99.67 tag=99.81 best: 90.4 ep 12 avg=0
Epoch 14 tag:83.4579 str:38.4680 lab:59.5393 gn:0.0000
Epoch 15.4 lr:7.5000e-04 dev: df=73.94 dp=80.47 dr=68.39 f=90.17 p=90.13 r=90.22 tag=96.84 train: df=98.1 dp=97.73 dr=98.47 f=99.72 p=99.76 r=99.69 tag=99.87 best: 90.4 ep 12 avg=0
Epoch 15 tag:76.0604 str:34.9520 lab:55.2270 gn:0.0000
Epoch 16.4 lr:7.5000e-04 dev: df=71.09 dp=75.38 dr=67.26 f=90.0 p=90.15 r=89.85 tag=96.92 train: df=98.85 dp=99.23 dr=98.47 f=99.67 p=99.72 r=99.61 tag=99.92 best: 90.4 ep 12 avg=0
Epoch 16 tag:69.5833 str:33.2952 lab:51.3869 gn:0.0000
Epoch 17.4 lr:7.5000e-04 dev: df=69.71 dp=72.86 dr=66.82 f=90.0 p=89.77 r=90.24 tag=96.88 train: df=93.98 dp=92.59 dr=95.42 f=99.63 p=99.69 r=99.58 tag=99.89 best: 90.4 ep 12 avg=0
Epoch 17 tag:64.5092 str:32.4663 lab:48.9822 gn:0.0000
Epoch 18.4 lr:7.5000e-04 dev: df=71.31 dp=76.74 dr=66.59 f=89.88 p=89.78 r=89.97 tag=96.93 train: df=96.97 dp=96.24 dr=97.71 f=99.5 p=99.56 r=99.44 tag=99.94 best: 90.4 ep 12 avg=0
Epoch 18 tag:62.7000 str:31.1749 lab:48.2333 gn:0.0000
Epoch    17: reducing learning rate of group 0 to 3.7500e-04.
Epoch 19.4 lr:3.7500e-04 dev: df=72.35 dp=80.49 dr=65.7 f=90.3 p=90.24 r=90.36 tag=96.94 train: df=98.85 dp=99.23 dr=98.47 f=99.9 p=99.93 r=99.87 tag=99.98 best: 90.4 ep 12 avg=0
Epoch 19 tag:47.6260 str:22.9462 lab:34.5907 gn:0.0000
Epoch 20.4 lr:3.7500e-04 dev: df=71.57 dp=77.34 dr=66.59 f=90.21 p=90.15 r=90.27 tag=96.95 train: df=98.1 dp=97.73 dr=98.47 f=99.9 p=99.93 r=99.87 tag=99.98 best: 90.4 ep 12 avg=0
Epoch 20 tag:40.7086 str:16.1739 lab:27.4095 gn:0.0000
Epoch 21.4 lr:3.7500e-04 dev: df=71.19 dp=75.89 dr=67.04 f=90.0 p=89.87 r=90.12 tag=96.91 train: df=98.85 dp=99.23 dr=98.47 f=99.93 p=99.93 r=99.94 tag=99.98 best: 90.4 ep 12 avg=0
Epoch 21 tag:37.1915 str:13.4903 lab:23.8064 gn:0.0000
Epoch 22.4 lr:3.7500e-04 dev: df=72.4 dp=77.49 dr=67.94 f=90.31 p=90.38 r=90.25 tag=96.89 train: df=98.86 dp=98.48 dr=99.24 f=99.95 p=99.96 r=99.95 tag=99.98 best: 90.4 ep 12 avg=0
Epoch 22 tag:35.1833 str:12.8020 lab:22.4374 gn:0.0000
Epoch 23.4 lr:3.7500e-04 dev: df=70.76 dp=76.36 dr=65.92 f=90.21 p=90.12 r=90.29 tag=96.85 train: df=98.08 dp=98.46 dr=97.71 f=99.94 p=99.94 r=99.94 tag=99.98 best: 90.4 ep 12 avg=0
Epoch 23 tag:32.2038 str:12.1202 lab:21.1827 gn:0.0000
Epoch 24.4 lr:3.7500e-04 dev: df=70.73 dp=75.7 dr=66.37 f=90.06 p=90.02 r=90.1 tag=96.85 train: df=98.85 dp=99.23 dr=98.47 f=99.96 p=99.97 r=99.95 tag=99.98 best: 90.4 ep 12 avg=0
Epoch 24 tag:31.0764 str:11.3469 lab:19.8872 gn:0.0000
Epoch    23: reducing learning rate of group 0 to 1.8750e-04.
Epoch 25.4 lr:1.8750e-04 dev: df=71.79 dp=77.26 dr=67.04 f=90.1 p=90.11 r=90.1 tag=96.92 train: df=98.86 dp=98.48 dr=99.24 f=99.95 p=99.95 r=99.95 tag=99.98 best: 90.4 ep 12 avg=0
Epoch 25 tag:26.6707 str:9.4860 lab:16.7117 gn:0.0000
Epoch 26.4 lr:1.8750e-04 dev: df=72.01 dp=77.18 dr=67.49 f=90.24 p=90.09 r=90.4 tag=96.97 train: df=98.86 dp=98.48 dr=99.24 f=99.95 p=99.95 r=99.95 tag=99.99 best: 90.4 ep 12 avg=0
Epoch 26 tag:24.6359 str:7.3945 lab:14.3459 gn:0.0000
Epoch 27.4 lr:1.8750e-04 dev: df=71.5 dp=76.01 dr=67.49 f=90.22 p=90.05 r=90.4 tag=96.93 train: df=98.85 dp=99.23 dr=98.47 f=99.95 p=99.96 r=99.94 tag=99.98 best: 90.4 ep 12 avg=0
Epoch 27 tag:23.5361 str:6.9480 lab:13.8542 gn:0.0000
Epoch 28.4 lr:1.8750e-04 dev: df=71.84 dp=76.79 dr=67.49 f=90.21 p=90.13 r=90.29 tag=96.91 train: df=98.85 dp=99.23 dr=98.47 f=99.95 p=99.96 r=99.94 tag=99.98 best: 90.4 ep 12 avg=0
Epoch 28 tag:22.9017 str:6.5808 lab:12.6668 gn:0.0000
Epoch 29.4 lr:1.8750e-04 dev: df=70.89 dp=74.38 dr=67.71 f=90.15 p=90.04 r=90.27 tag=96.86 train: df=98.86 dp=98.48 dr=99.24 f=99.95 p=99.95 r=99.95 tag=99.98 best: 90.4 ep 12 avg=0
Epoch 29 tag:21.3095 str:6.2232 lab:12.4477 gn:0.0000
Epoch 30.1 lr:1.8750e-04 dev: df=70.71 dp=73.72 dr=67.94 f=90.24 p=90.18 r=90.3 tag=96.89 train: df=98.85 dp=99.23 dr=98.47 f=99.95 p=99.96 r=99.94 tag=99.98 best: 90.4 ep 12 avg=0
Epoch 30.2 lr:1.8750e-04 dev: df=71.93 dp=75.87 dr=68.39 f=90.2 p=90.19 r=90.21 tag=96.9 train: df=98.85 dp=99.23 dr=98.47 f=99.95 p=99.96 r=99.94 tag=99.98 best: 90.4 ep 12 avg=0
Epoch 30.3 lr:1.8750e-04 dev: df=71.23 dp=75.12 dr=67.71 f=90.06 p=89.84 r=90.27 tag=96.86 train: df=98.85 dp=99.23 dr=98.47 f=99.95 p=99.96 r=99.94 tag=99.98 best: 90.4 ep 12 avg=0
Epoch 30.4 lr:1.8750e-04 dev: df=71.92 dp=75.56 dr=68.61 f=90.12 p=90.18 r=90.07 tag=96.88 train: df=98.85 dp=99.23 dr=98.47 f=99.96 p=99.97 r=99.95 tag=99.98 best: 90.4 ep 12 avg=0
Epoch 30 tag:19.6371 str:6.0023 lab:11.5619 gn:0.0000
Epoch    29: reducing learning rate of group 0 to 9.3750e-05.
Epoch 31.1 lr:9.3750e-05 dev: df=72.02 dp=76.06 dr=68.39 f=90.18 p=90.14 r=90.22 tag=96.88 train: df=98.85 dp=99.23 dr=98.47 f=99.96 p=99.97 r=99.95 tag=99.98 best: 90.4 ep 12 avg=0
Epoch 31.2 lr:9.3750e-05 dev: df=72.21 dp=76.77 dr=68.16 f=90.13 p=90.04 r=90.23 tag=96.86 train: df=98.85 dp=99.23 dr=98.47 f=99.96 p=99.97 r=99.95 tag=99.98 best: 90.4 ep 12 avg=0
Epoch 31.3 lr:9.3750e-05 dev: df=72.04 dp=76.38 dr=68.16 f=90.14 p=89.98 r=90.3 tag=96.85 train: df=98.85 dp=99.23 dr=98.47 f=99.95 p=99.96 r=99.94 tag=99.98 best: 90.4 ep 12 avg=0
Epoch 31.4 lr:9.3750e-05 dev: df=71.78 dp=75.81 dr=68.16 f=90.11 p=89.99 r=90.23 tag=96.85 train: df=98.85 dp=99.23 dr=98.47 f=99.95 p=99.96 r=99.94 tag=99.98 best: 90.4 ep 12 avg=0
Epoch 31 tag:18.7188 str:5.2903 lab:10.2403 gn:0.0000
Finishing training: no improvement on dev.
